WaveData412_500mv_40ms.csv

#timebase=40000000000(ps)
,#voltbase=500000(mv/100)
#size=4064
1.00E-04,3.180
2.00E-04,3.180
3.00E-04,3.200
4.00E-04,3.180
5.00E-04,3.200
6.00E-04,3.200
7.00E-04,3.200
8.00E-04,3.180
9.00E-04,3.200
1.00E-03,3.200
1.10E-03,3.180
1.20E-03,3.180
1.30E-03,3.200
1.40E-03,3.180
1.50E-03,3.200
1.60E-03,3.200
1.70E-03,3.180
1.80E-03,3.200
1.90E-03,3.180
2.00E-03,3.180
2.10E-03,3.180
2.20E-03,3.180
2.30E-03,3.200
2.40E-03,3.180
2.50E-03,3.180
2.60E-03,3.180
2.70E-03,3.180
2.80E-03,3.180
2.90E-03,3.200
3.00E-03,3.200
3.10E-03,3.200
3.20E-03,3.200
3.30E-03,3.180
3.40E-03,3.220
3.50E-03,3.200
3.60E-03,3.180
3.70E-03,3.180
3.80E-03,3.200
3.90E-03,3.180
4.00E-03,3.200
4.10E-03,3.180
4.20E-03,3.180
4.30E-03,3.180
4.40E-03,3.180
4.50E-03,3.200
4.60E-03,3.180
4.70E-03,3.180
4.80E-03,3.200
4.90E-03,3.180
5.00E-03,3.180
5.10E-03,3.180
5.20E-03,3.180
5.30E-03,3.200
5.40E-03,3.180
5.50E-03,3.180
5.60E-03,3.200
5.70E-03,3.200
5.80E-03,3.200
5.90E-03,3.180
6.00E-03,3.200
6.10E-03,3.200
6.20E-03,3.180
6.30E-03,3.200
6.40E-03,3.180
6.50E-03,3.180
6.60E-03,3.180
6.70E-03,3.200
6.80E-03,3.200
6.90E-03,3.200
7.00E-03,3.200
7.10E-03,3.200
7.20E-03,3.180
7.30E-03,3.180
7.40E-03,3.200
7.50E-03,3.180
7.60E-03,3.200
7.70E-03,3.200
7.80E-03,3.180
7.90E-03,3.200
8.00E-03,3.200
8.10E-03,3.200
8.20E-03,3.180
8.30E-03,3.180
8.40E-03,3.180
8.50E-03,3.180
8.60E-03,3.200
8.70E-03,3.200
8.80E-03,3.180
8.90E-03,3.200
9.00E-03,3.200
9.10E-03,3.200
9.20E-03,3.180
9.30E-03,3.200
9.40E-03,3.200
9.50E-03,3.180
9.60E-03,3.200
9.70E-03,3.180
9.80E-03,3.180
9.90E-03,3.180
1.00E-02,3.200
1.01E-02,3.200
1.02E-02,3.180
1.03E-02,3.180
1.04E-02,3.180
1.05E-02,3.180
1.06E-02,3.180
1.07E-02,3.200
1.08E-02,3.180
1.09E-02,3.200
1.10E-02,3.180
1.11E-02,3.180
1.12E-02,3.180
1.13E-02,3.180
1.14E-02,3.180
1.15E-02,3.200
1.16E-02,3.180
1.17E-02,3.200
1.18E-02,3.200
1.19E-02,3.200
1.20E-02,3.200
1.21E-02,3.180
1.22E-02,3.200
1.23E-02,3.200
1.24E-02,3.200
1.25E-02,3.180
1.26E-02,3.180
1.27E-02,3.200
1.28E-02,3.180
1.29E-02,3.180
1.30E-02,3.180
1.31E-02,3.200
1.32E-02,3.200
1.33E-02,3.180
1.34E-02,3.180
1.35E-02,3.160
1.36E-02,3.180
1.37E-02,3.200
1.38E-02,3.180
1.39E-02,3.160
1.40E-02,3.180
1.41E-02,3.160
1.42E-02,3.160
1.43E-02,3.180
1.44E-02,3.160
1.45E-02,3.160
1.46E-02,3.180
1.47E-02,3.180
1.48E-02,3.140
1.49E-02,3.160
1.50E-02,3.140
1.51E-02,3.140
1.52E-02,3.120
1.53E-02,3.160
1.54E-02,3.160
1.55E-02,3.120
1.56E-02,3.160
1.57E-02,3.160
1.58E-02,3.120
1.59E-02,3.120
1.60E-02,3.140
1.61E-02,3.140
1.62E-02,3.120
1.63E-02,3.120
1.64E-02,3.120
1.65E-02,3.100
1.66E-02,3.120
1.67E-02,3.140
1.68E-02,3.100
1.69E-02,3.100
1.70E-02,3.120
1.71E-02,3.100
1.72E-02,3.080
1.73E-02,3.100
1.74E-02,3.120
1.75E-02,3.100
1.76E-02,3.100
1.77E-02,3.080
1.78E-02,3.100
1.79E-02,3.120
1.80E-02,3.080
1.81E-02,3.080
1.82E-02,3.080
1.83E-02,3.080
1.84E-02,3.080
1.85E-02,3.080
1.86E-02,3.080
1.87E-02,3.080
1.88E-02,3.080
1.89E-02,3.080
1.90E-02,3.040
1.91E-02,3.060
1.92E-02,3.080
1.93E-02,3.060
1.94E-02,3.040
1.95E-02,3.060
1.96E-02,3.080
1.97E-02,3.020
1.98E-02,3.020
1.99E-02,3.040
2.00E-02,3.040
2.01E-02,3.040
2.02E-02,3.040
2.03E-02,3.060
2.04E-02,3.060
2.05E-02,3.060
2.06E-02,3.020
2.07E-02,3.040
2.08E-02,3.040
2.09E-02,3.040
2.10E-02,3.020
2.11E-02,3.020
2.12E-02,3.020
2.13E-02,3.020
2.14E-02,3.040
2.15E-02,3.040
2.16E-02,3.040
2.17E-02,3.040
2.18E-02,3.040
2.19E-02,3.040
2.20E-02,3.020
2.21E-02,3.020
2.22E-02,2.980
2.23E-02,3.000
2.24E-02,2.980
2.25E-02,3.000
2.26E-02,3.000
2.27E-02,2.980
2.28E-02,2.980
2.29E-02,3.000
2.30E-02,2.980
2.31E-02,3.000
2.32E-02,3.000
2.33E-02,2.980
2.34E-02,2.980
2.35E-02,3.000
2.36E-02,2.980
2.37E-02,2.980
2.38E-02,2.960
2.39E-02,2.980
2.40E-02,2.960
2.41E-02,2.960
2.42E-02,2.960
2.43E-02,2.960
2.44E-02,2.980
2.45E-02,2.960
2.46E-02,2.940
2.47E-02,2.940
2.48E-02,2.960
2.49E-02,2.960
2.50E-02,2.960
2.51E-02,2.960
2.52E-02,2.940
2.53E-02,2.960
2.54E-02,2.940
2.55E-02,2.920
2.56E-02,2.960
2.57E-02,2.940
2.58E-02,2.940
2.59E-02,2.940
2.60E-02,2.940
2.61E-02,2.920
2.62E-02,2.940
2.63E-02,2.920
2.64E-02,2.940
2.65E-02,2.920
2.66E-02,2.940
2.67E-02,2.920
2.68E-02,2.940
2.69E-02,2.940
2.70E-02,2.920
2.71E-02,2.940
2.72E-02,2.900
2.73E-02,2.900
2.74E-02,2.920
2.75E-02,2.920
2.76E-02,2.900
2.77E-02,2.900
2.78E-02,2.900
2.79E-02,2.880
2.80E-02,2.860
2.81E-02,2.900
2.82E-02,2.900
2.83E-02,2.880
2.84E-02,2.880
2.85E-02,2.860
2.86E-02,2.880
2.87E-02,2.900
2.88E-02,2.880
2.89E-02,2.880
2.90E-02,2.840
2.91E-02,2.860
2.92E-02,2.860
2.93E-02,2.860
2.94E-02,2.860
2.95E-02,2.860
2.96E-02,2.860
2.97E-02,2.840
2.98E-02,2.860
2.99E-02,2.860
3.00E-02,2.860
3.01E-02,2.860
3.02E-02,2.840
3.03E-02,2.860
3.04E-02,2.880
3.05E-02,2.880
3.06E-02,2.860
3.07E-02,2.840
3.08E-02,2.820
3.09E-02,2.840
3.10E-02,2.820
3.11E-02,2.840
3.12E-02,2.820
3.13E-02,2.840
3.14E-02,2.860
3.15E-02,2.840
3.16E-02,2.840
3.17E-02,2.840
3.18E-02,2.860
3.19E-02,2.800
3.20E-02,2.840
3.21E-02,2.820
3.22E-02,2.820
3.23E-02,2.820
3.24E-02,2.860
3.25E-02,2.800
3.26E-02,2.820
3.27E-02,2.820
3.28E-02,2.820
3.29E-02,2.840
3.30E-02,2.820
3.31E-02,2.820
3.32E-02,2.800
3.33E-02,2.800
3.34E-02,2.780
3.35E-02,2.780
3.36E-02,2.780
3.37E-02,2.780
3.38E-02,2.780
3.39E-02,2.780
3.40E-02,2.780
3.41E-02,2.780
3.42E-02,2.760
3.43E-02,2.820
3.44E-02,2.760
3.45E-02,2.760
3.46E-02,2.780
3.47E-02,2.780
3.48E-02,2.760
3.49E-02,2.780
3.50E-02,2.780
3.51E-02,2.780
3.52E-02,2.760
3.53E-02,2.740
3.54E-02,2.740
3.55E-02,2.780
3.56E-02,2.780
3.57E-02,2.740
3.58E-02,2.780
3.59E-02,2.760
3.60E-02,2.760
3.61E-02,2.760
3.62E-02,2.760
3.63E-02,2.760
3.64E-02,2.740
3.65E-02,2.760
3.66E-02,2.760
3.67E-02,2.740
3.68E-02,2.740
3.69E-02,2.720
3.70E-02,2.740
3.71E-02,2.740
3.72E-02,2.760
3.73E-02,2.740
3.74E-02,2.740
3.75E-02,2.740
3.76E-02,2.740
3.77E-02,2.720
3.78E-02,2.740
3.79E-02,2.740
3.80E-02,2.740
3.81E-02,2.720
3.82E-02,2.720
3.83E-02,2.740
3.84E-02,2.740
3.85E-02,2.720
3.86E-02,2.720
3.87E-02,2.720
3.88E-02,2.700
3.89E-02,2.700
3.90E-02,2.700
3.91E-02,2.700
3.92E-02,2.680
3.93E-02,2.700
3.94E-02,2.700
3.95E-02,2.680
3.96E-02,2.680
3.97E-02,2.700
3.98E-02,2.720
3.99E-02,2.680
4.00E-02,2.700
4.01E-02,2.680
4.02E-02,2.700
4.03E-02,2.680
4.04E-02,2.680
4.05E-02,2.680
4.06E-02,2.680
4.07E-02,2.680
4.08E-02,2.680
4.09E-02,2.700
4.10E-02,2.700
4.11E-02,2.660
4.12E-02,2.660
4.13E-02,2.660
4.14E-02,2.700
4.15E-02,2.660
4.16E-02,2.660
4.17E-02,2.680
4.18E-02,2.660
4.19E-02,2.680
4.20E-02,2.660
4.21E-02,2.660
4.22E-02,2.640
4.23E-02,2.660
4.24E-02,2.660
4.25E-02,2.680
4.26E-02,2.620
4.27E-02,2.660
4.28E-02,2.660
4.29E-02,2.640
4.30E-02,2.680
4.31E-02,2.640
4.32E-02,2.660
4.33E-02,2.620
4.34E-02,2.600
4.35E-02,2.600
4.36E-02,2.620
4.37E-02,2.640
4.38E-02,2.620
4.39E-02,2.600
4.40E-02,2.600
4.41E-02,2.620
4.42E-02,2.620
4.43E-02,2.620
4.44E-02,2.640
4.45E-02,2.600
4.46E-02,2.580
4.47E-02,2.600
4.48E-02,2.620
4.49E-02,2.620
4.50E-02,2.620
4.51E-02,2.580
4.52E-02,2.600
4.53E-02,2.600
4.54E-02,2.600
4.55E-02,2.580
4.56E-02,2.600
4.57E-02,2.580
4.58E-02,2.580
4.59E-02,2.600
4.60E-02,2.580
4.61E-02,2.580
4.62E-02,2.580
4.63E-02,2.600
4.64E-02,2.600
4.65E-02,2.600
4.66E-02,2.600
4.67E-02,2.580
4.68E-02,2.580
4.69E-02,2.580
4.70E-02,2.580
4.71E-02,2.560
4.72E-02,2.560
4.73E-02,2.540
4.74E-02,2.580
4.75E-02,2.580
4.76E-02,2.560
4.77E-02,2.560
4.78E-02,2.580
4.79E-02,2.560
4.80E-02,2.560
4.81E-02,2.540
4.82E-02,2.540
4.83E-02,2.540
4.84E-02,2.560
4.85E-02,2.560
4.86E-02,2.560
4.87E-02,2.560
4.88E-02,2.540
4.89E-02,2.540
4.90E-02,2.540
4.91E-02,2.540
4.92E-02,2.560
4.93E-02,2.540
4.94E-02,2.540
4.95E-02,2.540
4.96E-02,2.520
4.97E-02,2.500
4.98E-02,2.500
4.99E-02,2.520
5.00E-02,2.520
5.01E-02,2.520
5.02E-02,2.520
5.03E-02,2.500
5.04E-02,2.500
5.05E-02,2.500
5.06E-02,2.520
5.07E-02,2.520
5.08E-02,2.500
5.09E-02,2.500
5.10E-02,2.500
5.11E-02,2.520
5.12E-02,2.500
5.13E-02,2.500
5.14E-02,2.500
5.15E-02,2.520
5.16E-02,2.500
5.17E-02,2.520
5.18E-02,2.500
5.19E-02,2.480
5.20E-02,2.480
5.21E-02,2.500
5.22E-02,2.500
5.23E-02,2.480
5.24E-02,2.480
5.25E-02,2.480
5.26E-02,2.480
5.27E-02,2.480
5.28E-02,2.500
5.29E-02,2.480
5.30E-02,2.480
5.31E-02,2.480
5.32E-02,2.480
5.33E-02,2.480
5.34E-02,2.460
5.35E-02,2.480
5.36E-02,2.460
5.37E-02,2.460
5.38E-02,2.460
5.39E-02,2.460
5.40E-02,2.480
5.41E-02,2.460
5.42E-02,2.480
5.43E-02,2.480
5.44E-02,2.460
5.45E-02,2.460
5.46E-02,2.480
5.47E-02,2.460
5.48E-02,2.440
5.49E-02,2.460
5.50E-02,2.460
5.51E-02,2.440
5.52E-02,2.440
5.53E-02,2.460
5.54E-02,2.460
5.55E-02,2.440
5.56E-02,2.440
5.57E-02,2.440
5.58E-02,2.460
5.59E-02,2.460
5.60E-02,2.440
5.61E-02,2.440
5.62E-02,2.440
5.63E-02,2.460
5.64E-02,2.420
5.65E-02,2.420
5.66E-02,2.420
5.67E-02,2.400
5.68E-02,2.420
5.69E-02,2.440
5.70E-02,2.420
5.71E-02,2.440
5.72E-02,2.420
5.73E-02,2.400
5.74E-02,2.420
5.75E-02,2.420
5.76E-02,2.440
5.77E-02,2.440
5.78E-02,2.380
5.79E-02,2.420
5.80E-02,2.380
5.81E-02,2.380
5.82E-02,2.440
5.83E-02,2.420
5.84E-02,2.400
5.85E-02,2.420
5.86E-02,2.400
5.87E-02,2.380
5.88E-02,2.400
5.89E-02,2.380
5.90E-02,2.400
5.91E-02,2.420
5.92E-02,2.400
5.93E-02,2.380
5.94E-02,2.400
5.95E-02,2.380
5.96E-02,2.420
5.97E-02,2.400
5.98E-02,2.380
5.99E-02,2.380
6.00E-02,2.420
6.01E-02,2.400
6.02E-02,2.360
6.03E-02,2.360
6.04E-02,2.380
6.05E-02,2.400
6.06E-02,2.400
6.07E-02,2.400
6.08E-02,2.400
6.09E-02,2.360
6.10E-02,2.380
6.11E-02,2.380
6.12E-02,2.380
6.13E-02,2.360
6.14E-02,2.380
6.15E-02,2.360
6.16E-02,2.340
6.17E-02,2.380
6.18E-02,2.340
6.19E-02,2.360
6.20E-02,2.340
6.21E-02,2.360
6.22E-02,2.340
6.23E-02,2.340
6.24E-02,2.360
6.25E-02,2.380
6.26E-02,2.360
6.27E-02,2.360
6.28E-02,2.360
6.29E-02,2.340
6.30E-02,2.340
6.31E-02,2.340
6.32E-02,2.340
6.33E-02,2.340
6.34E-02,2.360
6.35E-02,2.340
6.36E-02,2.340
6.37E-02,2.340
6.38E-02,2.360
6.39E-02,2.360
6.40E-02,2.340
6.41E-02,2.360
6.42E-02,2.360
6.43E-02,2.340
6.44E-02,2.360
6.45E-02,2.340
6.46E-02,2.340
6.47E-02,2.340
6.48E-02,2.340
6.49E-02,2.320
6.50E-02,2.340
6.51E-02,2.340
6.52E-02,2.320
6.53E-02,2.320
6.54E-02,2.320
6.55E-02,2.320
6.56E-02,2.320
6.57E-02,2.300
6.58E-02,2.320
6.59E-02,2.320
6.60E-02,2.320
6.61E-02,2.320
6.62E-02,2.320
6.63E-02,2.280
6.64E-02,2.320
6.65E-02,2.340
6.66E-02,2.300
6.67E-02,2.280
6.68E-02,2.300
6.69E-02,2.280
6.70E-02,2.300
6.71E-02,2.300
6.72E-02,2.320
6.73E-02,2.300
6.74E-02,2.300
6.75E-02,2.300
6.76E-02,2.300
6.77E-02,2.300
6.78E-02,2.300
6.79E-02,2.300
6.80E-02,2.320
6.81E-02,2.300
6.82E-02,2.280
6.83E-02,2.300
6.84E-02,2.320
6.85E-02,2.280
6.86E-02,2.280
6.87E-02,2.260
6.88E-02,2.280
6.89E-02,2.260
6.90E-02,2.280
6.91E-02,2.240
6.92E-02,2.260
6.93E-02,2.280
6.94E-02,2.280
6.95E-02,2.280
6.96E-02,2.280
6.97E-02,2.280
6.98E-02,2.260
6.99E-02,2.260
7.00E-02,2.260
7.01E-02,2.260
7.02E-02,2.260
7.03E-02,2.260
7.04E-02,2.260
7.05E-02,2.260
7.06E-02,2.260
7.07E-02,2.260
7.08E-02,2.240
7.09E-02,2.240
7.10E-02,2.260
7.11E-02,2.240
7.12E-02,2.260
7.13E-02,2.240
7.14E-02,2.260
7.15E-02,2.260
7.16E-02,2.220
7.17E-02,2.240
7.18E-02,2.240
7.19E-02,2.260
7.20E-02,2.220
7.21E-02,2.240
7.22E-02,2.240
7.23E-02,2.220
7.24E-02,2.240
7.25E-02,2.220
7.26E-02,2.240
7.27E-02,2.240
7.28E-02,2.240
7.29E-02,2.240
7.30E-02,2.240
7.31E-02,2.240
7.32E-02,2.220
7.33E-02,2.220
7.34E-02,2.240
7.35E-02,2.240
7.36E-02,2.220
7.37E-02,2.200
7.38E-02,2.220
7.39E-02,2.200
7.40E-02,2.240
7.41E-02,2.200
7.42E-02,2.200
7.43E-02,2.220
7.44E-02,2.220
7.45E-02,2.220
7.46E-02,2.180
7.47E-02,2.200
7.48E-02,2.180
7.49E-02,2.220
7.50E-02,2.180
7.51E-02,2.220
7.52E-02,2.180
7.53E-02,2.200
7.54E-02,2.200
7.55E-02,2.200
7.56E-02,2.200
7.57E-02,2.180
7.58E-02,2.180
7.59E-02,2.200
7.60E-02,2.200
7.61E-02,2.200
7.62E-02,2.200
7.63E-02,2.160
7.64E-02,2.160
7.65E-02,2.160
7.66E-02,2.160
7.67E-02,2.160
7.68E-02,2.200
7.69E-02,2.160
7.70E-02,2.160
7.71E-02,2.160
7.72E-02,2.160
7.73E-02,2.160
7.74E-02,2.160
7.75E-02,2.160
7.76E-02,2.180
7.77E-02,2.160
7.78E-02,2.160
7.79E-02,2.160
7.80E-02,2.160
7.81E-02,2.160
7.82E-02,2.160
7.83E-02,2.160
7.84E-02,2.180
7.85E-02,2.180
7.86E-02,2.160
7.87E-02,2.160
7.88E-02,2.140
7.89E-02,2.160
7.90E-02,2.140
7.91E-02,2.140
7.92E-02,2.120
7.93E-02,2.160
7.94E-02,2.140
7.95E-02,2.160
7.96E-02,2.140
7.97E-02,2.140
7.98E-02,2.120
7.99E-02,2.120
8.00E-02,2.140
8.01E-02,2.140
8.02E-02,2.160
8.03E-02,2.140
8.04E-02,2.140
8.05E-02,2.140
8.06E-02,2.160
8.07E-02,2.120
8.08E-02,2.160
8.09E-02,2.120
8.10E-02,2.140
8.11E-02,2.140
8.12E-02,2.140
8.13E-02,2.140
8.14E-02,2.120
8.15E-02,2.120
8.16E-02,2.120
8.17E-02,2.120
8.18E-02,2.140
8.19E-02,2.140
8.20E-02,2.120
8.21E-02,2.140
8.22E-02,2.120
8.23E-02,2.120
8.24E-02,2.120
8.25E-02,2.100
8.26E-02,2.100
8.27E-02,2.080
8.28E-02,2.080
8.29E-02,2.140
8.30E-02,2.140
8.31E-02,2.100
8.32E-02,2.120
8.33E-02,2.120
8.34E-02,2.120
8.35E-02,2.100
8.36E-02,2.080
8.37E-02,2.080
8.38E-02,2.080
8.39E-02,2.080
8.40E-02,2.080
8.41E-02,2.120
8.42E-02,2.100
8.43E-02,2.080
8.44E-02,2.100
8.45E-02,2.100
8.46E-02,2.080
8.47E-02,2.060
8.48E-02,2.100
8.49E-02,2.060
8.50E-02,2.060
8.51E-02,2.080
8.52E-02,2.060
8.53E-02,2.080
8.54E-02,2.080
8.55E-02,2.080
8.56E-02,2.100
8.57E-02,2.080
8.58E-02,2.080
8.59E-02,2.080
8.60E-02,2.080
8.61E-02,2.080
8.62E-02,2.080
8.63E-02,2.080
8.64E-02,2.040
8.65E-02,2.080
8.66E-02,2.080
8.67E-02,2.060
8.68E-02,2.080
8.69E-02,2.060
8.70E-02,2.080
8.71E-02,2.040
8.72E-02,2.100
8.73E-02,2.060
8.74E-02,2.060
8.75E-02,2.060
8.76E-02,2.040
8.77E-02,2.060
8.78E-02,2.060
8.79E-02,2.040
8.80E-02,2.040
8.81E-02,2.060
8.82E-02,2.040
8.83E-02,2.040
8.84E-02,2.060
8.85E-02,2.060
8.86E-02,2.060
8.87E-02,2.060
8.88E-02,2.040
8.89E-02,2.040
8.90E-02,2.060
8.91E-02,2.040
8.92E-02,2.040
8.93E-02,2.040
8.94E-02,2.060
8.95E-02,2.060
8.96E-02,2.020
8.97E-02,2.020
8.98E-02,2.040
8.99E-02,2.060
9.00E-02,2.040
9.01E-02,2.040
9.02E-02,2.040
9.03E-02,2.020
9.04E-02,2.020
9.05E-02,2.040
9.06E-02,2.020
9.07E-02,2.020
9.08E-02,2.040
9.09E-02,2.040
9.10E-02,2.000
9.11E-02,2.000
9.12E-02,2.020
9.13E-02,2.020
9.14E-02,2.040
9.15E-02,2.020
9.16E-02,2.040
9.17E-02,2.020
9.18E-02,2.040
9.19E-02,2.020
9.20E-02,2.000
9.21E-02,2.000
9.22E-02,2.020
9.23E-02,2.020
9.24E-02,2.000
9.25E-02,2.000
9.26E-02,2.020
9.27E-02,2.020
9.28E-02,2.000
9.29E-02,2.020
9.30E-02,2.020
9.31E-02,1.980
9.32E-02,2.000
9.33E-02,1.980
9.34E-02,2.000
9.35E-02,1.980
9.36E-02,2.000
9.37E-02,2.000
9.38E-02,1.980
9.39E-02,1.980
9.40E-02,1.980
9.41E-02,2.000
9.42E-02,1.980
9.43E-02,1.980
9.44E-02,2.000
9.45E-02,2.000
9.46E-02,2.000
9.47E-02,2.000
9.48E-02,2.000
9.49E-02,2.000
9.50E-02,1.980
9.51E-02,1.980
9.52E-02,1.980
9.53E-02,2.000
9.54E-02,1.980
9.55E-02,1.980
9.56E-02,1.980
9.57E-02,1.960
9.58E-02,2.000
9.59E-02,1.960
9.60E-02,1.960
9.61E-02,1.960
9.62E-02,1.980
9.63E-02,1.980
9.64E-02,1.960
9.65E-02,1.960
9.66E-02,1.960
9.67E-02,1.960
9.68E-02,1.960
9.69E-02,1.960
9.70E-02,1.980
9.71E-02,1.980
9.72E-02,1.980
9.73E-02,1.960
9.74E-02,1.960
9.75E-02,1.940
9.76E-02,1.960
9.77E-02,1.960
9.78E-02,1.960
9.79E-02,1.960
9.80E-02,1.940
9.81E-02,1.960
9.82E-02,1.960
9.83E-02,1.940
9.84E-02,1.940
9.85E-02,1.960
9.86E-02,1.940
9.87E-02,1.940
9.88E-02,1.940
9.89E-02,1.960
9.90E-02,1.960
9.91E-02,1.940
9.92E-02,1.960
9.93E-02,1.960
9.94E-02,1.940
9.95E-02,1.940
9.96E-02,1.940
9.97E-02,1.940
9.98E-02,1.960
9.99E-02,1.940
1.00E-01,1.940
1.00E-01,1.940
1.00E-01,1.940
1.00E-01,1.940
1.00E-01,1.920
1.01E-01,1.920
1.01E-01,1.920
1.01E-01,1.940
1.01E-01,1.940
1.01E-01,1.920
1.01E-01,1.920
1.01E-01,1.920
1.01E-01,1.940
1.01E-01,1.920
1.01E-01,1.920
1.02E-01,1.920
1.02E-01,1.900
1.02E-01,1.900
1.02E-01,1.900
1.02E-01,1.920
1.02E-01,1.920
1.02E-01,1.920
1.02E-01,1.920
1.02E-01,1.900
1.02E-01,1.900
1.02E-01,1.900
1.03E-01,1.900
1.03E-01,1.920
1.03E-01,1.920
1.03E-01,1.900
1.03E-01,1.900
1.03E-01,1.880
1.03E-01,1.880
1.03E-01,1.920
1.03E-01,1.920
1.03E-01,1.900
1.04E-01,1.880
1.04E-01,1.920
1.04E-01,1.920
1.04E-01,1.900
1.04E-01,1.880
1.04E-01,1.920
1.04E-01,1.920
1.04E-01,1.900
1.04E-01,1.900
1.04E-01,1.900
1.05E-01,1.900
1.05E-01,1.880
1.05E-01,1.880
1.05E-01,1.880
1.05E-01,1.860
1.05E-01,1.880
1.05E-01,1.860
1.05E-01,1.860
1.05E-01,1.860
1.05E-01,1.900
1.06E-01,1.920
1.06E-01,1.880
1.06E-01,1.880
1.06E-01,1.860
1.06E-01,1.880
1.06E-01,1.860
1.06E-01,1.900
1.06E-01,1.880
1.06E-01,1.880
1.06E-01,1.880
1.07E-01,1.860
1.07E-01,1.880
1.07E-01,1.880
1.07E-01,1.880
1.07E-01,1.840
1.07E-01,1.880
1.07E-01,1.860
1.07E-01,1.880
1.07E-01,1.880
1.07E-01,1.860
1.08E-01,1.840
1.08E-01,1.840
1.08E-01,1.860
1.08E-01,1.840
1.08E-01,1.860
1.08E-01,1.860
1.08E-01,1.880
1.08E-01,1.860
1.08E-01,1.860
1.08E-01,1.860
1.09E-01,1.860
1.09E-01,1.860
1.09E-01,1.840
1.09E-01,1.860
1.09E-01,1.880
1.09E-01,1.860
1.09E-01,1.860
1.09E-01,1.880
1.09E-01,1.840
1.10E-01,1.860
1.10E-01,1.840
1.10E-01,1.860
1.10E-01,1.880
1.10E-01,1.860
1.10E-01,1.840
1.10E-01,1.860
1.10E-01,1.860
1.10E-01,1.880
1.10E-01,1.840
1.11E-01,1.820
1.11E-01,1.840
1.11E-01,1.860
1.11E-01,1.840
1.11E-01,1.820
1.11E-01,1.840
1.11E-01,1.860
1.11E-01,1.840
1.11E-01,1.820
1.11E-01,1.840
1.12E-01,1.820
1.12E-01,1.840
1.12E-01,1.860
1.12E-01,1.840
1.12E-01,1.820
1.12E-01,1.820
1.12E-01,1.820
1.12E-01,1.840
1.12E-01,1.800
1.12E-01,1.840
1.13E-01,1.820
1.13E-01,1.820
1.13E-01,1.800
1.13E-01,1.820
1.13E-01,1.820
1.13E-01,1.800
1.13E-01,1.800
1.13E-01,1.820
1.13E-01,1.820
1.13E-01,1.820
1.14E-01,1.800
1.14E-01,1.820
1.14E-01,1.820
1.14E-01,1.820
1.14E-01,1.820
1.14E-01,1.800
1.14E-01,1.800
1.14E-01,1.820
1.14E-01,1.800
1.14E-01,1.800
1.15E-01,1.800
1.15E-01,1.800
1.15E-01,1.800
1.15E-01,1.820
1.15E-01,1.800
1.15E-01,1.800
1.15E-01,1.800
1.15E-01,1.800
1.15E-01,1.800
1.15E-01,1.800
1.16E-01,1.800
1.16E-01,1.780
1.16E-01,1.800
1.16E-01,1.820
1.16E-01,1.780
1.16E-01,1.780
1.16E-01,1.800
1.16E-01,1.780
1.16E-01,1.800
1.16E-01,1.780
1.17E-01,1.800
1.17E-01,1.800
1.17E-01,1.800
1.17E-01,1.780
1.17E-01,1.780
1.17E-01,1.800
1.17E-01,1.760
1.17E-01,1.780
1.17E-01,1.780
1.17E-01,1.800
1.17E-01,1.800
1.18E-01,1.780
1.18E-01,1.780
1.18E-01,1.760
1.18E-01,1.780
1.18E-01,1.760
1.18E-01,1.760
1.18E-01,1.780
1.18E-01,1.800
1.18E-01,1.780
1.18E-01,1.780
1.19E-01,1.780
1.19E-01,1.780
1.19E-01,1.780
1.19E-01,1.760
1.19E-01,1.780
1.19E-01,1.760
1.19E-01,1.780
1.19E-01,1.740
1.19E-01,1.760
1.19E-01,1.780
1.20E-01,1.760
1.20E-01,1.760
1.20E-01,1.780
1.20E-01,1.780
1.20E-01,1.760
1.20E-01,1.740
1.20E-01,1.780
1.20E-01,1.740
1.20E-01,1.760
1.20E-01,1.780
1.21E-01,1.740
1.21E-01,1.760
1.21E-01,1.780
1.21E-01,1.740
1.21E-01,1.740
1.21E-01,1.760
1.21E-01,1.740
1.21E-01,1.760
1.21E-01,1.740
1.21E-01,1.740
1.22E-01,1.760
1.22E-01,1.740
1.22E-01,1.760
1.22E-01,1.740
1.22E-01,1.740
1.22E-01,1.740
1.22E-01,1.760
1.22E-01,1.740
1.22E-01,1.740
1.22E-01,1.740
1.23E-01,1.720
1.23E-01,1.720
1.23E-01,1.720
1.23E-01,1.720
1.23E-01,1.720
1.23E-01,1.740
1.23E-01,1.740
1.23E-01,1.740
1.23E-01,1.720
1.23E-01,1.720
1.24E-01,1.740
1.24E-01,1.740
1.24E-01,1.720
1.24E-01,1.720
1.24E-01,1.720
1.24E-01,1.740
1.24E-01,1.740
1.24E-01,1.760
1.24E-01,1.720
1.24E-01,1.740
1.25E-01,1.720
1.25E-01,1.720
1.25E-01,1.740
1.25E-01,1.740
1.25E-01,1.740
1.25E-01,1.740
1.25E-01,1.740
1.25E-01,1.720
1.25E-01,1.740
1.26E-01,1.720
1.26E-01,1.700
1.26E-01,1.720
1.26E-01,1.740
1.26E-01,1.740
1.26E-01,1.720
1.26E-01,1.720
1.26E-01,1.740
1.26E-01,1.700
1.26E-01,1.700
1.27E-01,1.700
1.27E-01,1.720
1.27E-01,1.700
1.27E-01,1.700
1.27E-01,1.680
1.27E-01,1.740
1.27E-01,1.700
1.27E-01,1.700
1.27E-01,1.700
1.27E-01,1.680
1.28E-01,1.740
1.28E-01,1.700
1.28E-01,1.700
1.28E-01,1.700
1.28E-01,1.700
1.28E-01,1.700
1.28E-01,1.700
1.28E-01,1.700
1.28E-01,1.700
1.28E-01,1.700
1.29E-01,1.700
1.29E-01,1.700
1.29E-01,1.700
1.29E-01,1.700
1.29E-01,1.700
1.29E-01,1.700
1.29E-01,1.700
1.29E-01,1.680
1.29E-01,1.680
1.29E-01,1.680
1.30E-01,1.720
1.30E-01,1.700
1.30E-01,1.680
1.30E-01,1.680
1.30E-01,1.680
1.30E-01,1.680
1.30E-01,1.700
1.30E-01,1.680
1.30E-01,1.680
1.30E-01,1.680
1.31E-01,1.660
1.31E-01,1.700
1.31E-01,1.700
1.31E-01,1.680
1.31E-01,1.700
1.31E-01,1.700
1.31E-01,1.680
1.31E-01,1.660
1.31E-01,1.660
1.31E-01,1.660
1.32E-01,1.700
1.32E-01,1.700
1.32E-01,1.660
1.32E-01,1.700
1.32E-01,1.680
1.32E-01,1.680
1.32E-01,1.680
1.32E-01,1.680
1.32E-01,1.680
1.32E-01,1.680
1.33E-01,1.700
1.33E-01,1.660
1.33E-01,1.680
1.33E-01,1.680
1.33E-01,1.640
