WaveData402.csv

#timebase=20000000000(ps)
,#voltbase=500000(mv/100)
#size=40064
2.50E-05,3.000
5.00E-05,3.000
7.50E-05,3.020
1.00E-04,3.040
1.25E-04,3.000
1.50E-04,3.000
1.75E-04,3.020
2.00E-04,3.040
2.25E-04,3.000
2.50E-04,3.000
2.75E-04,3.020
3.00E-04,3.040
3.25E-04,3.040
3.50E-04,3.040
3.75E-04,3.000
4.00E-04,3.020
4.25E-04,3.020
4.50E-04,3.020
4.75E-04,3.040
5.00E-04,3.040
5.25E-04,3.040
5.50E-04,3.040
5.75E-04,3.040
6.00E-04,3.000
6.25E-04,3.000
6.50E-04,3.020
6.75E-04,3.040
7.00E-04,3.040
7.25E-04,3.000
7.50E-04,3.000
7.75E-04,3.020
8.00E-04,3.040
8.25E-04,3.040
8.50E-04,3.020
8.75E-04,3.000
9.00E-04,3.020
9.25E-04,3.000
9.50E-04,3.020
9.75E-04,3.000
1.00E-03,3.040
1.03E-03,3.020
1.05E-03,3.020
1.08E-03,3.020
1.10E-03,3.040
1.12E-03,3.000
1.15E-03,3.000
1.18E-03,3.000
1.20E-03,3.040
1.22E-03,3.000
1.25E-03,3.000
1.28E-03,3.020
1.30E-03,3.040
1.33E-03,3.000
1.35E-03,3.020
1.37E-03,3.020
1.40E-03,3.020
1.43E-03,3.020
1.45E-03,3.020
1.47E-03,3.040
1.50E-03,3.040
1.53E-03,3.040
1.55E-03,3.040
1.58E-03,3.060
1.60E-03,3.040
1.62E-03,3.000
1.65E-03,3.020
1.68E-03,3.020
1.70E-03,3.020
1.72E-03,3.000
1.75E-03,3.020
1.78E-03,3.000
1.80E-03,3.020
1.83E-03,3.000
1.85E-03,3.020
1.87E-03,3.020
1.90E-03,3.020
1.93E-03,3.000
1.95E-03,3.040
1.98E-03,3.040
2.00E-03,3.040
2.02E-03,3.040
2.05E-03,3.000
2.08E-03,3.000
2.10E-03,3.020
2.13E-03,3.040
2.15E-03,3.040
2.17E-03,3.000
2.20E-03,3.020
2.22E-03,3.020
2.25E-03,3.020
2.28E-03,3.020
2.30E-03,3.000
2.32E-03,3.000
2.35E-03,3.020
2.37E-03,3.000
2.40E-03,3.000
2.43E-03,3.000
2.45E-03,3.020
2.48E-03,3.000
2.50E-03,3.020
2.52E-03,3.040
2.55E-03,3.040
2.58E-03,3.020
2.60E-03,3.020
2.63E-03,3.020
2.65E-03,3.040
2.67E-03,3.020
2.70E-03,3.040
2.72E-03,3.040
2.75E-03,3.000
2.78E-03,3.000
2.80E-03,3.040
2.82E-03,3.000
2.85E-03,3.000
2.87E-03,3.000
2.90E-03,3.020
2.93E-03,3.020
2.95E-03,3.020
2.98E-03,3.000
3.00E-03,3.020
3.02E-03,3.020
3.05E-03,3.040
3.08E-03,3.020
3.10E-03,3.020
3.13E-03,3.020
3.15E-03,3.040
3.17E-03,3.040
3.20E-03,3.000
3.23E-03,3.020
3.25E-03,3.020
3.28E-03,2.980
3.30E-03,3.020
3.32E-03,3.020
3.35E-03,3.020
3.37E-03,3.020
3.40E-03,3.020
3.43E-03,3.020
3.45E-03,3.040
3.47E-03,3.000
3.50E-03,3.000
3.52E-03,3.020
3.55E-03,3.000
3.58E-03,3.020
3.60E-03,3.040
3.63E-03,3.000
3.65E-03,3.000
3.67E-03,3.020
3.70E-03,3.020
3.73E-03,3.020
3.75E-03,3.000
3.78E-03,3.000
3.80E-03,3.000
3.82E-03,3.000
3.85E-03,3.020
3.87E-03,3.000
3.90E-03,3.000
3.92E-03,3.020
3.95E-03,3.000
3.98E-03,3.020
4.00E-03,3.020
4.02E-03,3.040
4.05E-03,3.000
4.07E-03,3.000
4.10E-03,3.020
4.13E-03,3.040
4.15E-03,3.040
4.17E-03,3.000
4.20E-03,3.020
4.22E-03,3.020
4.25E-03,3.020
4.28E-03,3.020
4.30E-03,3.020
4.32E-03,3.020
4.35E-03,3.040
4.38E-03,3.040
4.40E-03,3.040
4.43E-03,3.000
4.45E-03,3.020
4.47E-03,3.020
4.50E-03,3.020
4.53E-03,3.000
4.55E-03,3.020
4.58E-03,3.040
4.60E-03,3.020
4.62E-03,3.000
4.65E-03,3.000
4.68E-03,3.020
4.70E-03,3.040
4.73E-03,3.040
4.75E-03,3.040
4.77E-03,3.040
4.80E-03,3.040
4.83E-03,3.000
4.85E-03,3.020
4.87E-03,3.020
4.90E-03,3.020
4.92E-03,3.020
4.95E-03,3.000
4.98E-03,3.020
5.00E-03,3.000
5.02E-03,3.000
5.05E-03,3.020
5.07E-03,3.020
5.10E-03,3.020
5.13E-03,3.020
5.15E-03,3.000
5.17E-03,3.000
5.20E-03,3.020
5.22E-03,3.040
5.25E-03,3.040
5.28E-03,3.040
5.30E-03,3.040
5.32E-03,3.040
5.35E-03,3.000
5.37E-03,3.000
5.40E-03,3.020
5.43E-03,3.020
5.45E-03,3.020
5.47E-03,3.020
5.50E-03,3.000
5.53E-03,3.000
5.55E-03,3.000
5.58E-03,3.040
5.60E-03,3.020
5.62E-03,3.020
5.65E-03,3.000
5.68E-03,3.000
5.70E-03,3.020
5.73E-03,3.020
5.75E-03,3.020
5.77E-03,3.020
5.80E-03,3.000
5.83E-03,3.020
5.85E-03,3.020
5.88E-03,3.020
5.90E-03,3.020
5.92E-03,3.000
5.95E-03,3.000
5.98E-03,3.020
6.00E-03,3.040
6.02E-03,3.040
6.05E-03,3.040
6.07E-03,3.000
6.10E-03,3.020
6.13E-03,3.020
6.15E-03,3.020
6.17E-03,3.020
6.20E-03,3.020
6.22E-03,3.020
6.25E-03,3.000
6.28E-03,3.000
6.30E-03,3.000
6.32E-03,3.000
6.35E-03,3.020
6.37E-03,3.040
6.40E-03,3.040
6.43E-03,3.040
6.45E-03,3.000
6.47E-03,3.020
6.50E-03,3.020
6.53E-03,3.020
6.55E-03,3.020
6.58E-03,3.020
6.60E-03,3.040
6.62E-03,3.040
6.65E-03,3.000
6.68E-03,3.000
6.70E-03,3.020
6.73E-03,3.020
6.75E-03,3.040
6.77E-03,3.040
6.80E-03,3.040
6.83E-03,3.040
6.85E-03,3.000
6.88E-03,3.000
6.90E-03,3.020
6.92E-03,3.020
6.95E-03,3.020
6.98E-03,3.020
7.00E-03,3.000
7.02E-03,3.000
7.05E-03,3.020
7.07E-03,3.040
7.10E-03,3.000
7.13E-03,3.020
7.15E-03,3.020
7.17E-03,3.000
7.20E-03,3.000
7.22E-03,3.020
7.25E-03,3.000
7.28E-03,3.020
7.30E-03,3.040
7.32E-03,3.000
7.35E-03,3.000
7.37E-03,3.020
7.40E-03,3.040
7.43E-03,3.040
7.45E-03,3.000
7.47E-03,3.020
7.50E-03,3.020
7.52E-03,3.020
7.55E-03,3.040
7.58E-03,3.000
7.60E-03,3.000
7.62E-03,3.020
7.65E-03,3.040
7.68E-03,3.040
7.70E-03,3.000
7.73E-03,3.020
7.75E-03,3.020
7.77E-03,3.000
7.80E-03,3.000
7.83E-03,3.000
7.85E-03,3.020
7.88E-03,3.000
7.90E-03,3.020
7.92E-03,3.040
7.95E-03,3.000
7.97E-03,3.020
8.00E-03,3.020
8.02E-03,3.020
8.05E-03,3.000
8.08E-03,3.020
8.10E-03,3.040
8.13E-03,3.040
8.15E-03,3.040
8.17E-03,3.040
8.20E-03,3.000
8.22E-03,3.000
8.25E-03,3.020
8.27E-03,3.000
8.30E-03,3.020
8.33E-03,3.020
8.35E-03,3.020
8.38E-03,2.980
8.40E-03,3.020
8.43E-03,3.020
8.45E-03,3.020
8.47E-03,3.000
8.50E-03,3.040
8.52E-03,3.020
8.55E-03,3.020
8.57E-03,3.020
8.60E-03,3.000
8.63E-03,3.020
8.65E-03,3.020
8.68E-03,3.020
8.70E-03,3.020
8.73E-03,3.040
8.75E-03,3.040
8.77E-03,3.000
8.80E-03,3.000
8.82E-03,3.020
8.85E-03,3.000
8.87E-03,3.020
8.90E-03,3.000
8.93E-03,3.020
8.95E-03,3.040
8.98E-03,3.040
9.00E-03,3.040
9.03E-03,3.040
9.05E-03,3.000
9.07E-03,3.020
9.10E-03,2.920
9.12E-03,3.020
9.15E-03,3.020
9.18E-03,3.020
9.20E-03,3.020
9.23E-03,3.020
9.25E-03,3.020
9.28E-03,3.020
9.30E-03,3.020
9.32E-03,3.000
9.35E-03,3.020
9.37E-03,3.000
9.40E-03,3.040
9.42E-03,3.020
9.45E-03,3.020
9.48E-03,3.000
9.50E-03,3.020
9.53E-03,3.020
9.55E-03,2.980
9.58E-03,3.020
9.60E-03,3.020
9.62E-03,3.040
9.65E-03,3.000
9.67E-03,3.020
9.70E-03,3.000
9.72E-03,3.020
9.75E-03,3.060
9.78E-03,3.020
9.80E-03,3.080
9.83E-03,3.020
9.85E-03,3.060
9.88E-03,3.040
9.90E-03,3.000
9.92E-03,3.020
9.95E-03,3.020
9.97E-03,3.020
1.00E-02,3.020
1.00E-02,3.040
1.00E-02,3.160
1.01E-02,3.000
1.01E-02,3.000
1.01E-02,3.020
1.01E-02,3.000
1.02E-02,3.020
1.02E-02,3.000
1.02E-02,3.020
1.03E-02,3.020
1.03E-02,3.020
1.03E-02,3.020
1.03E-02,3.020
1.03E-02,3.020
1.04E-02,3.020
1.04E-02,3.020
1.04E-02,3.020
1.04E-02,3.020
1.05E-02,3.020
1.05E-02,2.980
1.05E-02,3.020
1.06E-02,3.020
1.06E-02,3.020
1.06E-02,3.020
1.06E-02,3.020
1.06E-02,3.020
1.07E-02,3.020
1.07E-02,3.040
1.07E-02,3.040
1.07E-02,3.040
1.08E-02,3.040
1.08E-02,3.040
1.08E-02,3.040
1.09E-02,3.040
1.09E-02,3.040
1.09E-02,3.000
1.09E-02,3.020
1.09E-02,3.020
1.10E-02,3.020
1.10E-02,3.000
1.10E-02,3.020
1.11E-02,3.000
1.11E-02,3.020
1.11E-02,3.020
1.11E-02,2.980
1.12E-02,3.020
1.12E-02,3.020
1.12E-02,3.020
1.12E-02,3.040
1.12E-02,3.040
1.13E-02,3.040
1.13E-02,3.000
1.13E-02,3.020
1.14E-02,3.020
1.14E-02,2.940
1.14E-02,3.040
1.14E-02,3.020
1.15E-02,3.040
1.15E-02,3.040
1.15E-02,3.020
1.15E-02,3.000
1.15E-02,3.020
1.16E-02,3.040
1.16E-02,3.000
1.16E-02,3.000
1.17E-02,3.000
1.17E-02,3.000
1.17E-02,3.000
1.17E-02,3.020
1.18E-02,3.020
1.18E-02,3.020
1.18E-02,3.020
1.18E-02,3.000
1.18E-02,3.020
1.19E-02,3.040
1.19E-02,3.040
1.19E-02,3.020
1.20E-02,3.000
1.20E-02,3.020
1.20E-02,3.000
1.20E-02,3.020
1.20E-02,3.000
1.21E-02,3.020
1.21E-02,3.020
1.21E-02,3.020
1.21E-02,3.020
1.22E-02,3.020
1.22E-02,3.020
1.22E-02,3.020
1.23E-02,3.040
1.23E-02,3.040
1.23E-02,3.040
1.23E-02,3.040
1.23E-02,3.040
1.24E-02,3.000
1.24E-02,3.020
1.24E-02,3.020
1.24E-02,3.020
1.25E-02,3.000
1.25E-02,3.020
1.25E-02,3.020
1.26E-02,3.020
1.26E-02,3.000
1.26E-02,3.000
1.26E-02,3.020
1.26E-02,3.020
1.27E-02,3.020
1.27E-02,3.040
1.27E-02,3.040
1.27E-02,3.040
1.28E-02,3.040
1.28E-02,3.020
1.28E-02,3.040
1.29E-02,3.040
1.29E-02,3.000
1.29E-02,3.020
1.29E-02,3.020
1.29E-02,3.020
1.30E-02,3.020
1.30E-02,3.020
1.30E-02,3.040
1.31E-02,3.000
1.31E-02,3.020
1.31E-02,3.020
1.31E-02,3.020
1.32E-02,3.020
1.32E-02,3.020
1.32E-02,3.000
1.32E-02,3.020
1.32E-02,3.020
1.33E-02,3.000
1.33E-02,3.020
1.33E-02,3.020
1.34E-02,3.020
1.34E-02,3.020
1.34E-02,3.020
1.34E-02,3.020
1.35E-02,3.000
1.35E-02,3.020
1.35E-02,3.040
1.35E-02,3.040
1.35E-02,3.040
1.36E-02,3.000
1.36E-02,3.000
1.36E-02,3.020
1.37E-02,3.020
1.37E-02,3.020
1.37E-02,3.020
1.37E-02,3.020
1.38E-02,3.020
1.38E-02,3.020
1.38E-02,2.980
1.38E-02,3.020
1.38E-02,3.020
1.39E-02,3.000
1.39E-02,3.020
1.39E-02,3.020
1.40E-02,3.020
1.40E-02,3.020
1.40E-02,3.020
1.40E-02,3.020
1.40E-02,3.020
1.41E-02,2.980
1.41E-02,3.020
1.41E-02,3.020
1.41E-02,3.040
1.42E-02,3.000
1.42E-02,3.000
1.42E-02,3.020
1.43E-02,3.040
1.43E-02,3.040
1.43E-02,3.000
1.43E-02,3.000
1.43E-02,3.020
1.44E-02,3.040
1.44E-02,3.000
1.44E-02,3.020
1.44E-02,3.020
1.45E-02,3.020
1.45E-02,3.000
1.45E-02,3.040
1.46E-02,3.000
1.46E-02,3.000
1.46E-02,3.020
1.46E-02,3.020
1.46E-02,3.020
1.47E-02,3.040
1.47E-02,3.000
1.47E-02,3.040
1.47E-02,3.020
1.48E-02,3.020
1.48E-02,3.040
1.48E-02,3.020
1.49E-02,3.020
1.49E-02,3.020
1.49E-02,3.020
1.49E-02,3.020
1.49E-02,3.120
1.50E-02,3.020
1.50E-02,2.980
1.50E-02,3.020
1.50E-02,3.020
1.51E-02,3.020
1.51E-02,3.000
1.51E-02,3.020
1.52E-02,3.020
1.52E-02,3.020
1.52E-02,3.020
1.52E-02,3.020
1.52E-02,3.020
1.53E-02,3.040
1.53E-02,3.020
1.53E-02,3.020
1.54E-02,3.020
1.54E-02,3.040
1.54E-02,3.000
1.54E-02,3.000
1.55E-02,3.020
1.55E-02,3.040
1.55E-02,3.000
1.55E-02,3.020
1.55E-02,3.020
1.56E-02,2.980
1.56E-02,3.020
1.56E-02,3.020
1.57E-02,3.000
1.57E-02,3.040
1.57E-02,3.020
1.57E-02,3.020
1.58E-02,3.040
1.58E-02,3.040
1.58E-02,3.000
1.58E-02,3.000
1.58E-02,3.020
1.59E-02,3.020
1.59E-02,3.000
1.59E-02,3.020
1.59E-02,3.000
1.60E-02,3.020
1.60E-02,3.020
1.60E-02,3.020
1.60E-02,3.020
1.61E-02,3.000
1.61E-02,3.000
1.61E-02,3.020
1.62E-02,3.020
1.62E-02,3.040
1.62E-02,3.000
1.62E-02,3.000
1.63E-02,3.020
1.63E-02,3.040
1.63E-02,3.000
1.63E-02,3.020
1.63E-02,3.020
1.64E-02,3.020
1.64E-02,3.000
1.64E-02,3.000
1.64E-02,3.020
1.65E-02,3.020
1.65E-02,3.020
1.65E-02,3.020
1.65E-02,3.020
1.66E-02,3.040
1.66E-02,3.000
1.66E-02,3.000
1.67E-02,3.020
1.67E-02,3.040
1.67E-02,3.020
1.67E-02,3.020
1.68E-02,3.000
1.68E-02,3.020
1.68E-02,3.020
1.68E-02,3.020
1.69E-02,3.020
1.69E-02,3.020
1.69E-02,3.020
1.69E-02,3.040
1.69E-02,3.020
1.70E-02,3.020
1.70E-02,3.020
1.70E-02,3.000
1.70E-02,3.020
1.71E-02,2.980
1.71E-02,3.020
1.71E-02,3.020
1.71E-02,3.000
1.72E-02,3.020
1.72E-02,3.040
1.72E-02,3.040
1.73E-02,3.000
1.73E-02,3.000
1.73E-02,3.020
1.73E-02,3.020
1.74E-02,3.020
1.74E-02,3.020
1.74E-02,3.000
1.74E-02,3.020
1.75E-02,3.020
1.75E-02,3.020
1.75E-02,3.020
1.75E-02,3.020
1.75E-02,3.020
1.76E-02,3.020
1.76E-02,3.020
1.76E-02,3.020
1.76E-02,3.020
1.77E-02,3.000
1.77E-02,3.000
1.77E-02,3.040
1.77E-02,3.000
1.78E-02,3.020
1.78E-02,3.020
1.78E-02,3.020
1.79E-02,3.040
1.79E-02,3.020
1.79E-02,3.000
1.79E-02,3.020
1.80E-02,3.040
1.80E-02,3.020
1.80E-02,3.020
1.80E-02,3.020
1.81E-02,3.020
1.81E-02,3.000
1.81E-02,3.020
1.81E-02,3.000
1.81E-02,3.000
1.82E-02,3.040
1.82E-02,3.040
1.82E-02,3.020
1.82E-02,3.040
1.83E-02,3.000
1.83E-02,3.020
1.83E-02,3.020
1.84E-02,3.020
1.84E-02,3.020
1.84E-02,3.020
1.84E-02,3.020
1.85E-02,3.020
1.85E-02,3.020
1.85E-02,3.020
1.85E-02,3.000
1.86E-02,3.020
1.86E-02,3.040
1.86E-02,3.000
1.86E-02,3.000
1.86E-02,3.040
1.87E-02,3.040
1.87E-02,3.000
1.87E-02,3.000
1.87E-02,3.020
1.88E-02,3.020
1.88E-02,3.000
1.88E-02,3.040
1.88E-02,3.020
1.89E-02,3.020
1.89E-02,3.020
1.89E-02,3.040
1.90E-02,3.020
1.90E-02,3.020
1.90E-02,3.040
1.90E-02,3.000
1.91E-02,3.020
1.91E-02,3.020
1.91E-02,3.020
1.91E-02,3.020
1.92E-02,3.020
1.92E-02,3.000
1.92E-02,3.020
1.92E-02,3.040
1.92E-02,3.040
1.93E-02,3.000
1.93E-02,3.000
1.93E-02,3.020
1.93E-02,3.060
1.94E-02,3.040
1.94E-02,3.040
1.94E-02,3.000
1.94E-02,3.020
1.95E-02,3.000
1.95E-02,3.020
1.95E-02,3.020
1.96E-02,3.020
1.96E-02,3.020
1.96E-02,3.020
1.96E-02,3.020
1.97E-02,3.000
1.97E-02,3.020
1.97E-02,2.980
1.97E-02,3.020
1.98E-02,3.000
1.98E-02,3.000
1.98E-02,3.020
1.98E-02,3.000
1.98E-02,3.040
1.99E-02,3.020
1.99E-02,3.020
1.99E-02,3.040
1.99E-02,3.020
2.00E-02,3.020
2.00E-02,3.020
2.00E-02,3.000
2.00E-02,3.040
2.01E-02,3.020
2.01E-02,3.000
2.01E-02,3.020
2.02E-02,3.020
2.02E-02,3.020
2.02E-02,3.000
2.02E-02,3.020
2.03E-02,3.020
2.03E-02,3.020
2.03E-02,3.020
2.03E-02,3.020
2.04E-02,3.000
2.04E-02,3.020
2.04E-02,3.020
2.04E-02,3.020
2.04E-02,3.040
2.05E-02,3.000
2.05E-02,3.020
2.05E-02,3.020
2.05E-02,3.020
2.06E-02,3.000
2.06E-02,3.040
2.06E-02,3.020
2.07E-02,3.000
2.07E-02,3.000
2.07E-02,3.020
2.07E-02,3.020
2.08E-02,3.020
2.08E-02,3.020
2.08E-02,3.020
2.08E-02,3.020
2.09E-02,3.020
2.09E-02,3.020
2.09E-02,3.020
2.09E-02,3.020
2.09E-02,3.020
2.10E-02,3.000
2.10E-02,3.000
2.10E-02,3.000
2.10E-02,3.000
2.11E-02,3.000
2.11E-02,3.040
2.11E-02,2.980
2.11E-02,3.020
2.12E-02,2.980
2.12E-02,3.020
2.12E-02,2.980
2.13E-02,3.020
2.13E-02,3.020
2.13E-02,3.000
2.13E-02,3.020
2.14E-02,3.000
2.14E-02,3.020
2.14E-02,3.020
2.14E-02,3.040
2.15E-02,3.040
2.15E-02,3.000
2.15E-02,3.020
2.15E-02,3.020
2.15E-02,3.020
2.16E-02,3.020
2.16E-02,3.020
2.16E-02,3.020
2.16E-02,3.040
2.17E-02,3.040
2.17E-02,3.040
2.17E-02,3.040
2.17E-02,3.000
2.18E-02,3.000
2.18E-02,3.020
2.18E-02,3.040
2.19E-02,3.000
2.19E-02,3.020
2.19E-02,3.000
2.19E-02,3.020
2.20E-02,3.040
2.20E-02,3.040
2.20E-02,3.000
2.20E-02,3.000
2.21E-02,3.020
2.21E-02,3.000
2.21E-02,3.020
2.21E-02,3.040
2.21E-02,3.000
2.22E-02,3.000
2.22E-02,3.020
2.22E-02,3.000
2.22E-02,3.020
2.23E-02,3.000
2.23E-02,3.020
2.23E-02,2.960
2.23E-02,3.020
2.24E-02,3.020
2.24E-02,3.000
2.24E-02,3.000
2.25E-02,3.020
2.25E-02,3.000
2.25E-02,3.000
2.25E-02,3.020
2.26E-02,3.040
2.26E-02,3.040
2.26E-02,3.040
2.26E-02,3.000
2.26E-02,3.020
2.27E-02,3.020
2.27E-02,3.020
2.27E-02,3.000
2.27E-02,3.020
2.28E-02,3.020
2.28E-02,3.020
2.28E-02,3.020
2.28E-02,3.020
2.29E-02,3.000
2.29E-02,3.020
2.29E-02,3.040
2.30E-02,3.040
2.30E-02,3.000
2.30E-02,3.020
2.30E-02,3.020
2.31E-02,3.020
2.31E-02,3.020
2.31E-02,3.000
2.31E-02,3.020
2.32E-02,2.980
2.32E-02,3.020
2.32E-02,2.980
2.32E-02,3.020
2.32E-02,3.040
2.33E-02,3.000
2.33E-02,3.020
2.33E-02,3.020
2.33E-02,3.020
2.34E-02,3.020
2.34E-02,3.020
2.34E-02,3.000
2.34E-02,3.020
2.35E-02,3.080
2.35E-02,3.000
2.35E-02,3.020
2.36E-02,3.020
2.36E-02,3.020
2.36E-02,3.000
2.36E-02,3.020
2.37E-02,3.040
2.37E-02,3.040
2.37E-02,3.000
2.37E-02,3.020
2.38E-02,3.020
2.38E-02,3.020
2.38E-02,3.020
2.38E-02,3.000
2.38E-02,3.020
2.39E-02,3.040
2.39E-02,3.000
2.39E-02,3.020
2.39E-02,3.020
2.40E-02,3.020
2.40E-02,3.020
2.40E-02,3.020
2.40E-02,3.020
2.41E-02,3.020
2.41E-02,3.020
2.41E-02,3.020
2.42E-02,3.020
2.42E-02,3.020
2.42E-02,3.020
2.42E-02,2.920
2.43E-02,3.020
2.43E-02,3.020
2.43E-02,3.020
2.43E-02,3.020
2.44E-02,3.020
2.44E-02,3.020
2.44E-02,3.020
2.44E-02,3.020
2.44E-02,3.020
2.45E-02,3.040
2.45E-02,3.040
2.45E-02,3.000
2.45E-02,3.020
2.46E-02,3.020
2.46E-02,3.020
2.46E-02,3.020
2.46E-02,3.020
2.47E-02,3.020
2.47E-02,3.020
2.47E-02,3.000
2.48E-02,3.020
2.48E-02,3.020
2.48E-02,3.020
2.48E-02,3.000
2.49E-02,3.020
2.49E-02,3.000
2.49E-02,3.020
2.49E-02,3.000
2.49E-02,3.000
2.50E-02,3.020
2.50E-02,3.040
2.50E-02,3.000
2.50E-02,3.020
2.51E-02,3.020
2.51E-02,3.020
2.51E-02,3.060
2.51E-02,3.000
2.52E-02,3.000
2.52E-02,3.060
2.52E-02,3.000
2.53E-02,3.020
2.53E-02,3.020
2.53E-02,3.020
2.53E-02,3.000
2.54E-02,3.000
2.54E-02,3.020
2.54E-02,3.000
2.54E-02,3.020
2.55E-02,3.000
2.55E-02,3.020
2.55E-02,3.000
2.55E-02,3.000
2.55E-02,3.020
2.56E-02,3.020
2.56E-02,3.020
2.56E-02,3.020
2.56E-02,3.020
2.57E-02,3.040
2.57E-02,3.000
2.57E-02,3.020
2.57E-02,3.020
2.58E-02,3.020
2.58E-02,3.000
2.58E-02,3.000
2.59E-02,3.020
2.59E-02,3.020
2.59E-02,3.020
2.59E-02,3.020
2.60E-02,3.020
2.60E-02,3.020
2.60E-02,3.020
2.60E-02,3.020
2.61E-02,3.020
2.61E-02,3.020
2.61E-02,3.020
2.61E-02,3.020
2.61E-02,3.000
2.62E-02,3.000
2.62E-02,3.020
2.62E-02,3.020
2.62E-02,3.020
2.63E-02,3.020
2.63E-02,3.020
2.63E-02,3.020
2.63E-02,3.020
2.64E-02,3.020
2.64E-02,3.000
2.64E-02,3.020
2.65E-02,3.000
2.65E-02,3.020
2.65E-02,3.000
2.65E-02,3.000
2.66E-02,3.020
2.66E-02,3.020
2.66E-02,3.020
2.66E-02,3.020
2.67E-02,3.040
2.67E-02,3.000
2.67E-02,3.000
2.67E-02,3.020
2.67E-02,3.000
2.68E-02,3.020
2.68E-02,3.000
2.68E-02,3.000
2.68E-02,3.020
2.69E-02,3.020
2.69E-02,3.020
2.69E-02,2.920
2.70E-02,3.000
2.70E-02,3.000
2.70E-02,3.020
2.70E-02,3.000
2.71E-02,3.020
2.71E-02,3.040
2.71E-02,3.000
2.71E-02,3.000
2.72E-02,3.020
2.72E-02,3.040
2.72E-02,3.000
2.72E-02,3.000
2.72E-02,3.020
2.73E-02,3.000
2.73E-02,3.000
2.73E-02,3.020
2.73E-02,3.000
2.74E-02,3.000
2.74E-02,3.020
2.74E-02,3.020
2.74E-02,3.040
2.75E-02,3.040
2.75E-02,3.020
2.75E-02,3.040
2.76E-02,3.000
2.76E-02,3.020
2.76E-02,3.020
2.76E-02,3.020
2.77E-02,3.020
2.77E-02,3.020
2.77E-02,3.020
2.77E-02,3.020
2.78E-02,3.000
2.78E-02,3.020
2.78E-02,3.020
2.78E-02,3.020
2.78E-02,3.020
2.79E-02,3.000
2.79E-02,3.000
2.79E-02,3.020
2.79E-02,3.000
2.80E-02,3.000
2.80E-02,3.020
2.80E-02,3.020
2.80E-02,3.020
2.81E-02,3.020
2.81E-02,3.040
2.81E-02,3.040
2.82E-02,3.000
2.82E-02,3.000
2.82E-02,3.020
2.82E-02,3.020
2.83E-02,3.020
2.83E-02,3.020
2.83E-02,3.020
2.83E-02,3.000
2.84E-02,3.020
2.84E-02,3.040
2.84E-02,3.040
2.84E-02,3.000
2.84E-02,3.020
2.85E-02,2.980
2.85E-02,3.020
2.85E-02,3.020
2.85E-02,3.020
2.86E-02,3.020
2.86E-02,3.000
2.86E-02,3.020
2.86E-02,3.020
2.87E-02,3.020
2.87E-02,3.020
2.87E-02,3.020
2.88E-02,3.020
2.88E-02,3.000
2.88E-02,3.020
2.88E-02,3.040
2.89E-02,3.040
2.89E-02,3.040
2.89E-02,3.000
2.89E-02,3.000
2.90E-02,3.020
2.90E-02,3.040
2.90E-02,3.040
2.90E-02,3.000
2.90E-02,3.020
2.91E-02,3.020
2.91E-02,2.980
2.91E-02,3.020
2.91E-02,3.020
2.92E-02,3.020
2.92E-02,3.000
2.92E-02,3.000
2.93E-02,3.020
2.93E-02,3.000
2.93E-02,3.020
2.93E-02,3.020
2.94E-02,3.020
2.94E-02,3.000
2.94E-02,3.020
2.94E-02,3.040
2.95E-02,3.040
2.95E-02,3.040
2.95E-02,3.040
2.95E-02,3.000
2.95E-02,3.020
2.96E-02,3.020
2.96E-02,3.020
2.96E-02,3.000
2.96E-02,3.020
2.97E-02,3.000
2.97E-02,3.020
2.97E-02,3.020
2.97E-02,3.020
2.98E-02,3.020
2.98E-02,3.000
2.98E-02,3.020
2.99E-02,3.040
2.99E-02,3.040
2.99E-02,3.040
2.99E-02,3.000
3.00E-02,3.000
3.00E-02,3.020
3.00E-02,3.040
3.00E-02,3.000
3.01E-02,3.000
3.01E-02,3.020
3.01E-02,3.020
3.01E-02,3.020
3.01E-02,3.020
3.02E-02,3.020
3.02E-02,3.020
3.02E-02,3.000
3.02E-02,3.000
3.03E-02,3.000
3.03E-02,3.040
3.03E-02,3.040
3.03E-02,3.000
3.04E-02,3.020
3.04E-02,3.020
3.04E-02,3.020
3.05E-02,3.020
3.05E-02,3.020
3.05E-02,3.020
3.05E-02,3.060
3.06E-02,3.000
3.06E-02,3.000
3.06E-02,3.020
3.06E-02,3.020
3.07E-02,3.020
3.07E-02,3.000
3.07E-02,3.000
3.07E-02,3.040
3.07E-02,3.040
3.08E-02,3.040
3.08E-02,3.000
3.08E-02,3.000
3.08E-02,3.020
3.09E-02,3.020
3.09E-02,3.020
3.09E-02,3.020
3.09E-02,3.020
3.10E-02,3.000
3.10E-02,3.020
3.10E-02,3.020
3.11E-02,3.020
3.11E-02,3.020
3.11E-02,3.000
3.11E-02,3.000
3.12E-02,3.040
3.12E-02,3.000
3.12E-02,3.020
3.12E-02,2.980
3.12E-02,3.000
3.13E-02,3.020
3.13E-02,3.040
3.13E-02,3.000
3.14E-02,3.020
3.14E-02,3.020
3.14E-02,3.000
3.14E-02,3.020
3.14E-02,3.020
3.15E-02,3.020
3.15E-02,3.020
3.15E-02,3.020
3.16E-02,2.980
3.16E-02,3.020
3.16E-02,3.020
3.16E-02,3.020
3.16E-02,3.020
3.17E-02,3.020
3.17E-02,3.020
3.17E-02,3.020
3.18E-02,3.040
3.18E-02,3.000
3.18E-02,3.000
3.18E-02,3.020
3.19E-02,3.020
3.19E-02,3.020
3.19E-02,3.020
3.19E-02,3.020
3.19E-02,3.020
3.20E-02,3.020
3.20E-02,3.020
3.20E-02,3.000
3.21E-02,3.020
3.21E-02,3.020
3.21E-02,3.020
3.21E-02,3.020
3.21E-02,3.020
3.22E-02,3.020
3.22E-02,3.020
3.22E-02,3.020
3.23E-02,3.000
3.23E-02,3.020
3.23E-02,3.060
3.23E-02,3.000
3.23E-02,3.020
3.24E-02,3.020
3.24E-02,3.020
3.24E-02,3.000
3.24E-02,3.020
3.25E-02,3.020
3.25E-02,3.020
3.25E-02,3.020
3.26E-02,3.020
3.26E-02,3.020
3.26E-02,3.020
3.26E-02,3.020
3.26E-02,3.000
3.27E-02,3.020
3.27E-02,3.040
3.27E-02,3.060
3.28E-02,3.040
3.28E-02,3.000
3.28E-02,3.020
3.28E-02,3.020
3.28E-02,3.020
3.29E-02,3.000
3.29E-02,3.020
3.29E-02,3.020
3.30E-02,3.020
3.30E-02,3.020
3.30E-02,3.020
3.30E-02,3.020
3.31E-02,3.020
3.31E-02,3.040
3.31E-02,3.040
3.31E-02,3.040
3.31E-02,3.040
3.32E-02,3.040
3.32E-02,3.040
3.32E-02,3.000
