WaveData400.csv

#timebase=40000000000(ps)
,#voltbase=1000000(mv/100)
#size=4064
2.00E-04,3.000
4.00E-04,3.000
6.00E-04,3.000
8.00E-04,3.000
1.00E-03,3.000
1.20E-03,3.000
1.40E-03,2.920
1.60E-03,3.000
1.80E-03,3.000
2.00E-03,3.040
2.20E-03,2.960
2.40E-03,2.960
2.60E-03,3.000
2.80E-03,3.000
3.00E-03,2.960
3.20E-03,3.000
3.40E-03,3.000
3.60E-03,3.040
3.80E-03,3.000
4.00E-03,3.000
4.20E-03,3.000
4.40E-03,3.000
4.60E-03,3.000
4.80E-03,3.000
5.00E-03,3.000
5.20E-03,3.000
5.40E-03,2.960
5.60E-03,3.000
5.80E-03,3.000
6.00E-03,3.000
6.20E-03,3.000
6.40E-03,3.000
6.60E-03,3.000
6.80E-03,3.000
7.00E-03,3.000
7.20E-03,2.920
7.40E-03,3.000
7.60E-03,2.960
7.80E-03,2.920
8.00E-03,3.000
8.20E-03,3.000
8.40E-03,3.000
8.60E-03,3.000
8.80E-03,2.920
9.00E-03,3.000
9.20E-03,3.000
9.40E-03,2.920
9.60E-03,3.000
9.80E-03,3.000
1.00E-02,3.000
1.02E-02,3.000
1.04E-02,3.000
1.06E-02,2.960
1.08E-02,3.000
1.10E-02,3.000
1.12E-02,3.000
1.14E-02,3.000
1.16E-02,2.960
1.18E-02,2.960
1.20E-02,2.960
1.22E-02,3.000
1.24E-02,2.960
1.26E-02,3.000
1.28E-02,3.000
1.30E-02,2.960
1.32E-02,2.960
1.34E-02,3.000
1.36E-02,3.000
1.38E-02,2.960
1.40E-02,2.960
1.42E-02,2.920
1.44E-02,2.960
1.46E-02,3.000
1.48E-02,3.000
1.50E-02,2.960
1.52E-02,2.960
1.54E-02,3.000
1.56E-02,3.000
1.58E-02,3.000
1.60E-02,3.000
1.62E-02,3.000
1.64E-02,2.960
1.66E-02,2.960
1.68E-02,2.920
1.70E-02,2.960
1.72E-02,3.000
1.74E-02,3.000
1.76E-02,3.000
1.78E-02,3.000
1.80E-02,2.960
1.82E-02,3.000
1.84E-02,3.000
1.86E-02,3.040
1.88E-02,2.960
1.90E-02,2.960
1.92E-02,3.000
1.94E-02,3.000
1.96E-02,2.920
1.98E-02,3.000
2.00E-02,3.000
2.02E-02,3.000
2.04E-02,2.960
2.06E-02,3.000
2.08E-02,2.960
2.10E-02,3.000
2.12E-02,2.960
2.14E-02,2.960
2.16E-02,2.960
2.18E-02,3.000
2.20E-02,3.000
2.22E-02,3.000
2.24E-02,3.040
2.26E-02,3.000
2.28E-02,2.960
2.30E-02,3.000
2.32E-02,3.000
2.34E-02,3.000
2.36E-02,3.040
2.38E-02,3.000
2.40E-02,3.000
2.42E-02,3.000
2.44E-02,3.000
2.46E-02,3.000
2.48E-02,2.960
2.50E-02,3.000
2.52E-02,3.000
2.54E-02,3.000
2.56E-02,2.960
2.58E-02,3.000
2.60E-02,3.000
2.62E-02,3.000
2.64E-02,3.000
2.66E-02,2.960
2.68E-02,3.000
2.70E-02,2.960
2.72E-02,2.960
2.74E-02,3.000
2.76E-02,3.000
2.78E-02,3.000
2.80E-02,3.000
2.82E-02,2.960
2.84E-02,3.000
2.86E-02,2.960
2.88E-02,3.040
2.90E-02,3.040
2.92E-02,3.040
2.94E-02,3.000
2.96E-02,3.000
2.98E-02,3.000
3.00E-02,2.920
3.02E-02,3.040
3.04E-02,3.000
3.06E-02,3.000
3.08E-02,3.000
3.10E-02,2.960
3.12E-02,2.960
3.14E-02,2.960
3.16E-02,2.920
3.18E-02,3.000
3.20E-02,3.000
3.22E-02,3.000
3.24E-02,2.920
3.26E-02,2.960
3.28E-02,2.960
3.30E-02,2.960
3.32E-02,2.960
3.34E-02,3.000
3.36E-02,2.960
3.38E-02,3.040
3.40E-02,3.000
3.42E-02,2.960
3.44E-02,3.000
3.46E-02,3.000
3.48E-02,3.000
3.50E-02,3.000
3.52E-02,3.040
3.54E-02,3.080
3.56E-02,3.040
3.58E-02,3.040
3.60E-02,3.000
3.62E-02,3.000
3.64E-02,3.000
3.66E-02,3.000
3.68E-02,2.920
3.70E-02,3.000
3.72E-02,2.960
3.74E-02,2.960
3.76E-02,2.960
3.78E-02,3.000
3.80E-02,2.960
3.82E-02,2.960
3.84E-02,3.000
3.86E-02,3.040
3.88E-02,3.000
3.90E-02,3.000
3.92E-02,2.920
3.94E-02,3.000
3.96E-02,2.960
3.98E-02,2.960
4.00E-02,3.000
4.02E-02,3.000
4.04E-02,3.000
4.06E-02,3.000
4.08E-02,3.000
4.10E-02,3.000
4.12E-02,3.000
4.14E-02,2.960
4.16E-02,2.960
4.18E-02,3.000
4.20E-02,3.000
4.22E-02,3.000
4.24E-02,3.000
4.26E-02,2.960
4.28E-02,2.960
4.30E-02,2.960
4.32E-02,2.960
4.34E-02,2.960
4.36E-02,3.000
4.38E-02,2.960
4.40E-02,2.960
4.42E-02,3.000
4.44E-02,3.000
4.46E-02,3.000
4.48E-02,3.000
4.50E-02,3.000
4.52E-02,3.000
4.54E-02,3.000
4.56E-02,3.000
4.58E-02,2.960
4.60E-02,3.000
4.62E-02,2.960
4.64E-02,2.960
4.66E-02,3.000
4.68E-02,3.000
4.70E-02,2.960
4.72E-02,2.960
4.74E-02,3.000
4.76E-02,3.000
4.78E-02,3.000
4.80E-02,3.000
4.82E-02,3.040
4.84E-02,3.040
4.86E-02,3.000
4.88E-02,3.000
4.90E-02,3.000
4.92E-02,3.040
4.94E-02,3.040
4.96E-02,3.040
4.98E-02,3.040
5.00E-02,2.920
5.02E-02,3.000
5.04E-02,2.960
5.06E-02,2.960
5.08E-02,2.960
5.10E-02,2.960
5.12E-02,2.960
5.14E-02,3.000
5.16E-02,3.000
5.18E-02,3.000
5.20E-02,3.000
5.22E-02,3.000
5.24E-02,3.000
5.26E-02,3.000
5.28E-02,3.000
5.30E-02,2.960
5.32E-02,3.000
5.34E-02,3.000
5.36E-02,3.000
5.38E-02,3.040
5.40E-02,3.040
5.42E-02,2.920
5.44E-02,3.040
5.46E-02,2.920
5.48E-02,3.040
5.50E-02,3.000
5.52E-02,2.960
5.54E-02,2.960
5.56E-02,2.960
5.58E-02,2.960
5.60E-02,2.960
5.62E-02,3.000
5.64E-02,2.960
5.66E-02,3.000
5.68E-02,3.000
5.70E-02,2.920
5.72E-02,3.000
5.74E-02,2.960
5.76E-02,3.000
5.78E-02,3.000
5.80E-02,3.000
5.82E-02,3.040
5.84E-02,3.000
5.86E-02,3.000
5.88E-02,3.000
5.90E-02,2.960
5.92E-02,3.000
5.94E-02,2.960
5.96E-02,3.000
5.98E-02,3.000
6.00E-02,3.000
6.02E-02,2.920
6.04E-02,2.960
6.06E-02,3.000
6.08E-02,3.000
6.10E-02,2.960
6.12E-02,3.000
6.14E-02,3.000
6.16E-02,3.000
6.18E-02,3.000
6.20E-02,2.920
6.22E-02,3.040
6.24E-02,2.920
6.26E-02,2.920
6.28E-02,3.000
6.30E-02,2.960
6.32E-02,2.960
6.34E-02,3.000
6.36E-02,3.000
6.38E-02,2.960
6.40E-02,3.000
6.42E-02,3.040
6.44E-02,3.040
6.46E-02,3.040
6.48E-02,3.040
6.50E-02,3.040
6.52E-02,2.920
6.54E-02,3.000
6.56E-02,3.000
6.58E-02,3.000
6.60E-02,2.920
6.62E-02,2.960
6.64E-02,2.960
6.66E-02,2.960
6.68E-02,2.960
6.70E-02,3.000
6.72E-02,3.000
6.74E-02,3.000
6.76E-02,2.960
6.78E-02,2.960
6.80E-02,2.960
6.82E-02,2.960
6.84E-02,2.960
6.86E-02,3.000
6.88E-02,2.960
6.90E-02,3.000
6.92E-02,3.000
6.94E-02,3.000
6.96E-02,3.000
6.98E-02,3.000
7.00E-02,2.960
7.02E-02,3.000
7.04E-02,2.960
7.06E-02,3.000
7.08E-02,3.000
7.10E-02,3.000
7.12E-02,3.000
7.14E-02,2.960
7.16E-02,3.000
7.18E-02,2.960
7.20E-02,2.960
7.22E-02,3.000
7.24E-02,3.000
7.26E-02,3.000
7.28E-02,3.000
7.30E-02,2.960
7.32E-02,3.000
7.34E-02,3.000
7.36E-02,3.000
7.38E-02,3.000
7.40E-02,2.960
7.42E-02,3.000
7.44E-02,2.920
7.46E-02,3.000
7.48E-02,2.960
7.50E-02,3.000
7.52E-02,3.000
7.54E-02,3.000
7.56E-02,3.000
7.58E-02,2.960
7.60E-02,2.960
7.62E-02,3.000
7.64E-02,2.920
7.66E-02,3.000
7.68E-02,2.960
7.70E-02,3.000
7.72E-02,2.920
7.74E-02,2.960
7.76E-02,2.960
7.78E-02,3.000
7.80E-02,3.040
7.82E-02,3.000
7.84E-02,3.000
7.86E-02,3.000
7.88E-02,3.000
7.90E-02,2.960
7.92E-02,2.960
7.94E-02,2.960
7.96E-02,2.920
7.98E-02,2.960
8.00E-02,2.960
8.02E-02,3.000
8.04E-02,3.000
8.06E-02,3.000
8.08E-02,3.000
8.10E-02,3.000
8.12E-02,3.000
8.14E-02,2.960
8.16E-02,3.000
8.18E-02,2.960
8.20E-02,2.960
8.22E-02,3.000
8.24E-02,2.960
8.26E-02,2.960
8.28E-02,3.000
8.30E-02,2.960
8.32E-02,3.000
8.34E-02,2.960
8.36E-02,3.000
8.38E-02,3.000
8.40E-02,3.040
8.42E-02,2.920
8.44E-02,3.000
8.46E-02,2.960
8.48E-02,2.920
8.50E-02,3.000
8.52E-02,3.000
8.54E-02,3.000
8.56E-02,3.000
8.58E-02,2.920
8.60E-02,2.960
8.62E-02,2.960
8.64E-02,2.960
8.66E-02,2.960
8.68E-02,2.920
8.70E-02,2.920
8.72E-02,3.000
8.74E-02,2.920
8.76E-02,2.920
8.78E-02,2.960
8.80E-02,2.960
8.82E-02,3.000
8.84E-02,3.000
8.86E-02,2.960
8.88E-02,2.960
8.90E-02,2.960
8.92E-02,3.000
8.94E-02,3.040
8.96E-02,3.000
8.98E-02,3.000
9.00E-02,3.000
9.02E-02,3.000
9.04E-02,3.000
9.06E-02,3.040
9.08E-02,3.040
9.10E-02,3.000
9.12E-02,2.960
9.14E-02,2.960
9.16E-02,3.000
9.18E-02,2.920
9.20E-02,3.000
9.22E-02,3.000
9.24E-02,2.960
9.26E-02,3.000
9.28E-02,3.040
9.30E-02,2.960
9.32E-02,2.920
9.34E-02,3.000
9.36E-02,3.000
9.38E-02,2.920
9.40E-02,2.960
9.42E-02,3.000
9.44E-02,3.000
9.46E-02,3.000
9.48E-02,3.000
9.50E-02,3.000
9.52E-02,3.000
9.54E-02,2.960
9.56E-02,2.960
9.58E-02,3.000
9.60E-02,2.960
9.62E-02,3.040
9.64E-02,2.920
9.66E-02,2.920
9.68E-02,2.960
9.70E-02,2.960
9.72E-02,3.000
9.74E-02,3.000
9.76E-02,2.960
9.78E-02,3.000
9.80E-02,3.000
9.82E-02,3.000
9.84E-02,3.040
9.86E-02,3.040
9.88E-02,2.920
9.90E-02,2.960
9.92E-02,3.000
9.94E-02,3.000
9.96E-02,3.040
9.98E-02,2.960
1.00E-01,2.960
1.00E-01,2.920
1.00E-01,2.960
1.01E-01,2.960
1.01E-01,2.960
1.01E-01,2.960
1.01E-01,3.000
1.01E-01,3.000
1.02E-01,2.920
1.02E-01,3.000
1.02E-01,3.000
1.02E-01,3.000
1.02E-01,3.000
1.03E-01,3.000
1.03E-01,3.000
1.03E-01,3.000
1.03E-01,3.000
1.03E-01,3.000
1.04E-01,3.000
1.04E-01,3.000
1.04E-01,3.000
1.04E-01,3.000
1.04E-01,3.000
1.05E-01,3.000
1.05E-01,2.960
1.05E-01,2.960
1.05E-01,2.960
1.05E-01,2.960
1.06E-01,2.960
1.06E-01,2.960
1.06E-01,2.960
1.06E-01,2.960
1.06E-01,2.920
1.07E-01,3.000
1.07E-01,3.000
1.07E-01,3.000
1.07E-01,3.000
1.07E-01,3.000
1.08E-01,2.960
1.08E-01,3.000
1.08E-01,2.960
1.08E-01,2.960
1.08E-01,2.960
1.09E-01,2.920
1.09E-01,2.920
1.09E-01,3.000
1.09E-01,3.000
1.09E-01,2.920
1.10E-01,3.000
1.10E-01,3.000
1.10E-01,3.000
1.10E-01,3.000
1.10E-01,2.960
1.11E-01,3.000
1.11E-01,3.000
1.11E-01,2.960
1.11E-01,2.960
1.11E-01,2.960
1.12E-01,3.000
1.12E-01,3.000
1.12E-01,2.960
1.12E-01,3.000
1.12E-01,2.960
1.13E-01,3.000
1.13E-01,3.000
1.13E-01,2.960
1.13E-01,3.000
1.13E-01,2.960
1.14E-01,2.920
1.14E-01,2.920
1.14E-01,2.960
1.14E-01,3.000
1.14E-01,3.000
1.15E-01,3.000
1.15E-01,3.000
1.15E-01,3.040
1.15E-01,3.040
1.15E-01,3.000
1.16E-01,3.000
1.16E-01,3.000
1.16E-01,3.000
1.16E-01,3.000
1.16E-01,2.960
1.17E-01,3.000
1.17E-01,3.000
1.17E-01,3.000
1.17E-01,3.000
1.17E-01,2.920
1.18E-01,3.000
1.18E-01,3.000
1.18E-01,2.960
1.18E-01,2.920
1.18E-01,3.000
1.19E-01,2.960
1.19E-01,3.000
1.19E-01,2.920
1.19E-01,2.920
1.19E-01,2.960
1.20E-01,2.960
1.20E-01,3.000
1.20E-01,3.000
1.20E-01,3.040
1.20E-01,3.040
1.21E-01,3.040
1.21E-01,2.920
1.21E-01,3.040
1.21E-01,3.040
1.21E-01,2.920
1.22E-01,3.000
1.22E-01,3.000
1.22E-01,2.960
1.22E-01,2.960
1.22E-01,2.960
1.23E-01,3.000
1.23E-01,3.000
1.23E-01,3.000
1.23E-01,2.960
1.23E-01,2.960
1.24E-01,2.920
1.24E-01,3.000
1.24E-01,3.000
1.24E-01,2.920
1.24E-01,3.000
1.25E-01,3.000
1.25E-01,3.040
1.25E-01,2.920
1.25E-01,2.920
1.25E-01,3.000
1.26E-01,3.000
1.26E-01,3.000
1.26E-01,3.000
1.26E-01,2.960
1.26E-01,3.000
1.27E-01,3.040
1.27E-01,3.000
1.27E-01,3.000
1.27E-01,3.000
1.27E-01,3.000
1.28E-01,3.000
1.28E-01,3.000
1.28E-01,2.960
1.28E-01,3.000
1.28E-01,3.000
1.29E-01,2.960
1.29E-01,3.000
1.29E-01,3.000
1.29E-01,3.040
1.29E-01,3.000
1.30E-01,2.960
1.30E-01,3.000
1.30E-01,2.920
1.30E-01,3.000
1.30E-01,3.000
1.31E-01,3.000
1.31E-01,3.000
1.31E-01,2.960
1.31E-01,3.000
1.31E-01,3.000
1.32E-01,2.920
1.32E-01,2.960
1.32E-01,3.000
1.32E-01,3.040
1.32E-01,2.920
1.33E-01,2.920
1.33E-01,2.920
1.33E-01,3.000
1.33E-01,3.000
1.33E-01,3.000
1.34E-01,2.960
1.34E-01,3.000
1.34E-01,3.000
1.34E-01,3.000
1.34E-01,3.000
1.35E-01,3.000
1.35E-01,3.000
1.35E-01,3.040
1.35E-01,2.920
1.35E-01,2.920
1.36E-01,3.040
1.36E-01,3.000
1.36E-01,3.000
1.36E-01,3.000
1.36E-01,2.960
1.37E-01,3.000
1.37E-01,2.960
1.37E-01,2.960
1.37E-01,2.960
1.37E-01,2.960
1.38E-01,3.040
1.38E-01,3.000
1.38E-01,3.000
1.38E-01,2.960
1.38E-01,2.920
1.39E-01,3.040
1.39E-01,3.000
1.39E-01,3.000
1.39E-01,3.000
1.39E-01,3.000
1.40E-01,3.000
1.40E-01,3.000
1.40E-01,3.000
1.40E-01,3.000
1.40E-01,3.000
1.41E-01,3.040
1.41E-01,3.000
1.41E-01,3.000
1.41E-01,2.920
1.41E-01,2.920
1.42E-01,2.960
1.42E-01,3.000
1.42E-01,3.000
1.42E-01,3.000
1.42E-01,2.960
1.43E-01,3.000
1.43E-01,3.000
1.43E-01,3.000
1.43E-01,3.000
1.43E-01,2.920
1.44E-01,3.000
1.44E-01,3.000
1.44E-01,3.040
1.44E-01,3.000
1.44E-01,3.000
1.45E-01,2.960
1.45E-01,2.920
1.45E-01,2.920
1.45E-01,3.000
1.45E-01,2.960
1.46E-01,2.960
1.46E-01,3.000
1.46E-01,3.000
1.46E-01,2.920
1.46E-01,2.960
1.47E-01,3.000
1.47E-01,2.960
1.47E-01,3.040
1.47E-01,3.040
1.47E-01,3.040
1.48E-01,3.000
1.48E-01,2.960
1.48E-01,3.000
1.48E-01,3.000
1.48E-01,2.960
1.49E-01,3.000
1.49E-01,2.960
1.49E-01,3.000
1.49E-01,2.960
1.49E-01,3.000
1.50E-01,3.000
1.50E-01,3.080
1.50E-01,3.000
1.50E-01,3.000
1.50E-01,3.000
1.51E-01,3.000
1.51E-01,3.000
1.51E-01,2.960
1.51E-01,3.000
1.51E-01,3.000
1.52E-01,3.000
1.52E-01,2.960
1.52E-01,2.960
1.52E-01,3.000
1.52E-01,3.000
1.53E-01,2.960
1.53E-01,3.000
1.53E-01,2.920
1.53E-01,3.040
1.53E-01,3.000
1.54E-01,3.000
1.54E-01,2.960
1.54E-01,3.040
1.54E-01,3.040
1.54E-01,3.000
1.55E-01,3.000
1.55E-01,2.960
1.55E-01,2.960
1.55E-01,3.040
1.55E-01,2.960
1.56E-01,2.920
1.56E-01,2.960
1.56E-01,2.960
1.56E-01,2.960
1.56E-01,3.000
1.57E-01,2.960
1.57E-01,2.960
1.57E-01,2.960
1.57E-01,2.920
1.57E-01,2.960
1.58E-01,2.960
1.58E-01,3.000
1.58E-01,2.960
1.58E-01,3.000
1.58E-01,3.000
1.59E-01,2.920
1.59E-01,3.000
1.59E-01,3.000
1.59E-01,3.000
1.59E-01,3.040
1.60E-01,3.000
1.60E-01,3.000
1.60E-01,3.000
1.60E-01,3.000
1.60E-01,2.960
1.61E-01,2.960
1.61E-01,2.960
1.61E-01,3.040
1.61E-01,3.000
1.61E-01,3.040
1.62E-01,2.920
1.62E-01,3.040
1.62E-01,3.000
1.62E-01,2.960
1.62E-01,2.960
1.63E-01,3.000
1.63E-01,2.960
1.63E-01,3.000
1.63E-01,2.960
1.63E-01,2.960
1.64E-01,3.000
1.64E-01,3.000
1.64E-01,3.000
1.64E-01,3.040
1.64E-01,2.920
1.65E-01,3.000
1.65E-01,3.000
1.65E-01,3.000
1.65E-01,3.000
1.65E-01,2.960
1.66E-01,3.000
1.66E-01,3.000
1.66E-01,2.960
1.66E-01,3.000
1.66E-01,3.000
1.67E-01,3.000
1.67E-01,3.000
1.67E-01,3.000
1.67E-01,3.000
1.67E-01,3.000
1.68E-01,3.000
1.68E-01,3.000
1.68E-01,3.000
1.68E-01,3.000
1.68E-01,3.000
1.69E-01,3.000
1.69E-01,3.000
1.69E-01,3.040
1.69E-01,3.000
1.69E-01,3.000
1.70E-01,2.920
1.70E-01,3.000
1.70E-01,3.000
1.70E-01,2.920
1.70E-01,3.000
1.71E-01,3.000
1.71E-01,2.920
1.71E-01,3.000
1.71E-01,3.000
1.71E-01,2.960
1.72E-01,3.000
1.72E-01,2.960
1.72E-01,2.960
1.72E-01,2.960
1.72E-01,3.000
1.73E-01,3.000
1.73E-01,3.000
1.73E-01,2.960
1.73E-01,3.000
1.73E-01,2.960
1.74E-01,3.000
1.74E-01,3.000
1.74E-01,3.000
1.74E-01,3.000
1.74E-01,3.000
1.75E-01,3.000
1.75E-01,3.040
1.75E-01,3.040
1.75E-01,2.920
1.75E-01,3.000
1.76E-01,2.960
1.76E-01,3.000
1.76E-01,3.040
1.76E-01,3.000
1.76E-01,2.960
1.77E-01,2.960
1.77E-01,3.000
1.77E-01,3.000
1.77E-01,3.000
1.77E-01,2.960
1.78E-01,3.000
1.78E-01,3.000
1.78E-01,3.000
1.78E-01,2.960
1.78E-01,3.000
1.79E-01,3.000
1.79E-01,2.960
1.79E-01,2.960
1.79E-01,3.000
1.79E-01,2.960
1.80E-01,3.040
1.80E-01,3.040
1.80E-01,3.000
1.80E-01,3.000
1.80E-01,2.960
1.81E-01,3.040
1.81E-01,3.000
1.81E-01,3.000
1.81E-01,2.960
1.81E-01,2.960
1.82E-01,3.000
1.82E-01,2.960
1.82E-01,3.000
1.82E-01,3.000
1.82E-01,3.000
1.83E-01,2.960
1.83E-01,3.000
1.83E-01,3.040
1.83E-01,3.000
1.83E-01,3.000
1.84E-01,2.960
1.84E-01,3.000
1.84E-01,3.000
1.84E-01,2.960
1.84E-01,3.000
1.85E-01,3.000
1.85E-01,2.920
1.85E-01,3.040
1.85E-01,3.040
1.85E-01,3.000
1.86E-01,3.000
1.86E-01,2.960
1.86E-01,2.960
1.86E-01,2.920
1.86E-01,3.000
1.87E-01,3.000
1.87E-01,3.000
1.87E-01,3.000
1.87E-01,3.000
1.87E-01,3.000
1.88E-01,3.040
1.88E-01,3.040
1.88E-01,3.040
1.88E-01,3.000
1.88E-01,2.960
1.89E-01,3.000
1.89E-01,3.000
1.89E-01,2.960
1.89E-01,3.000
1.89E-01,3.000
1.90E-01,2.960
1.90E-01,3.000
1.90E-01,3.040
1.90E-01,3.040
1.90E-01,3.040
1.91E-01,3.040
1.91E-01,2.920
1.91E-01,3.040
1.91E-01,3.000
1.91E-01,2.960
1.92E-01,2.960
1.92E-01,2.960
1.92E-01,2.960
1.92E-01,3.000
1.92E-01,2.960
1.93E-01,3.040
1.93E-01,2.920
1.93E-01,2.920
1.93E-01,2.960
1.93E-01,3.000
1.94E-01,3.000
1.94E-01,3.000
1.94E-01,3.000
1.94E-01,3.000
1.94E-01,3.040
1.95E-01,3.040
1.95E-01,3.000
1.95E-01,2.960
1.95E-01,3.000
1.95E-01,3.000
1.96E-01,3.000
1.96E-01,3.000
1.96E-01,3.000
1.96E-01,3.000
1.96E-01,3.000
1.97E-01,3.000
1.97E-01,2.960
1.97E-01,3.000
1.97E-01,2.920
1.97E-01,2.960
1.98E-01,3.000
1.98E-01,2.960
1.98E-01,3.040
1.98E-01,3.040
1.98E-01,3.000
1.99E-01,2.960
1.99E-01,3.000
1.99E-01,3.040
1.99E-01,3.040
1.99E-01,3.000
2.00E-01,3.000
2.00E-01,2.960
2.00E-01,2.960
2.00E-01,3.000
2.00E-01,2.960
2.01E-01,3.000
2.01E-01,2.960
2.01E-01,3.000
2.01E-01,3.000
2.01E-01,3.000
2.02E-01,2.960
2.02E-01,3.000
2.02E-01,3.000
2.02E-01,2.960
2.02E-01,3.000
2.03E-01,3.000
2.03E-01,3.000
2.03E-01,3.000
2.03E-01,3.040
2.03E-01,3.040
2.04E-01,3.000
2.04E-01,3.000
2.04E-01,2.920
2.04E-01,3.000
2.04E-01,2.960
2.05E-01,3.040
2.05E-01,2.920
2.05E-01,3.000
2.05E-01,3.000
2.05E-01,3.000
2.06E-01,2.960
2.06E-01,2.960
2.06E-01,2.960
2.06E-01,2.960
2.06E-01,2.960
2.07E-01,2.920
2.07E-01,2.960
2.07E-01,3.040
2.07E-01,2.920
2.07E-01,2.880
2.08E-01,2.920
2.08E-01,2.920
2.08E-01,1.960
2.08E-01,2.960
2.08E-01,2.920
2.09E-01,3.000
2.09E-01,2.160
2.09E-01,2.960
2.09E-01,2.960
2.09E-01,2.920
2.10E-01,2.920
2.10E-01,2.000
2.10E-01,2.960
2.10E-01,2.960
2.10E-01,2.960
2.11E-01,2.920
2.11E-01,2.040
2.11E-01,2.960
2.11E-01,2.960
2.11E-01,3.000
2.12E-01,2.960
2.12E-01,2.920
2.12E-01,2.960
2.12E-01,2.960
2.12E-01,2.960
2.13E-01,3.000
2.13E-01,3.000
2.13E-01,2.920
2.13E-01,2.960
2.13E-01,3.000
2.14E-01,3.000
2.14E-01,3.000
2.14E-01,3.000
2.14E-01,3.000
2.14E-01,2.960
2.15E-01,3.040
2.15E-01,3.040
2.15E-01,3.000
2.15E-01,2.960
2.15E-01,3.000
2.16E-01,3.000
2.16E-01,3.000
2.16E-01,2.960
2.16E-01,2.960
2.16E-01,3.000
2.17E-01,3.000
2.17E-01,3.000
2.17E-01,3.000
2.17E-01,2.920
2.17E-01,2.960
2.18E-01,3.000
2.18E-01,3.000
2.18E-01,3.000
2.18E-01,3.000
2.18E-01,2.920
2.19E-01,3.000
2.19E-01,3.000
2.19E-01,3.000
2.19E-01,3.000
2.19E-01,3.000
2.20E-01,3.000
2.20E-01,2.960
2.20E-01,2.960
2.20E-01,2.920
2.20E-01,2.960
2.21E-01,3.000
2.21E-01,2.960
2.21E-01,2.960
2.21E-01,3.000
2.21E-01,3.040
2.22E-01,3.040
2.22E-01,2.920
2.22E-01,2.920
2.22E-01,3.040
2.22E-01,3.040
2.23E-01,3.000
2.23E-01,2.960
2.23E-01,2.960
2.23E-01,2.960
2.23E-01,2.960
2.24E-01,2.960
2.24E-01,2.960
2.24E-01,3.000
2.24E-01,2.960
2.24E-01,3.000
2.25E-01,2.960
2.25E-01,3.000
2.25E-01,2.960
2.25E-01,3.000
2.25E-01,2.960
2.26E-01,2.960
2.26E-01,2.960
2.26E-01,2.960
2.26E-01,3.000
2.26E-01,2.920
2.27E-01,3.000
2.27E-01,3.000
2.27E-01,3.040
2.27E-01,3.040
2.27E-01,2.920
2.28E-01,3.040
2.28E-01,3.000
2.28E-01,2.960
2.28E-01,3.000
2.28E-01,2.920
2.29E-01,3.040
2.29E-01,3.040
2.29E-01,3.000
2.29E-01,2.960
2.29E-01,3.000
2.30E-01,3.000
2.30E-01,2.960
2.30E-01,3.000
2.30E-01,3.000
2.30E-01,3.000
2.31E-01,2.960
2.31E-01,3.000
2.31E-01,3.000
2.31E-01,2.960
2.31E-01,3.000
2.32E-01,3.000
2.32E-01,3.000
2.32E-01,2.960
2.32E-01,3.000
2.32E-01,2.960
2.33E-01,2.920
2.33E-01,3.000
2.33E-01,2.960
2.33E-01,3.000
2.33E-01,3.000
2.34E-01,2.920
2.34E-01,2.960
2.34E-01,3.000
2.34E-01,3.000
2.34E-01,3.000
2.35E-01,3.000
2.35E-01,3.000
2.35E-01,3.000
2.35E-01,2.960
2.35E-01,3.000
2.36E-01,2.920
2.36E-01,3.000
2.36E-01,3.000
2.36E-01,2.960
2.36E-01,2.960
2.37E-01,2.960
2.37E-01,2.000
2.37E-01,2.960
2.37E-01,2.000
2.37E-01,2.920
2.38E-01,2.920
2.38E-01,2.880
2.38E-01,2.960
2.38E-01,2.000
2.38E-01,2.880
2.39E-01,1.960
2.39E-01,2.920
2.39E-01,2.880
2.39E-01,2.920
2.39E-01,2.920
2.40E-01,1.960
2.40E-01,2.920
2.40E-01,2.920
2.40E-01,3.000
2.40E-01,3.000
2.41E-01,2.920
2.41E-01,2.920
2.41E-01,3.000
2.41E-01,3.000
2.41E-01,2.960
2.42E-01,2.880
2.42E-01,2.920
2.42E-01,2.960
2.42E-01,2.960
2.42E-01,3.000
2.43E-01,3.000
2.43E-01,3.000
2.43E-01,3.000
2.43E-01,2.360
2.43E-01,2.960
2.44E-01,2.960
2.44E-01,2.960
2.44E-01,3.000
2.44E-01,1.960
2.44E-01,2.920
2.45E-01,3.000
2.45E-01,2.960
2.45E-01,2.960
2.45E-01,2.000
2.45E-01,2.960
2.46E-01,2.920
2.46E-01,2.960
2.46E-01,2.040
2.46E-01,2.920
2.46E-01,2.960
2.47E-01,2.960
2.47E-01,3.000
2.47E-01,3.000
2.47E-01,3.000
2.47E-01,2.960
2.48E-01,2.960
2.48E-01,2.920
2.48E-01,2.960
2.48E-01,3.000
2.48E-01,2.040
2.49E-01,2.960
2.49E-01,2.960
2.49E-01,2.920
2.49E-01,2.920
2.49E-01,2.400
2.50E-01,2.920
2.50E-01,2.920
2.50E-01,2.920
2.50E-01,2.040
2.50E-01,2.920
2.51E-01,2.920
2.51E-01,2.920
2.51E-01,2.960
2.51E-01,2.000
2.51E-01,2.960
2.52E-01,2.920
2.52E-01,3.000
2.52E-01,2.960
2.52E-01,3.000
2.52E-01,2.960
2.53E-01,2.920
2.53E-01,2.920
2.53E-01,2.000
2.53E-01,2.920
2.53E-01,3.000
2.54E-01,2.960
2.54E-01,2.960
2.54E-01,2.920
2.54E-01,2.920
2.54E-01,2.920
2.55E-01,3.040
2.55E-01,2.920
2.55E-01,3.000
2.55E-01,3.000
2.55E-01,2.000
2.56E-01,2.960
2.56E-01,2.960
2.56E-01,2.960
2.56E-01,3.040
2.56E-01,3.000
2.57E-01,3.000
2.57E-01,3.000
2.57E-01,2.960
2.57E-01,2.040
2.57E-01,2.920
2.58E-01,2.920
2.58E-01,2.920
2.58E-01,2.920
2.58E-01,2.000
2.58E-01,2.960
2.59E-01,2.920
2.59E-01,2.960
2.59E-01,3.000
2.59E-01,3.000
2.59E-01,3.000
2.60E-01,1.960
2.60E-01,2.960
2.60E-01,2.920
2.60E-01,2.960
2.60E-01,2.960
2.61E-01,3.000
2.61E-01,3.000
2.61E-01,3.000
2.61E-01,3.000
2.61E-01,1.960
2.62E-01,2.880
2.62E-01,3.040
2.62E-01,2.920
2.62E-01,3.040
2.62E-01,3.000
2.63E-01,3.000
2.63E-01,3.000
2.63E-01,2.960
2.63E-01,2.040
2.63E-01,2.920
2.64E-01,2.960
2.64E-01,2.960
2.64E-01,2.920
2.64E-01,2.920
2.64E-01,2.960
2.65E-01,3.000
2.65E-01,2.960
2.65E-01,2.880
2.65E-01,2.880
2.65E-01,2.920
2.66E-01,3.000
2.66E-01,3.000
