WaveData413_1v_20ms.csv

#timebase=20000000000(ps)
,#voltbase=1000000(mv/100)
#size=4064
1.00E-04,2.880
2.00E-04,2.880
3.00E-04,2.920
4.00E-04,2.880
5.00E-04,2.920
6.00E-04,2.920
7.00E-04,2.920
8.00E-04,2.880
9.00E-04,2.920
1.00E-03,2.920
1.10E-03,2.880
1.20E-03,2.880
1.30E-03,2.920
1.40E-03,2.880
1.50E-03,2.920
1.60E-03,2.920
1.70E-03,2.880
1.80E-03,2.920
1.90E-03,2.880
2.00E-03,2.880
2.10E-03,2.880
2.20E-03,2.880
2.30E-03,2.920
2.40E-03,2.880
2.50E-03,2.880
2.60E-03,2.880
2.70E-03,2.880
2.80E-03,2.880
2.90E-03,2.920
3.00E-03,2.920
3.10E-03,2.920
3.20E-03,2.920
3.30E-03,2.880
3.40E-03,2.960
3.50E-03,2.920
3.60E-03,2.880
3.70E-03,2.880
3.80E-03,2.920
3.90E-03,2.880
4.00E-03,2.920
4.10E-03,2.880
4.20E-03,2.880
4.30E-03,2.880
4.40E-03,2.880
4.50E-03,2.920
4.60E-03,2.880
4.70E-03,2.880
4.80E-03,2.920
4.90E-03,2.880
5.00E-03,2.880
5.10E-03,2.880
5.20E-03,2.880
5.30E-03,2.920
5.40E-03,2.880
5.50E-03,2.880
5.60E-03,2.920
5.70E-03,2.920
5.80E-03,2.920
5.90E-03,2.880
6.00E-03,2.920
6.10E-03,2.920
6.20E-03,2.880
6.30E-03,2.920
6.40E-03,2.880
6.50E-03,2.880
6.60E-03,2.880
6.70E-03,2.920
6.80E-03,2.920
6.90E-03,2.920
7.00E-03,2.920
7.10E-03,2.920
7.20E-03,2.880
7.30E-03,2.880
7.40E-03,2.920
7.50E-03,2.880
7.60E-03,2.920
7.70E-03,2.920
7.80E-03,2.880
7.90E-03,2.920
8.00E-03,2.920
8.10E-03,2.920
8.20E-03,2.880
8.30E-03,2.880
8.40E-03,2.880
8.50E-03,2.880
8.60E-03,2.920
8.70E-03,2.920
8.80E-03,2.880
8.90E-03,2.920
9.00E-03,2.920
9.10E-03,2.920
9.20E-03,2.880
9.30E-03,2.920
9.40E-03,2.920
9.50E-03,2.880
9.60E-03,2.920
9.70E-03,2.880
9.80E-03,2.880
9.90E-03,2.880
1.00E-02,2.920
1.01E-02,2.920
1.02E-02,2.880
1.03E-02,2.880
1.04E-02,2.880
1.05E-02,2.880
1.06E-02,2.880
1.07E-02,2.920
1.08E-02,2.880
1.09E-02,2.920
1.10E-02,2.880
1.11E-02,2.880
1.12E-02,2.880
1.13E-02,2.880
1.14E-02,2.880
1.15E-02,2.920
1.16E-02,2.880
1.17E-02,2.920
1.18E-02,2.920
1.19E-02,2.920
1.20E-02,2.920
1.21E-02,2.880
1.22E-02,2.920
1.23E-02,2.920
1.24E-02,2.920
1.25E-02,2.880
1.26E-02,2.880
1.27E-02,2.920
1.28E-02,2.880
1.29E-02,2.880
1.30E-02,2.880
1.31E-02,2.920
1.32E-02,2.920
1.33E-02,2.880
1.34E-02,2.880
1.35E-02,2.840
1.36E-02,2.880
1.37E-02,2.920
1.38E-02,2.880
1.39E-02,2.840
1.40E-02,2.880
1.41E-02,2.840
1.42E-02,2.840
1.43E-02,2.880
1.44E-02,2.840
1.45E-02,2.840
1.46E-02,2.880
1.47E-02,2.880
1.48E-02,2.800
1.49E-02,2.840
1.50E-02,2.800
1.51E-02,2.800
1.52E-02,2.760
1.53E-02,2.840
1.54E-02,2.840
1.55E-02,2.760
1.56E-02,2.840
1.57E-02,2.840
1.58E-02,2.760
1.59E-02,2.760
1.60E-02,2.800
1.61E-02,2.800
1.62E-02,2.760
1.63E-02,2.760
1.64E-02,2.760
1.65E-02,2.720
1.66E-02,2.760
1.67E-02,2.800
1.68E-02,2.720
1.69E-02,2.720
1.70E-02,2.760
1.71E-02,2.720
1.72E-02,2.680
1.73E-02,2.720
1.74E-02,2.760
1.75E-02,2.720
1.76E-02,2.720
1.77E-02,2.680
1.78E-02,2.720
1.79E-02,2.760
1.80E-02,2.680
1.81E-02,2.680
1.82E-02,2.680
1.83E-02,2.680
1.84E-02,2.680
1.85E-02,2.680
1.86E-02,2.680
1.87E-02,2.680
1.88E-02,2.680
1.89E-02,2.680
1.90E-02,2.600
1.91E-02,2.640
1.92E-02,2.680
1.93E-02,2.640
1.94E-02,2.600
1.95E-02,2.640
1.96E-02,2.680
1.97E-02,2.560
1.98E-02,2.560
1.99E-02,2.600
2.00E-02,2.600
2.01E-02,2.600
2.02E-02,2.600
2.03E-02,2.640
2.04E-02,2.640
2.05E-02,2.640
2.06E-02,2.560
2.07E-02,2.600
2.08E-02,2.600
2.09E-02,2.600
2.10E-02,2.560
2.11E-02,2.560
2.12E-02,2.560
2.13E-02,2.560
2.14E-02,2.600
2.15E-02,2.600
2.16E-02,2.600
2.17E-02,2.600
2.18E-02,2.600
2.19E-02,2.600
2.20E-02,2.560
2.21E-02,2.560
2.22E-02,2.480
2.23E-02,2.520
2.24E-02,2.480
2.25E-02,2.520
2.26E-02,2.520
2.27E-02,2.480
2.28E-02,2.480
2.29E-02,2.520
2.30E-02,2.480
2.31E-02,2.520
2.32E-02,2.520
2.33E-02,2.480
2.34E-02,2.480
2.35E-02,2.520
2.36E-02,2.480
2.37E-02,2.480
2.38E-02,2.440
2.39E-02,2.480
2.40E-02,2.440
2.41E-02,2.440
2.42E-02,2.440
2.43E-02,2.440
2.44E-02,2.480
2.45E-02,2.440
2.46E-02,2.400
2.47E-02,2.400
2.48E-02,2.440
2.49E-02,2.440
2.50E-02,2.440
2.51E-02,2.440
2.52E-02,2.400
2.53E-02,2.440
2.54E-02,2.400
2.55E-02,2.360
2.56E-02,2.440
2.57E-02,2.400
2.58E-02,2.400
2.59E-02,2.400
2.60E-02,2.400
2.61E-02,2.360
2.62E-02,2.400
2.63E-02,2.360
2.64E-02,2.400
2.65E-02,2.360
2.66E-02,2.400
2.67E-02,2.360
2.68E-02,2.400
2.69E-02,2.400
2.70E-02,2.360
2.71E-02,2.400
2.72E-02,2.320
2.73E-02,2.320
2.74E-02,2.360
2.75E-02,2.360
2.76E-02,2.320
2.77E-02,2.320
2.78E-02,2.320
2.79E-02,2.280
2.80E-02,2.240
2.81E-02,2.320
2.82E-02,2.320
2.83E-02,2.280
2.84E-02,2.280
2.85E-02,2.240
2.86E-02,2.280
2.87E-02,2.320
2.88E-02,2.280
2.89E-02,2.280
2.90E-02,2.200
2.91E-02,2.240
2.92E-02,2.240
2.93E-02,2.240
2.94E-02,2.240
2.95E-02,2.240
2.96E-02,2.240
2.97E-02,2.200
2.98E-02,2.240
2.99E-02,2.240
3.00E-02,2.240
3.01E-02,2.240
3.02E-02,2.200
3.03E-02,2.240
3.04E-02,2.280
3.05E-02,2.280
3.06E-02,2.240
3.07E-02,2.200
3.08E-02,2.160
3.09E-02,2.200
3.10E-02,2.160
3.11E-02,2.200
3.12E-02,2.160
3.13E-02,2.200
3.14E-02,2.240
3.15E-02,2.200
3.16E-02,2.200
3.17E-02,2.200
3.18E-02,2.240
3.19E-02,2.120
3.20E-02,2.200
3.21E-02,2.160
3.22E-02,2.160
3.23E-02,2.160
3.24E-02,2.240
3.25E-02,2.120
3.26E-02,2.160
3.27E-02,2.160
3.28E-02,2.160
3.29E-02,2.200
3.30E-02,2.160
3.31E-02,2.160
3.32E-02,2.120
3.33E-02,2.120
3.34E-02,2.080
3.35E-02,2.080
3.36E-02,2.080
3.37E-02,2.080
3.38E-02,2.080
3.39E-02,2.080
3.40E-02,2.080
3.41E-02,2.080
3.42E-02,2.040
3.43E-02,2.160
3.44E-02,2.040
3.45E-02,2.040
3.46E-02,2.080
3.47E-02,2.080
3.48E-02,2.040
3.49E-02,2.080
3.50E-02,2.080
3.51E-02,2.080
3.52E-02,2.040
3.53E-02,2.000
3.54E-02,2.000
3.55E-02,2.080
3.56E-02,2.080
3.57E-02,2.000
3.58E-02,2.080
3.59E-02,2.040
3.60E-02,2.040
3.61E-02,2.040
3.62E-02,2.040
3.63E-02,2.040
3.64E-02,2.000
3.65E-02,2.040
3.66E-02,2.040
3.67E-02,2.000
3.68E-02,2.000
3.69E-02,1.960
3.70E-02,2.000
3.71E-02,2.000
3.72E-02,2.040
3.73E-02,2.000
3.74E-02,2.000
3.75E-02,2.000
3.76E-02,2.000
3.77E-02,1.960
3.78E-02,2.000
3.79E-02,2.000
3.80E-02,2.000
3.81E-02,1.960
3.82E-02,1.960
3.83E-02,2.000
3.84E-02,2.000
3.85E-02,1.960
3.86E-02,1.960
3.87E-02,1.960
3.88E-02,1.920
3.89E-02,1.920
3.90E-02,1.920
3.91E-02,1.920
3.92E-02,1.880
3.93E-02,1.920
3.94E-02,1.920
3.95E-02,1.880
3.96E-02,1.880
3.97E-02,1.920
3.98E-02,1.960
3.99E-02,1.880
4.00E-02,1.920
4.01E-02,1.880
4.02E-02,1.920
4.03E-02,1.880
4.04E-02,1.880
4.05E-02,1.880
4.06E-02,1.880
4.07E-02,1.880
4.08E-02,1.880
4.09E-02,1.920
4.10E-02,1.920
4.11E-02,1.840
4.12E-02,1.840
4.13E-02,1.840
4.14E-02,1.920
4.15E-02,1.840
4.16E-02,1.840
4.17E-02,1.880
4.18E-02,1.840
4.19E-02,1.880
4.20E-02,1.840
4.21E-02,1.840
4.22E-02,1.800
4.23E-02,1.840
4.24E-02,1.840
4.25E-02,1.880
4.26E-02,1.760
4.27E-02,1.840
4.28E-02,1.840
4.29E-02,1.800
4.30E-02,1.880
4.31E-02,1.800
4.32E-02,1.840
4.33E-02,1.760
4.34E-02,1.720
4.35E-02,1.720
4.36E-02,1.760
4.37E-02,1.800
4.38E-02,1.760
4.39E-02,1.720
4.40E-02,1.720
4.41E-02,1.760
4.42E-02,1.760
4.43E-02,1.760
4.44E-02,1.800
4.45E-02,1.720
4.46E-02,1.680
4.47E-02,1.720
4.48E-02,1.760
4.49E-02,1.760
4.50E-02,1.760
4.51E-02,1.680
4.52E-02,1.720
4.53E-02,1.720
4.54E-02,1.720
4.55E-02,1.680
4.56E-02,1.720
4.57E-02,1.680
4.58E-02,1.680
4.59E-02,1.720
4.60E-02,1.680
4.61E-02,1.680
4.62E-02,1.680
4.63E-02,1.720
4.64E-02,1.720
4.65E-02,1.720
4.66E-02,1.720
4.67E-02,1.680
4.68E-02,1.680
4.69E-02,1.680
4.70E-02,1.680
4.71E-02,1.640
4.72E-02,1.640
4.73E-02,1.600
4.74E-02,1.680
4.75E-02,1.680
4.76E-02,1.640
4.77E-02,1.640
4.78E-02,1.680
4.79E-02,1.640
4.80E-02,1.640
4.81E-02,1.600
4.82E-02,1.600
4.83E-02,1.600
4.84E-02,1.640
4.85E-02,1.640
4.86E-02,1.640
4.87E-02,1.640
4.88E-02,1.600
4.89E-02,1.600
4.90E-02,1.600
4.91E-02,1.600
4.92E-02,1.640
4.93E-02,1.600
4.94E-02,1.600
4.95E-02,1.600
4.96E-02,1.560
4.97E-02,1.520
4.98E-02,1.520
4.99E-02,1.560
5.00E-02,1.560
5.01E-02,1.560
5.02E-02,1.560
5.03E-02,1.520
5.04E-02,1.520
5.05E-02,1.520
5.06E-02,1.560
5.07E-02,1.560
5.08E-02,1.520
5.09E-02,1.520
5.10E-02,1.520
5.11E-02,1.560
5.12E-02,1.520
5.13E-02,1.520
5.14E-02,1.520
5.15E-02,1.560
5.16E-02,1.520
5.17E-02,1.560
5.18E-02,1.520
5.19E-02,1.480
5.20E-02,1.480
5.21E-02,1.520
5.22E-02,1.520
5.23E-02,1.480
5.24E-02,1.480
5.25E-02,1.480
5.26E-02,1.480
5.27E-02,1.480
5.28E-02,1.520
5.29E-02,1.480
5.30E-02,1.480
5.31E-02,1.480
5.32E-02,1.480
5.33E-02,1.480
5.34E-02,1.440
5.35E-02,1.480
5.36E-02,1.440
5.37E-02,1.440
5.38E-02,1.440
5.39E-02,1.440
5.40E-02,1.480
5.41E-02,1.440
5.42E-02,1.480
5.43E-02,1.480
5.44E-02,1.440
5.45E-02,1.440
5.46E-02,1.480
5.47E-02,1.440
5.48E-02,1.400
5.49E-02,1.440
5.50E-02,1.440
5.51E-02,1.400
5.52E-02,1.400
5.53E-02,1.440
5.54E-02,1.440
5.55E-02,1.400
5.56E-02,1.400
5.57E-02,1.400
5.58E-02,1.440
5.59E-02,1.440
5.60E-02,1.400
5.61E-02,1.400
5.62E-02,1.400
5.63E-02,1.440
5.64E-02,1.360
5.65E-02,1.360
5.66E-02,1.360
5.67E-02,1.320
5.68E-02,1.360
5.69E-02,1.400
5.70E-02,1.360
5.71E-02,1.400
5.72E-02,1.360
5.73E-02,1.320
5.74E-02,1.360
5.75E-02,1.360
5.76E-02,1.400
5.77E-02,1.400
5.78E-02,1.280
5.79E-02,1.360
5.80E-02,1.280
5.81E-02,1.280
5.82E-02,1.400
5.83E-02,1.360
5.84E-02,1.320
5.85E-02,1.360
5.86E-02,1.320
5.87E-02,1.280
5.88E-02,1.320
5.89E-02,1.280
5.90E-02,1.320
5.91E-02,1.360
5.92E-02,1.320
5.93E-02,1.280
5.94E-02,1.320
5.95E-02,1.280
5.96E-02,1.360
5.97E-02,1.320
5.98E-02,1.280
5.99E-02,1.280
6.00E-02,1.360
6.01E-02,1.320
6.02E-02,1.240
6.03E-02,1.240
6.04E-02,1.280
6.05E-02,1.320
6.06E-02,1.320
6.07E-02,1.320
6.08E-02,1.320
6.09E-02,1.240
6.10E-02,1.280
6.11E-02,1.280
6.12E-02,1.280
6.13E-02,1.240
6.14E-02,1.280
6.15E-02,1.240
6.16E-02,1.200
6.17E-02,1.280
6.18E-02,1.200
6.19E-02,1.240
6.20E-02,1.200
6.21E-02,1.240
6.22E-02,1.200
6.23E-02,1.200
6.24E-02,1.240
6.25E-02,1.280
6.26E-02,1.240
6.27E-02,1.240
6.28E-02,1.240
6.29E-02,1.200
6.30E-02,1.200
6.31E-02,1.200
6.32E-02,1.200
6.33E-02,1.200
6.34E-02,1.240
6.35E-02,1.200
6.36E-02,1.200
6.37E-02,1.200
6.38E-02,1.240
6.39E-02,1.240
6.40E-02,1.200
6.41E-02,1.240
6.42E-02,1.240
6.43E-02,1.200
6.44E-02,1.240
6.45E-02,1.200
6.46E-02,1.200
6.47E-02,1.200
6.48E-02,1.200
6.49E-02,1.160
6.50E-02,1.200
6.51E-02,1.200
6.52E-02,1.160
6.53E-02,1.160
6.54E-02,1.160
6.55E-02,1.160
6.56E-02,1.160
6.57E-02,1.120
6.58E-02,1.160
6.59E-02,1.160
6.60E-02,1.160
6.61E-02,1.160
6.62E-02,1.160
6.63E-02,1.080
6.64E-02,1.160
6.65E-02,1.200
6.66E-02,1.120
6.67E-02,1.080
6.68E-02,1.120
6.69E-02,1.080
6.70E-02,1.120
6.71E-02,1.120
6.72E-02,1.160
6.73E-02,1.120
6.74E-02,1.120
6.75E-02,1.120
6.76E-02,1.120
6.77E-02,1.120
6.78E-02,1.120
6.79E-02,1.120
6.80E-02,1.160
6.81E-02,1.120
6.82E-02,1.080
6.83E-02,1.120
6.84E-02,1.160
6.85E-02,1.080
6.86E-02,1.080
6.87E-02,1.040
6.88E-02,1.080
6.89E-02,1.040
6.90E-02,1.080
6.91E-02,1.000
6.92E-02,1.040
6.93E-02,1.080
6.94E-02,1.080
6.95E-02,1.080
6.96E-02,1.080
6.97E-02,1.080
6.98E-02,1.040
6.99E-02,1.040
7.00E-02,1.040
7.01E-02,1.040
7.02E-02,1.040
7.03E-02,1.040
7.04E-02,1.040
7.05E-02,1.040
7.06E-02,1.040
7.07E-02,1.040
7.08E-02,1.000
7.09E-02,1.000
7.10E-02,1.040
7.11E-02,1.000
7.12E-02,1.040
7.13E-02,1.000
7.14E-02,1.040
7.15E-02,1.040
7.16E-02,0.960
7.17E-02,1.000
7.18E-02,1.000
7.19E-02,1.040
7.20E-02,0.960
7.21E-02,1.000
7.22E-02,1.000
7.23E-02,0.960
7.24E-02,1.000
7.25E-02,0.960
7.26E-02,1.000
7.27E-02,1.000
7.28E-02,1.000
7.29E-02,1.000
7.30E-02,1.000
7.31E-02,1.000
7.32E-02,0.960
7.33E-02,0.960
7.34E-02,1.000
7.35E-02,1.000
7.36E-02,0.960
7.37E-02,0.920
7.38E-02,0.960
7.39E-02,0.920
7.40E-02,1.000
7.41E-02,0.920
7.42E-02,0.920
7.43E-02,0.960
7.44E-02,0.960
7.45E-02,0.960
7.46E-02,0.880
7.47E-02,0.920
7.48E-02,0.880
7.49E-02,0.960
7.50E-02,0.880
7.51E-02,0.960
7.52E-02,0.880
7.53E-02,0.920
7.54E-02,0.920
7.55E-02,0.920
7.56E-02,0.920
7.57E-02,0.880
7.58E-02,0.880
7.59E-02,0.920
7.60E-02,0.920
7.61E-02,0.920
7.62E-02,0.920
7.63E-02,0.840
7.64E-02,0.840
7.65E-02,0.840
7.66E-02,0.840
7.67E-02,0.840
7.68E-02,0.920
7.69E-02,0.840
7.70E-02,0.840
7.71E-02,0.840
7.72E-02,0.840
7.73E-02,0.840
7.74E-02,0.840
7.75E-02,0.840
7.76E-02,0.880
7.77E-02,0.840
7.78E-02,0.840
7.79E-02,0.840
7.80E-02,0.840
7.81E-02,0.840
7.82E-02,0.840
7.83E-02,0.840
7.84E-02,0.880
7.85E-02,0.880
7.86E-02,0.840
7.87E-02,0.840
7.88E-02,0.800
7.89E-02,0.840
7.90E-02,0.800
7.91E-02,0.800
7.92E-02,0.760
7.93E-02,0.840
7.94E-02,0.800
7.95E-02,0.840
7.96E-02,0.800
7.97E-02,0.800
7.98E-02,0.760
7.99E-02,0.760
8.00E-02,0.800
8.01E-02,0.800
8.02E-02,0.840
8.03E-02,0.800
8.04E-02,0.800
8.05E-02,0.800
8.06E-02,0.840
8.07E-02,0.760
8.08E-02,0.840
8.09E-02,0.760
8.10E-02,0.800
8.11E-02,0.800
8.12E-02,0.800
8.13E-02,0.800
8.14E-02,0.760
8.15E-02,0.760
8.16E-02,0.760
8.17E-02,0.760
8.18E-02,0.800
8.19E-02,0.800
8.20E-02,0.760
8.21E-02,0.800
8.22E-02,0.760
8.23E-02,0.760
8.24E-02,0.760
8.25E-02,0.720
8.26E-02,0.720
8.27E-02,0.680
8.28E-02,0.680
8.29E-02,0.800
8.30E-02,0.800
8.31E-02,0.720
8.32E-02,0.760
8.33E-02,0.760
8.34E-02,0.760
8.35E-02,0.720
8.36E-02,0.680
8.37E-02,0.680
8.38E-02,0.680
8.39E-02,0.680
8.40E-02,0.680
8.41E-02,0.760
8.42E-02,0.720
8.43E-02,0.680
8.44E-02,0.720
8.45E-02,0.720
8.46E-02,0.680
8.47E-02,0.640
8.48E-02,0.720
8.49E-02,0.640
8.50E-02,0.640
8.51E-02,0.680
8.52E-02,0.640
8.53E-02,0.680
8.54E-02,0.680
8.55E-02,0.680
8.56E-02,0.720
8.57E-02,0.680
8.58E-02,0.680
8.59E-02,0.680
8.60E-02,0.680
8.61E-02,0.680
8.62E-02,0.680
8.63E-02,0.680
8.64E-02,0.600
8.65E-02,0.680
8.66E-02,0.680
8.67E-02,0.640
8.68E-02,0.680
8.69E-02,0.640
8.70E-02,0.680
8.71E-02,0.600
8.72E-02,0.720
8.73E-02,0.640
8.74E-02,0.640
8.75E-02,0.640
8.76E-02,0.600
8.77E-02,0.640
8.78E-02,0.640
8.79E-02,0.600
8.80E-02,0.600
8.81E-02,0.640
8.82E-02,0.600
8.83E-02,0.600
8.84E-02,0.640
8.85E-02,0.640
8.86E-02,0.640
8.87E-02,0.640
8.88E-02,0.600
8.89E-02,0.600
8.90E-02,0.640
8.91E-02,0.600
8.92E-02,0.600
8.93E-02,0.600
8.94E-02,0.640
8.95E-02,0.640
8.96E-02,0.560
8.97E-02,0.560
8.98E-02,0.600
8.99E-02,0.640
9.00E-02,0.600
9.01E-02,0.600
9.02E-02,0.600
9.03E-02,0.560
9.04E-02,0.560
9.05E-02,0.600
9.06E-02,0.560
9.07E-02,0.560
9.08E-02,0.600
9.09E-02,0.600
9.10E-02,0.520
9.11E-02,0.520
9.12E-02,0.560
9.13E-02,0.560
9.14E-02,0.600
9.15E-02,0.560
9.16E-02,0.600
9.17E-02,0.560
9.18E-02,0.600
9.19E-02,0.560
9.20E-02,0.520
9.21E-02,0.520
9.22E-02,0.560
9.23E-02,0.560
9.24E-02,0.520
9.25E-02,0.520
9.26E-02,0.560
9.27E-02,0.560
9.28E-02,0.520
9.29E-02,0.560
9.30E-02,0.560
9.31E-02,0.480
9.32E-02,0.520
9.33E-02,0.480
9.34E-02,0.520
9.35E-02,0.480
9.36E-02,0.520
9.37E-02,0.520
9.38E-02,0.480
9.39E-02,0.480
9.40E-02,0.480
9.41E-02,0.520
9.42E-02,0.480
9.43E-02,0.480
9.44E-02,0.520
9.45E-02,0.520
9.46E-02,0.520
9.47E-02,0.520
9.48E-02,0.520
9.49E-02,0.520
9.50E-02,0.480
9.51E-02,0.480
9.52E-02,0.480
9.53E-02,0.520
9.54E-02,0.480
9.55E-02,0.480
9.56E-02,0.480
9.57E-02,0.440
9.58E-02,0.520
9.59E-02,0.440
9.60E-02,0.440
9.61E-02,0.440
9.62E-02,0.480
9.63E-02,0.480
9.64E-02,0.440
9.65E-02,0.440
9.66E-02,0.440
9.67E-02,0.440
9.68E-02,0.440
9.69E-02,0.440
9.70E-02,0.480
9.71E-02,0.480
9.72E-02,0.480
9.73E-02,0.440
9.74E-02,0.440
9.75E-02,0.400
9.76E-02,0.440
9.77E-02,0.440
9.78E-02,0.440
9.79E-02,0.440
9.80E-02,0.400
9.81E-02,0.440
9.82E-02,0.440
9.83E-02,0.400
9.84E-02,0.400
9.85E-02,0.440
9.86E-02,0.400
9.87E-02,0.400
9.88E-02,0.400
9.89E-02,0.440
9.90E-02,0.440
9.91E-02,0.400
9.92E-02,0.440
9.93E-02,0.440
9.94E-02,0.400
9.95E-02,0.400
9.96E-02,0.400
9.97E-02,0.400
9.98E-02,0.440
9.99E-02,0.400
1.00E-01,0.400
1.00E-01,0.400
1.00E-01,0.400
1.00E-01,0.400
1.00E-01,0.360
1.01E-01,0.360
1.01E-01,0.360
1.01E-01,0.400
1.01E-01,0.400
1.01E-01,0.360
1.01E-01,0.360
1.01E-01,0.360
1.01E-01,0.400
1.01E-01,0.360
1.01E-01,0.360
1.02E-01,0.360
1.02E-01,0.320
1.02E-01,0.320
1.02E-01,0.320
1.02E-01,0.360
1.02E-01,0.360
1.02E-01,0.360
1.02E-01,0.360
1.02E-01,0.320
1.02E-01,0.320
1.02E-01,0.320
1.03E-01,0.320
1.03E-01,0.360
1.03E-01,0.360
1.03E-01,0.320
1.03E-01,0.320
1.03E-01,0.280
1.03E-01,0.280
1.03E-01,0.360
1.03E-01,0.360
1.03E-01,0.320
1.04E-01,0.280
1.04E-01,0.360
1.04E-01,0.360
1.04E-01,0.320
1.04E-01,0.280
1.04E-01,0.360
1.04E-01,0.360
1.04E-01,0.320
1.04E-01,0.320
1.04E-01,0.320
1.05E-01,0.320
1.05E-01,0.280
1.05E-01,0.280
1.05E-01,0.280
1.05E-01,0.240
1.05E-01,0.280
1.05E-01,0.240
1.05E-01,0.240
1.05E-01,0.240
1.05E-01,0.320
1.06E-01,0.360
1.06E-01,0.280
1.06E-01,0.280
1.06E-01,0.240
1.06E-01,0.280
1.06E-01,0.240
1.06E-01,0.320
1.06E-01,0.280
1.06E-01,0.280
1.06E-01,0.280
1.07E-01,0.240
1.07E-01,0.280
1.07E-01,0.280
1.07E-01,0.280
1.07E-01,0.200
1.07E-01,0.280
1.07E-01,0.240
1.07E-01,0.280
1.07E-01,0.280
1.07E-01,0.240
1.08E-01,0.200
1.08E-01,0.200
1.08E-01,0.240
1.08E-01,0.200
1.08E-01,0.240
1.08E-01,0.240
1.08E-01,0.280
1.08E-01,0.240
1.08E-01,0.240
1.08E-01,0.240
1.09E-01,0.240
1.09E-01,0.240
1.09E-01,0.200
1.09E-01,0.240
1.09E-01,0.280
1.09E-01,0.240
1.09E-01,0.240
1.09E-01,0.280
1.09E-01,0.200
1.10E-01,0.240
1.10E-01,0.200
1.10E-01,0.240
1.10E-01,0.280
1.10E-01,0.240
1.10E-01,0.200
1.10E-01,0.240
1.10E-01,0.240
1.10E-01,0.280
1.10E-01,0.200
1.11E-01,0.160
1.11E-01,0.200
1.11E-01,0.240
1.11E-01,0.200
1.11E-01,0.160
1.11E-01,0.200
1.11E-01,0.240
1.11E-01,0.200
1.11E-01,0.160
1.11E-01,0.200
1.12E-01,0.160
1.12E-01,0.200
1.12E-01,0.240
1.12E-01,0.200
1.12E-01,0.160
1.12E-01,0.160
1.12E-01,0.160
1.12E-01,0.200
1.12E-01,0.120
1.12E-01,0.200
1.13E-01,0.160
1.13E-01,0.160
1.13E-01,0.120
1.13E-01,0.160
1.13E-01,0.160
1.13E-01,0.120
1.13E-01,0.120
1.13E-01,0.160
1.13E-01,0.160
1.13E-01,0.160
1.14E-01,0.120
1.14E-01,0.160
1.14E-01,0.160
1.14E-01,0.160
1.14E-01,0.160
1.14E-01,0.120
1.14E-01,0.120
1.14E-01,0.160
1.14E-01,0.120
1.14E-01,0.120
1.15E-01,0.120
1.15E-01,0.120
1.15E-01,0.120
1.15E-01,0.160
1.15E-01,0.120
1.15E-01,0.120
1.15E-01,0.120
1.15E-01,0.120
1.15E-01,0.120
1.15E-01,0.120
1.16E-01,0.120
1.16E-01,0.080
1.16E-01,0.120
1.16E-01,0.160
1.16E-01,0.080
1.16E-01,0.080
1.16E-01,0.120
1.16E-01,0.080
1.16E-01,0.120
1.16E-01,0.080
1.17E-01,0.120
1.17E-01,0.120
1.17E-01,0.120
1.17E-01,0.080
1.17E-01,0.080
1.17E-01,0.120
1.17E-01,0.040
1.17E-01,0.080
1.17E-01,0.080
1.17E-01,0.120
1.17E-01,0.120
1.18E-01,0.080
1.18E-01,0.080
1.18E-01,0.040
1.18E-01,0.080
1.18E-01,0.040
1.18E-01,0.040
1.18E-01,0.080
1.18E-01,0.120
1.18E-01,0.080
1.18E-01,0.080
1.19E-01,0.080
1.19E-01,0.080
1.19E-01,0.080
1.19E-01,0.040
1.19E-01,0.080
1.19E-01,0.040
1.19E-01,0.080
1.19E-01,0.000
1.19E-01,0.040
1.19E-01,0.080
1.20E-01,0.040
1.20E-01,0.040
1.20E-01,0.080
1.20E-01,0.080
1.20E-01,0.040
1.20E-01,0.000
1.20E-01,0.080
1.20E-01,0.000
1.20E-01,0.040
1.20E-01,0.080
1.21E-01,0.000
1.21E-01,0.040
1.21E-01,0.080
1.21E-01,0.000
1.21E-01,0.000
1.21E-01,0.040
1.21E-01,0.000
1.21E-01,0.040
1.21E-01,0.000
1.21E-01,0.000
1.22E-01,0.040
1.22E-01,0.000
1.22E-01,0.040
1.22E-01,0.000
1.22E-01,0.000
1.22E-01,0.000
1.22E-01,0.040
1.22E-01,0.000
1.22E-01,0.000
1.22E-01,0.000
1.23E-01,-0.040
1.23E-01,-0.040
1.23E-01,-0.040
1.23E-01,-0.040
1.23E-01,-0.040
1.23E-01,0.000
1.23E-01,0.000
1.23E-01,0.000
1.23E-01,-0.040
1.23E-01,-0.040
1.24E-01,0.000
1.24E-01,0.000
1.24E-01,-0.040
1.24E-01,-0.040
1.24E-01,-0.040
1.24E-01,0.000
1.24E-01,0.000
1.24E-01,0.040
1.24E-01,-0.040
1.24E-01,0.000
1.25E-01,-0.040
1.25E-01,-0.040
1.25E-01,0.000
1.25E-01,0.000
1.25E-01,0.000
1.25E-01,0.000
1.25E-01,0.000
1.25E-01,-0.040
1.25E-01,0.000
1.26E-01,-0.040
1.26E-01,-0.080
1.26E-01,-0.040
1.26E-01,0.000
1.26E-01,0.000
1.26E-01,-0.040
1.26E-01,-0.040
1.26E-01,0.000
1.26E-01,-0.080
1.26E-01,-0.080
1.27E-01,-0.080
1.27E-01,-0.040
1.27E-01,-0.080
1.27E-01,-0.080
1.27E-01,-0.120
1.27E-01,0.000
1.27E-01,-0.080
1.27E-01,-0.080
1.27E-01,-0.080
1.27E-01,-0.120
1.28E-01,0.000
1.28E-01,-0.080
1.28E-01,-0.080
1.28E-01,-0.080
1.28E-01,-0.080
1.28E-01,-0.080
1.28E-01,-0.080
1.28E-01,-0.080
1.28E-01,-0.080
1.28E-01,-0.080
1.29E-01,-0.080
1.29E-01,-0.080
1.29E-01,-0.080
1.29E-01,-0.080
1.29E-01,-0.080
1.29E-01,-0.080
1.29E-01,-0.080
1.29E-01,-0.120
1.29E-01,-0.120
1.29E-01,-0.120
1.30E-01,-0.040
1.30E-01,-0.080
1.30E-01,-0.120
1.30E-01,-0.120
1.30E-01,-0.120
1.30E-01,-0.120
1.30E-01,-0.080
1.30E-01,-0.120
1.30E-01,-0.120
1.30E-01,-0.120
1.31E-01,-0.160
1.31E-01,-0.080
1.31E-01,-0.080
1.31E-01,-0.120
1.31E-01,-0.080
1.31E-01,-0.080
1.31E-01,-0.120
1.31E-01,-0.160
1.31E-01,-0.160
1.31E-01,-0.160
1.32E-01,-0.080
1.32E-01,-0.080
1.32E-01,-0.160
1.32E-01,-0.080
1.32E-01,-0.120
1.32E-01,-0.120
1.32E-01,-0.120
1.32E-01,-0.120
1.32E-01,-0.120
