test_data/WaveData426_flipflop_100us_02v_800us.csv

#timebase=800000000(ps)
,#voltbase=200000(mv/100)
#size=4064
4.00E-06,4.808
8.00E-06,4.808
1.20E-05,4.816
1.60E-05,4.824
2.00E-05,4.824
2.40E-05,4.824
2.80E-05,4.816
3.20E-05,4.800
3.60E-05,4.816
4.00E-05,4.800
4.40E-05,2.904
4.80E-05,2.904
5.20E-05,2.904
5.60E-05,2.904
6.00E-05,2.904
6.40E-05,2.904
6.80E-05,2.904
7.20E-05,2.904
7.60E-05,2.912
8.00E-05,2.904
8.40E-05,2.896
8.80E-05,2.904
9.20E-05,2.904
9.60E-05,2.896
1.00E-04,2.896
1.04E-04,2.904
1.08E-04,2.896
1.12E-04,2.904
1.16E-04,2.904
1.20E-04,2.896
1.24E-04,2.896
1.28E-04,2.904
1.32E-04,2.904
1.36E-04,2.904
1.40E-04,2.896
1.44E-04,4.824
1.48E-04,4.808
1.52E-04,4.800
1.56E-04,4.792
1.60E-04,4.800
1.64E-04,4.800
1.68E-04,4.800
1.72E-04,4.816
1.76E-04,4.816
1.80E-04,4.800
1.84E-04,4.816
1.88E-04,4.808
1.92E-04,4.808
1.96E-04,4.816
2.00E-04,4.800
2.04E-04,4.808
2.08E-04,4.792
2.12E-04,4.792
2.16E-04,4.800
2.20E-04,4.808
2.24E-04,4.816
2.28E-04,4.800
2.32E-04,4.808
2.36E-04,4.800
2.40E-04,4.800
2.44E-04,4.800
2.48E-04,2.904
2.52E-04,2.904
2.56E-04,2.896
2.60E-04,2.896
2.64E-04,2.904
2.68E-04,2.896
2.72E-04,2.896
2.76E-04,2.904
2.80E-04,2.896
2.84E-04,2.904
2.88E-04,2.904
2.92E-04,2.912
2.96E-04,2.904
3.00E-04,2.896
3.04E-04,2.904
3.08E-04,2.904
3.12E-04,2.912
3.16E-04,2.904
3.20E-04,2.896
3.24E-04,2.904
3.28E-04,2.912
3.32E-04,2.904
3.36E-04,2.904
3.40E-04,2.904
3.44E-04,2.912
3.48E-04,2.904
3.52E-04,4.808
3.56E-04,4.792
3.60E-04,4.800
3.64E-04,4.792
3.68E-04,4.800
3.72E-04,4.800
3.76E-04,4.792
3.80E-04,4.800
3.84E-04,4.800
3.88E-04,4.800
3.92E-04,4.800
3.96E-04,4.792
4.00E-04,4.800
4.04E-04,4.808
4.08E-04,4.800
4.12E-04,4.792
4.16E-04,4.808
4.20E-04,4.808
4.24E-04,4.824
4.28E-04,4.824
4.32E-04,4.800
4.36E-04,4.808
4.40E-04,4.800
4.44E-04,4.816
4.48E-04,4.792
4.52E-04,4.824
4.56E-04,2.904
4.60E-04,2.904
4.64E-04,2.904
4.68E-04,2.912
4.72E-04,2.904
4.76E-04,2.896
4.80E-04,2.904
4.84E-04,2.896
4.88E-04,2.904
4.92E-04,2.912
4.96E-04,2.904
5.00E-04,2.896
5.04E-04,2.904
5.08E-04,2.896
5.12E-04,2.896
5.16E-04,2.904
5.20E-04,2.904
5.24E-04,2.904
5.28E-04,2.896
5.32E-04,2.904
5.36E-04,2.912
5.40E-04,2.904
5.44E-04,2.904
5.48E-04,2.912
5.52E-04,2.904
5.56E-04,4.840
5.60E-04,4.816
5.64E-04,4.808
5.68E-04,4.816
5.72E-04,4.808
5.76E-04,4.808
5.80E-04,4.816
5.84E-04,4.824
5.88E-04,4.800
5.92E-04,4.816
5.96E-04,4.824
6.00E-04,4.832
6.04E-04,4.808
6.08E-04,4.824
6.12E-04,4.832
6.16E-04,4.808
6.20E-04,4.808
6.24E-04,4.824
6.28E-04,4.816
6.32E-04,4.808
6.36E-04,4.808
6.40E-04,4.816
6.44E-04,4.824
6.48E-04,4.832
6.52E-04,4.816
6.56E-04,4.808
6.60E-04,2.904
6.64E-04,2.912
6.68E-04,2.904
6.72E-04,2.896
6.76E-04,2.904
6.80E-04,2.896
6.84E-04,2.904
6.88E-04,2.904
6.92E-04,2.912
6.96E-04,2.904
7.00E-04,2.904
7.04E-04,2.904
7.08E-04,2.896
7.12E-04,2.896
7.16E-04,2.904
7.20E-04,2.904
7.24E-04,2.912
7.28E-04,2.904
7.32E-04,2.896
7.36E-04,2.904
7.40E-04,2.904
7.44E-04,2.904
7.48E-04,2.904
7.52E-04,2.912
7.56E-04,2.904
7.60E-04,2.904
7.64E-04,4.816
7.68E-04,4.808
7.72E-04,4.800
7.76E-04,4.800
7.80E-04,4.800
7.84E-04,4.800
7.88E-04,4.800
7.92E-04,4.808
7.96E-04,4.816
8.00E-04,4.808
8.04E-04,4.800
8.08E-04,4.800
8.12E-04,4.808
8.16E-04,4.800
8.20E-04,4.800
8.24E-04,4.800
8.28E-04,4.800
8.32E-04,4.792
8.36E-04,4.808
8.40E-04,4.808
8.44E-04,4.808
8.48E-04,4.808
8.52E-04,4.800
8.56E-04,4.800
8.60E-04,4.808
8.64E-04,4.808
8.68E-04,2.904
8.72E-04,2.904
8.76E-04,2.904
8.80E-04,2.912
8.84E-04,2.904
8.88E-04,2.904
8.92E-04,2.896
8.96E-04,2.896
9.00E-04,2.904
9.04E-04,2.904
9.08E-04,2.912
9.12E-04,2.904
9.16E-04,2.904
9.20E-04,2.904
9.24E-04,2.904
9.28E-04,2.904
9.32E-04,2.912
9.36E-04,2.904
9.40E-04,2.896
9.44E-04,2.896
9.48E-04,2.904
9.52E-04,2.896
9.56E-04,2.896
9.60E-04,2.904
9.64E-04,2.896
9.68E-04,4.832
9.72E-04,4.800
9.76E-04,4.800
9.80E-04,4.808
9.84E-04,4.800
9.88E-04,4.800
9.92E-04,4.792
9.96E-04,4.792
1.00E-03,4.784
1.00E-03,4.784
1.01E-03,4.792
1.01E-03,4.784
1.02E-03,4.792
1.02E-03,4.792
1.02E-03,4.792
1.03E-03,4.792
1.03E-03,4.792
1.04E-03,4.792
1.04E-03,4.808
1.04E-03,4.792
1.05E-03,4.800
1.05E-03,4.800
1.06E-03,4.792
1.06E-03,4.800
1.06E-03,4.784
1.07E-03,4.800
1.07E-03,4.800
1.08E-03,4.800
1.08E-03,2.912
1.08E-03,2.904
1.09E-03,2.904
1.09E-03,2.896
1.10E-03,2.904
1.10E-03,2.912
1.10E-03,2.904
1.11E-03,2.896
1.11E-03,2.904
1.12E-03,2.904
1.12E-03,2.912
1.12E-03,2.904
1.13E-03,2.896
1.13E-03,2.904
1.14E-03,2.904
1.14E-03,2.904
1.14E-03,2.896
1.15E-03,2.896
1.15E-03,2.904
1.16E-03,2.904
1.16E-03,2.896
1.16E-03,2.896
1.17E-03,2.904
1.17E-03,2.896
1.18E-03,2.904
1.18E-03,4.824
1.18E-03,4.792
1.19E-03,4.808
1.19E-03,4.792
1.20E-03,4.808
1.20E-03,4.800
1.20E-03,4.808
1.21E-03,4.808
1.21E-03,4.800
1.22E-03,4.800
1.22E-03,4.800
1.22E-03,4.808
1.23E-03,4.808
1.23E-03,4.808
1.24E-03,4.816
1.24E-03,4.800
1.24E-03,4.808
1.25E-03,4.816
1.25E-03,4.800
1.26E-03,4.816
1.26E-03,4.816
1.26E-03,4.808
1.27E-03,4.816
1.27E-03,4.800
1.28E-03,4.800
1.28E-03,4.800
1.28E-03,2.904
1.29E-03,2.912
1.29E-03,2.904
1.30E-03,2.896
1.30E-03,2.904
1.30E-03,2.896
1.31E-03,2.904
1.31E-03,2.896
1.32E-03,2.904
1.32E-03,2.904
1.32E-03,2.912
1.33E-03,2.904
1.33E-03,2.904
1.34E-03,2.912
1.34E-03,2.904
1.34E-03,2.904
1.35E-03,2.912
1.35E-03,2.904
1.36E-03,2.904
1.36E-03,2.904
1.36E-03,2.896
1.37E-03,2.904
1.37E-03,2.912
1.38E-03,2.904
1.38E-03,2.904
1.38E-03,2.904
1.39E-03,4.816
1.39E-03,4.792
1.40E-03,4.808
1.40E-03,4.800
1.40E-03,4.808
1.41E-03,4.816
1.41E-03,4.808
1.42E-03,4.808
1.42E-03,4.808
1.42E-03,4.808
1.43E-03,4.824
1.43E-03,4.824
1.44E-03,4.808
1.44E-03,4.808
1.44E-03,4.816
1.45E-03,4.816
1.45E-03,4.816
1.46E-03,4.824
1.46E-03,4.824
1.46E-03,4.808
1.47E-03,4.832
1.47E-03,4.792
1.48E-03,4.824
1.48E-03,4.808
1.48E-03,4.816
1.49E-03,4.824
1.49E-03,2.912
1.50E-03,2.904
1.50E-03,2.896
1.50E-03,2.904
1.51E-03,2.904
1.51E-03,2.904
1.52E-03,2.896
1.52E-03,2.896
1.52E-03,2.904
1.53E-03,2.904
1.53E-03,2.896
1.54E-03,2.896
1.54E-03,2.904
1.54E-03,2.904
1.55E-03,2.904
1.55E-03,2.904
1.56E-03,2.904
1.56E-03,2.904
1.56E-03,2.904
1.57E-03,2.896
1.57E-03,2.904
1.58E-03,2.904
1.58E-03,2.904
1.58E-03,2.904
1.59E-03,2.904
1.59E-03,4.824
1.60E-03,4.808
1.60E-03,4.800
1.60E-03,4.816
1.61E-03,4.792
1.61E-03,4.800
1.62E-03,4.808
1.62E-03,4.800
1.62E-03,4.800
1.63E-03,4.808
1.63E-03,4.800
1.64E-03,4.800
1.64E-03,4.808
1.64E-03,4.808
1.65E-03,4.808
1.65E-03,4.792
1.66E-03,4.808
1.66E-03,4.792
1.66E-03,4.800
1.67E-03,4.816
1.67E-03,4.800
1.68E-03,4.816
1.68E-03,4.792
1.68E-03,4.792
1.69E-03,4.800
1.69E-03,4.792
1.70E-03,2.904
1.70E-03,2.904
1.70E-03,2.904
1.71E-03,2.904
1.71E-03,2.904
1.72E-03,2.896
1.72E-03,2.904
1.72E-03,2.904
1.73E-03,2.912
1.73E-03,2.904
1.74E-03,2.904
1.74E-03,2.904
1.74E-03,2.912
1.75E-03,2.904
1.75E-03,2.896
1.76E-03,2.904
1.76E-03,2.896
1.76E-03,2.904
1.77E-03,2.912
1.77E-03,2.904
1.78E-03,2.896
1.78E-03,2.904
1.78E-03,2.904
1.79E-03,2.904
1.79E-03,2.904
1.80E-03,2.912
1.80E-03,4.808
1.80E-03,4.784
1.81E-03,4.784
1.81E-03,4.792
1.82E-03,4.784
1.82E-03,4.784
1.82E-03,4.792
1.83E-03,4.792
1.83E-03,4.792
1.84E-03,4.800
1.84E-03,4.808
1.84E-03,4.816
1.85E-03,4.808
1.85E-03,4.800
1.86E-03,4.808
1.86E-03,4.784
1.86E-03,4.800
1.87E-03,4.800
1.87E-03,4.800
1.88E-03,4.800
1.88E-03,4.800
1.88E-03,4.800
1.89E-03,4.808
1.89E-03,4.800
1.90E-03,4.808
1.90E-03,4.816
1.90E-03,2.912
1.91E-03,2.904
1.91E-03,2.904
1.92E-03,2.896
1.92E-03,2.904
1.92E-03,2.904
1.93E-03,2.904
1.93E-03,2.904
1.94E-03,2.904
1.94E-03,2.912
1.94E-03,2.904
1.95E-03,2.904
1.95E-03,2.896
1.96E-03,2.904
1.96E-03,2.912
1.96E-03,2.904
1.97E-03,2.904
1.97E-03,2.896
1.98E-03,2.904
1.98E-03,2.912
1.98E-03,2.904
1.99E-03,2.904
1.99E-03,2.912
2.00E-03,2.904
2.00E-03,2.904
2.00E-03,4.840
2.01E-03,4.816
2.01E-03,4.808
2.02E-03,4.800
2.02E-03,4.816
2.02E-03,4.808
2.03E-03,4.816
2.03E-03,4.816
2.04E-03,4.808
2.04E-03,4.824
2.04E-03,4.816
2.05E-03,4.800
2.05E-03,4.808
2.06E-03,4.816
2.06E-03,4.824
2.06E-03,4.824
2.07E-03,4.824
2.07E-03,4.824
2.08E-03,4.808
2.08E-03,4.808
2.08E-03,4.832
2.09E-03,4.816
2.09E-03,4.816
2.10E-03,4.832
2.10E-03,4.824
2.10E-03,4.824
2.11E-03,4.816
2.11E-03,4.816
2.12E-03,2.904
2.12E-03,2.904
2.12E-03,2.896
2.13E-03,2.896
2.13E-03,2.904
2.14E-03,2.904
2.14E-03,2.904
2.14E-03,2.904
2.15E-03,2.912
2.15E-03,2.904
2.16E-03,2.896
2.16E-03,2.904
2.16E-03,2.896
2.17E-03,2.904
2.17E-03,2.896
2.18E-03,2.896
2.18E-03,2.904
2.18E-03,2.904
2.19E-03,2.904
2.19E-03,2.904
2.20E-03,2.904
2.20E-03,2.904
2.20E-03,2.896
2.21E-03,2.896
2.21E-03,2.904
2.22E-03,4.816
2.22E-03,4.816
2.22E-03,4.800
2.23E-03,4.808
2.23E-03,4.800
2.24E-03,4.800
2.24E-03,4.808
2.24E-03,4.808
2.25E-03,4.800
2.25E-03,4.800
2.26E-03,4.816
2.26E-03,4.808
2.26E-03,4.808
2.27E-03,4.800
2.27E-03,4.800
2.28E-03,4.800
2.28E-03,4.800
2.28E-03,4.816
2.29E-03,4.816
2.29E-03,4.816
2.30E-03,4.800
2.30E-03,4.800
2.30E-03,4.824
2.31E-03,4.808
2.31E-03,4.800
2.32E-03,4.800
2.32E-03,2.904
2.32E-03,2.912
2.33E-03,2.904
2.33E-03,2.896
2.34E-03,2.904
2.34E-03,2.904
2.34E-03,2.904
2.35E-03,2.904
2.35E-03,2.912
2.36E-03,2.904
2.36E-03,2.896
2.36E-03,2.896
2.37E-03,2.904
2.37E-03,2.904
2.38E-03,2.896
2.38E-03,2.904
2.38E-03,2.904
2.39E-03,2.912
2.39E-03,2.904
2.40E-03,2.904
2.40E-03,2.896
2.40E-03,2.904
2.41E-03,2.904
2.41E-03,2.912
2.42E-03,2.904
2.42E-03,2.904
2.42E-03,4.800
2.43E-03,4.808
2.43E-03,4.792
2.44E-03,4.792
2.44E-03,4.792
2.44E-03,4.792
2.45E-03,4.792
2.45E-03,4.784
2.46E-03,4.792
2.46E-03,4.800
2.46E-03,4.800
2.47E-03,4.800
2.47E-03,4.800
2.48E-03,4.800
2.48E-03,4.816
2.48E-03,4.816
2.49E-03,4.800
2.49E-03,4.808
2.50E-03,4.784
2.50E-03,4.792
2.50E-03,4.800
2.51E-03,4.792
2.51E-03,4.800
2.52E-03,4.800
2.52E-03,4.800
2.52E-03,4.800
2.53E-03,2.896
2.53E-03,2.904
2.54E-03,2.896
2.54E-03,2.896
2.54E-03,2.904
2.55E-03,2.896
2.55E-03,2.904
2.56E-03,2.896
2.56E-03,2.904
2.56E-03,2.896
2.57E-03,2.904
2.57E-03,2.904
2.58E-03,2.904
2.58E-03,2.896
2.58E-03,2.896
2.59E-03,2.904
2.59E-03,2.904
2.60E-03,2.912
2.60E-03,2.904
2.60E-03,2.904
2.61E-03,2.904
2.61E-03,2.896
2.62E-03,2.896
2.62E-03,2.904
2.62E-03,2.904
2.63E-03,4.824
2.63E-03,4.784
2.64E-03,4.792
2.64E-03,4.800
2.64E-03,4.792
2.65E-03,4.800
2.65E-03,4.808
2.66E-03,4.800
2.66E-03,4.808
2.66E-03,4.800
2.67E-03,4.808
2.67E-03,4.800
2.68E-03,4.800
2.68E-03,4.800
2.68E-03,4.800
2.69E-03,4.808
2.69E-03,4.800
2.70E-03,4.808
2.70E-03,4.800
2.70E-03,4.800
2.71E-03,4.808
2.71E-03,4.800
2.72E-03,4.800
2.72E-03,4.808
2.72E-03,4.808
2.73E-03,4.824
2.73E-03,2.904
2.74E-03,2.904
2.74E-03,2.912
2.74E-03,2.904
2.75E-03,2.904
2.75E-03,2.904
2.76E-03,2.904
2.76E-03,2.904
2.76E-03,2.912
2.77E-03,2.904
2.77E-03,2.896
2.78E-03,2.904
2.78E-03,2.904
2.78E-03,2.904
2.79E-03,2.912
2.79E-03,2.904
2.80E-03,2.904
2.80E-03,2.912
2.80E-03,2.904
2.81E-03,2.904
2.81E-03,2.904
2.82E-03,2.904
2.82E-03,2.912
2.82E-03,2.904
2.83E-03,2.904
2.83E-03,2.912
2.84E-03,4.832
2.84E-03,4.808
2.84E-03,4.808
2.85E-03,4.816
2.85E-03,4.816
2.86E-03,4.808
2.86E-03,4.808
2.86E-03,4.800
2.87E-03,4.816
2.87E-03,4.808
2.88E-03,4.800
2.88E-03,4.824
2.88E-03,4.808
2.89E-03,4.808
2.89E-03,4.832
2.90E-03,4.824
2.90E-03,4.808
2.90E-03,4.816
2.91E-03,4.824
2.91E-03,4.824
2.92E-03,4.824
2.92E-03,4.824
2.92E-03,4.808
2.93E-03,4.800
2.93E-03,4.816
2.94E-03,4.816
2.94E-03,2.904
2.94E-03,2.896
2.95E-03,2.896
2.95E-03,2.904
2.96E-03,2.896
2.96E-03,2.896
2.96E-03,2.904
2.97E-03,2.896
2.97E-03,2.896
2.98E-03,2.904
2.98E-03,2.904
2.98E-03,2.904
2.99E-03,2.896
2.99E-03,2.904
3.00E-03,2.904
3.00E-03,2.912
3.00E-03,2.904
3.01E-03,2.904
3.01E-03,2.904
3.02E-03,2.904
3.02E-03,2.904
3.02E-03,2.896
3.03E-03,2.896
3.03E-03,2.904
3.04E-03,2.896
3.04E-03,4.816
3.04E-03,4.816
3.05E-03,4.808
3.05E-03,4.792
3.06E-03,4.800
3.06E-03,4.800
3.06E-03,4.800
3.07E-03,4.808
3.07E-03,4.808
3.08E-03,4.808
3.08E-03,4.800
3.08E-03,4.800
3.09E-03,4.808
3.09E-03,4.808
3.10E-03,4.816
3.10E-03,4.808
3.10E-03,4.824
3.11E-03,4.808
3.11E-03,4.816
3.12E-03,4.816
3.12E-03,4.816
3.12E-03,4.800
3.13E-03,4.824
3.13E-03,4.800
3.14E-03,4.800
3.14E-03,4.800
3.14E-03,4.800
3.15E-03,4.800
3.15E-03,2.904
3.16E-03,2.904
3.16E-03,2.904
3.16E-03,2.904
3.17E-03,2.904
3.17E-03,2.912
3.18E-03,2.904
3.18E-03,2.896
3.18E-03,2.904
3.19E-03,2.912
3.19E-03,2.904
3.20E-03,2.904
3.20E-03,2.904
3.20E-03,2.904
3.21E-03,2.912
3.21E-03,2.904
3.22E-03,2.904
3.22E-03,2.904
3.22E-03,2.904
3.23E-03,2.912
3.23E-03,2.904
3.24E-03,2.896
3.24E-03,2.896
3.24E-03,2.904
3.25E-03,2.896
3.25E-03,4.824
3.26E-03,4.792
3.26E-03,4.784
3.26E-03,4.800
3.27E-03,4.776
3.27E-03,4.776
3.28E-03,4.792
3.28E-03,4.776
3.28E-03,4.808
3.29E-03,4.800
3.29E-03,4.800
3.30E-03,4.800
3.30E-03,4.792
3.30E-03,4.792
3.31E-03,4.800
3.31E-03,4.792
3.32E-03,4.792
3.32E-03,4.792
3.32E-03,4.792
3.33E-03,4.808
3.33E-03,4.800
3.34E-03,4.808
3.34E-03,4.808
3.34E-03,4.800
3.35E-03,4.808
3.35E-03,4.792
3.36E-03,2.896
3.36E-03,2.896
3.36E-03,2.904
3.37E-03,2.896
3.37E-03,2.904
3.38E-03,2.896
3.38E-03,2.904
3.38E-03,2.904
3.39E-03,2.896
3.39E-03,2.896
3.40E-03,2.904
3.40E-03,2.896
3.40E-03,2.896
3.41E-03,2.904
3.41E-03,2.904
3.42E-03,2.912
3.42E-03,2.904
3.42E-03,2.896
3.43E-03,2.896
3.43E-03,2.904
3.44E-03,2.904
3.44E-03,2.904
3.44E-03,2.912
3.45E-03,2.904
3.45E-03,2.896
3.46E-03,2.896
3.46E-03,4.832
3.46E-03,4.816
3.47E-03,4.800
3.47E-03,4.800
3.48E-03,4.808
3.48E-03,4.800
3.48E-03,4.816
3.49E-03,4.808
3.49E-03,4.816
3.50E-03,4.808
3.50E-03,4.800
3.50E-03,4.816
3.51E-03,4.816
3.51E-03,4.800
3.52E-03,4.832
3.52E-03,4.816
3.52E-03,4.816
3.53E-03,4.832
3.53E-03,4.808
3.54E-03,4.824
3.54E-03,4.816
3.54E-03,4.816
3.55E-03,4.816
3.55E-03,4.824
3.56E-03,4.832
3.56E-03,4.816
3.56E-03,2.904
3.57E-03,2.904
3.57E-03,2.896
3.58E-03,2.904
3.58E-03,2.912
3.58E-03,2.904
3.59E-03,2.896
3.59E-03,2.904
3.60E-03,2.912
3.60E-03,2.904
3.60E-03,2.904
3.61E-03,2.904
3.61E-03,2.896
3.62E-03,2.896
3.62E-03,2.904
3.62E-03,2.896
3.63E-03,2.896
3.63E-03,2.904
3.64E-03,2.904
3.64E-03,2.904
3.64E-03,2.904
3.65E-03,2.896
3.65E-03,2.904
3.66E-03,2.912
3.66E-03,2.904
3.66E-03,4.808
3.67E-03,4.808
3.67E-03,4.816
3.68E-03,4.784
3.68E-03,4.808
3.68E-03,4.808
3.69E-03,4.800
3.69E-03,4.808
3.70E-03,4.824
3.70E-03,4.808
3.70E-03,4.808
3.71E-03,4.808
3.71E-03,4.808
3.72E-03,4.816
3.72E-03,4.808
3.72E-03,4.808
3.73E-03,4.816
3.73E-03,4.808
3.74E-03,4.816
3.74E-03,4.792
3.74E-03,4.792
3.75E-03,4.816
3.75E-03,4.808
3.76E-03,4.808
3.76E-03,4.808
3.76E-03,4.776
3.77E-03,2.912
3.77E-03,2.904
3.78E-03,2.896
3.78E-03,2.896
3.78E-03,2.904
3.79E-03,2.896
3.79E-03,2.904
3.80E-03,2.904
3.80E-03,2.904
3.80E-03,2.912
3.81E-03,2.904
3.81E-03,2.896
3.82E-03,2.904
3.82E-03,2.904
3.82E-03,2.904
3.83E-03,2.912
3.83E-03,2.904
3.84E-03,2.896
3.84E-03,2.904
3.84E-03,2.904
3.85E-03,2.912
3.85E-03,2.904
3.86E-03,2.904
3.86E-03,2.896
3.86E-03,2.904
3.87E-03,2.912
3.87E-03,4.800
3.88E-03,4.800
3.88E-03,4.800
3.88E-03,4.800
3.89E-03,4.792
3.89E-03,4.800
3.90E-03,4.800
3.90E-03,4.792
3.90E-03,4.816
3.91E-03,4.808
3.91E-03,4.808
3.92E-03,4.800
3.92E-03,4.808
3.92E-03,4.808
3.93E-03,4.800
3.93E-03,4.800
3.94E-03,4.792
3.94E-03,4.792
3.94E-03,4.808
3.95E-03,4.792
3.95E-03,4.808
3.96E-03,4.824
3.96E-03,4.800
3.96E-03,4.800
3.97E-03,4.800
3.97E-03,4.784
3.98E-03,2.904
3.98E-03,2.896
3.98E-03,2.904
3.99E-03,2.896
3.99E-03,2.904
4.00E-03,2.912
4.00E-03,2.904
4.00E-03,2.904
4.01E-03,2.912
4.01E-03,2.904
4.02E-03,2.896
4.02E-03,2.904
4.02E-03,2.896
4.03E-03,2.904
4.03E-03,2.904
4.04E-03,2.904
4.04E-03,2.912
4.04E-03,2.904
4.05E-03,2.896
4.05E-03,2.904
4.06E-03,2.904
4.06E-03,2.896
4.06E-03,2.904
4.07E-03,2.912
4.07E-03,2.904
4.08E-03,4.808
4.08E-03,4.800
4.08E-03,4.800
4.09E-03,4.800
4.09E-03,4.792
4.10E-03,4.800
4.10E-03,4.784
4.10E-03,4.792
4.11E-03,4.792
4.11E-03,4.800
4.12E-03,4.800
4.12E-03,4.800
4.12E-03,4.824
4.13E-03,4.792
4.13E-03,4.800
4.14E-03,4.800
4.14E-03,4.792
4.14E-03,4.816
4.15E-03,4.800
4.15E-03,4.800
4.16E-03,4.800
4.16E-03,4.808
4.16E-03,4.808
4.17E-03,4.824
4.17E-03,4.824
4.18E-03,4.808
4.18E-03,4.808
4.18E-03,4.816
4.19E-03,2.904
4.19E-03,2.904
4.20E-03,2.904
4.20E-03,2.912
4.20E-03,2.904
4.21E-03,2.904
4.21E-03,2.912
4.22E-03,2.904
4.22E-03,2.904
4.22E-03,2.904
4.23E-03,2.904
4.23E-03,2.896
4.24E-03,2.904
4.24E-03,2.912
4.24E-03,2.904
4.25E-03,2.904
4.25E-03,2.904
4.26E-03,2.912
4.26E-03,2.904
4.26E-03,2.904
4.27E-03,2.904
4.27E-03,2.904
4.28E-03,2.904
4.28E-03,2.904
4.28E-03,2.904
4.29E-03,4.736
4.29E-03,4.808
4.30E-03,4.808
4.30E-03,4.808
4.30E-03,4.816
4.31E-03,4.824
4.31E-03,4.824
4.32E-03,4.808
4.32E-03,4.808
4.32E-03,4.808
4.33E-03,4.824
4.33E-03,4.816
4.34E-03,4.824
4.34E-03,4.840
4.34E-03,4.808
4.35E-03,4.824
4.35E-03,4.808
4.36E-03,4.824
4.36E-03,4.824
4.36E-03,4.808
4.37E-03,4.816
4.37E-03,4.816
4.38E-03,4.816
4.38E-03,4.808
4.38E-03,4.816
4.39E-03,4.808
4.39E-03,2.904
4.40E-03,2.896
4.40E-03,2.896
4.40E-03,2.904
4.41E-03,2.904
4.41E-03,2.896
4.42E-03,2.904
4.42E-03,2.904
4.42E-03,2.912
4.43E-03,2.904
4.43E-03,2.904
4.44E-03,2.912
4.44E-03,2.904
4.44E-03,2.896
4.45E-03,2.896
4.45E-03,2.904
4.46E-03,2.904
4.46E-03,2.912
4.46E-03,2.904
4.47E-03,2.904
4.47E-03,2.896
4.48E-03,2.904
4.48E-03,2.912
4.48E-03,2.904
4.49E-03,2.896
4.49E-03,2.904
4.50E-03,4.824
4.50E-03,4.800
4.50E-03,4.800
4.51E-03,4.792
4.51E-03,4.800
4.52E-03,4.800
4.52E-03,4.800
4.52E-03,4.800
4.53E-03,4.808
4.53E-03,4.816
4.54E-03,4.816
4.54E-03,4.816
4.54E-03,4.808
4.55E-03,4.800
4.55E-03,4.808
4.56E-03,4.792
4.56E-03,4.800
4.56E-03,4.800
4.57E-03,4.808
4.57E-03,4.800
4.58E-03,4.800
4.58E-03,4.816
4.58E-03,4.816
4.59E-03,4.800
4.59E-03,4.800
4.60E-03,4.800
4.60E-03,2.904
4.60E-03,2.912
4.61E-03,2.904
4.61E-03,2.896
4.62E-03,2.904
4.62E-03,2.904
4.62E-03,2.904
4.63E-03,2.912
4.63E-03,2.904
4.64E-03,2.904
4.64E-03,2.904
4.64E-03,2.904
4.65E-03,2.904
4.65E-03,2.912
4.66E-03,2.904
4.66E-03,2.896
4.66E-03,2.904
4.67E-03,2.904
4.67E-03,2.912
4.68E-03,2.904
4.68E-03,2.896
4.68E-03,2.904
4.69E-03,2.912
4.69E-03,2.904
4.70E-03,2.904
4.70E-03,4.808
4.70E-03,4.808
4.71E-03,4.792
4.71E-03,4.808
4.72E-03,4.808
4.72E-03,4.808
4.72E-03,4.776
4.73E-03,4.800
4.73E-03,4.784
4.74E-03,4.800
4.74E-03,4.816
4.74E-03,4.784
4.75E-03,4.800
4.75E-03,4.792
4.76E-03,4.800
4.76E-03,4.800
4.76E-03,4.784
4.77E-03,4.792
4.77E-03,4.800
4.78E-03,4.808
4.78E-03,4.800
4.78E-03,4.800
4.79E-03,4.808
4.79E-03,4.792
4.80E-03,4.792
4.80E-03,4.784
4.80E-03,2.904
4.81E-03,2.896
4.81E-03,2.896
4.82E-03,2.904
4.82E-03,2.904
4.82E-03,2.912
4.83E-03,2.904
4.83E-03,2.904
4.84E-03,2.912
4.84E-03,2.904
4.84E-03,2.896
4.85E-03,2.904
4.85E-03,2.912
4.86E-03,2.904
4.86E-03,2.904
4.86E-03,2.904
4.87E-03,2.896
4.87E-03,2.896
4.88E-03,2.904
4.88E-03,2.904
4.88E-03,2.896
4.89E-03,2.896
4.89E-03,2.904
4.90E-03,2.904
4.90E-03,2.904
4.90E-03,2.896
4.91E-03,4.824
4.91E-03,4.800
4.92E-03,4.816
4.92E-03,4.800
4.92E-03,4.816
4.93E-03,4.824
4.93E-03,4.816
4.94E-03,4.824
4.94E-03,4.824
4.94E-03,4.800
4.95E-03,4.808
4.95E-03,4.824
4.96E-03,4.816
4.96E-03,4.808
4.96E-03,4.816
4.97E-03,4.816
4.97E-03,4.808
4.98E-03,4.824
4.98E-03,4.816
4.98E-03,4.808
4.99E-03,4.808
4.99E-03,4.808
5.00E-03,4.824
5.00E-03,4.816
5.00E-03,4.816
5.01E-03,4.824
5.01E-03,2.896
5.02E-03,2.896
5.02E-03,2.904
5.02E-03,2.904
5.03E-03,2.904
5.03E-03,2.896
5.04E-03,2.904
5.04E-03,2.904
5.04E-03,2.904
5.05E-03,2.912
5.05E-03,2.904
5.06E-03,2.904
5.06E-03,2.896
5.06E-03,2.904
5.07E-03,2.904
5.07E-03,2.912
5.08E-03,2.904
5.08E-03,2.896
5.08E-03,2.896
5.09E-03,2.904
5.09E-03,2.896
5.10E-03,2.904
5.10E-03,2.896
5.10E-03,2.904
5.11E-03,2.904
5.11E-03,4.848
5.12E-03,4.816
5.12E-03,4.816
5.12E-03,4.808
5.13E-03,4.816
5.13E-03,4.816
5.14E-03,4.824
5.14E-03,4.816
5.14E-03,4.816
5.15E-03,4.808
5.15E-03,4.816
5.16E-03,4.816
5.16E-03,4.824
5.16E-03,4.816
5.17E-03,4.824
5.17E-03,4.816
5.18E-03,4.800
5.18E-03,4.800
5.18E-03,4.800
5.19E-03,4.824
5.19E-03,4.800
5.20E-03,4.824
5.20E-03,4.808
5.20E-03,4.816
5.21E-03,4.816
5.21E-03,4.800
5.22E-03,4.808
5.22E-03,4.808
5.22E-03,2.896
5.23E-03,2.904
5.23E-03,2.904
5.24E-03,2.904
5.24E-03,2.912
5.24E-03,2.904
5.25E-03,2.896
5.25E-03,2.904
5.26E-03,2.904
5.26E-03,2.896
5.26E-03,2.896
5.27E-03,2.904
5.27E-03,2.896
5.28E-03,2.904
5.28E-03,2.896
5.28E-03,2.904
5.29E-03,2.904
5.29E-03,2.912
5.30E-03,2.904
5.30E-03,2.904
5.30E-03,2.896
5.31E-03,2.904
5.31E-03,2.912
5.32E-03,2.904
