test_data/WaveData416_flipflop_10ms_1v_40ms.csv

#flipflop between high and low with a delay of 100ms between changes
#timebase=40000000000(ps)
,#voltbase=1000000(mv/100)
#size=4064
2.00E-04,4.680
4.00E-04,4.680
6.00E-04,4.680
8.00E-04,4.680
1.00E-03,4.720
1.20E-03,4.720
1.40E-03,4.680
1.60E-03,4.680
1.80E-03,4.680
2.00E-03,4.640
2.20E-03,4.720
2.40E-03,4.720
2.60E-03,4.680
2.80E-03,4.720
3.00E-03,4.760
3.20E-03,4.680
3.40E-03,4.680
3.60E-03,4.640
3.80E-03,4.680
4.00E-03,4.760
4.20E-03,4.720
4.40E-03,4.680
4.60E-03,4.680
4.80E-03,4.680
5.00E-03,4.720
5.20E-03,4.720
5.40E-03,4.720
5.60E-03,4.720
5.80E-03,-0.080
6.00E-03,-0.040
6.20E-03,0.000
6.40E-03,0.000
6.60E-03,0.000
6.80E-03,0.000
7.00E-03,-0.040
7.20E-03,-0.040
7.40E-03,-0.040
7.60E-03,0.000
7.80E-03,0.000
8.00E-03,0.000
8.20E-03,0.040
8.40E-03,0.000
8.60E-03,0.000
8.80E-03,0.000
9.00E-03,0.000
9.20E-03,0.000
9.40E-03,0.040
9.60E-03,0.080
9.80E-03,0.080
1.00E-02,0.120
1.02E-02,0.120
1.04E-02,0.040
1.06E-02,0.040
1.08E-02,0.040
1.10E-02,0.080
1.12E-02,0.120
1.14E-02,0.080
1.16E-02,0.160
1.18E-02,0.080
1.20E-02,0.080
1.22E-02,0.080
1.24E-02,0.080
1.26E-02,0.120
1.28E-02,0.120
1.30E-02,0.160
1.32E-02,0.080
1.34E-02,0.080
1.36E-02,0.120
1.38E-02,0.120
1.40E-02,0.120
1.42E-02,0.120
1.44E-02,0.080
1.46E-02,0.120
1.48E-02,0.120
1.50E-02,0.160
1.52E-02,0.120
1.54E-02,0.120
1.56E-02,0.120
1.58E-02,0.120
1.60E-02,0.160
1.62E-02,0.080
1.64E-02,0.160
1.66E-02,0.080
1.68E-02,0.120
1.70E-02,0.120
1.72E-02,0.160
1.74E-02,0.080
1.76E-02,0.120
1.78E-02,0.120
1.80E-02,0.120
1.82E-02,0.080
1.84E-02,0.080
1.86E-02,0.080
1.88E-02,0.160
1.90E-02,0.120
1.92E-02,0.120
1.94E-02,0.120
1.96E-02,0.160
1.98E-02,0.120
2.00E-02,0.080
2.02E-02,0.120
2.04E-02,0.120
2.06E-02,0.120
2.08E-02,0.080
2.10E-02,0.160
2.12E-02,0.120
2.14E-02,0.160
2.16E-02,0.080
2.18E-02,0.160
2.20E-02,0.120
2.22E-02,0.120
2.24E-02,0.120
2.26E-02,0.080
2.28E-02,0.120
2.30E-02,0.160
2.32E-02,0.080
2.34E-02,0.080
2.36E-02,0.080
2.38E-02,0.120
2.40E-02,0.120
2.42E-02,0.120
2.44E-02,0.080
2.46E-02,0.160
2.48E-02,0.080
2.50E-02,0.080
2.52E-02,0.120
2.54E-02,0.160
2.56E-02,0.120
2.58E-02,0.080
2.60E-02,0.120
2.62E-02,0.080
2.64E-02,0.120
2.66E-02,0.120
2.68E-02,0.080
2.70E-02,0.080
2.72E-02,0.120
2.74E-02,0.120
2.76E-02,0.120
2.78E-02,0.080
2.80E-02,0.080
2.82E-02,0.120
2.84E-02,0.080
2.86E-02,0.120
2.88E-02,0.120
2.90E-02,0.120
2.92E-02,0.080
2.94E-02,0.080
2.96E-02,0.120
2.98E-02,0.080
3.00E-02,0.080
3.02E-02,0.120
3.04E-02,0.160
3.06E-02,0.160
3.08E-02,0.120
3.10E-02,0.080
3.12E-02,0.120
3.14E-02,0.120
3.16E-02,0.160
3.18E-02,0.120
3.20E-02,0.120
3.22E-02,0.080
3.24E-02,0.120
3.26E-02,0.120
3.28E-02,0.160
3.30E-02,0.120
3.32E-02,0.120
3.34E-02,0.160
3.36E-02,0.080
3.38E-02,0.120
3.40E-02,0.120
3.42E-02,0.120
3.44E-02,0.120
3.46E-02,0.120
3.48E-02,0.160
3.50E-02,0.080
3.52E-02,0.120
3.54E-02,0.080
3.56E-02,0.120
3.58E-02,0.080
3.60E-02,0.120
3.62E-02,0.120
3.64E-02,0.120
3.66E-02,0.080
3.68E-02,0.120
3.70E-02,0.080
3.72E-02,0.120
3.74E-02,0.120
3.76E-02,0.080
3.78E-02,0.120
3.80E-02,0.120
3.82E-02,0.120
3.84E-02,0.120
3.86E-02,0.120
3.88E-02,0.120
3.90E-02,0.080
3.92E-02,0.160
3.94E-02,0.160
3.96E-02,0.080
3.98E-02,0.160
4.00E-02,0.120
4.02E-02,0.080
4.04E-02,0.160
4.06E-02,0.080
4.08E-02,0.160
4.10E-02,0.120
4.12E-02,0.160
4.14E-02,0.080
4.16E-02,0.080
4.18E-02,0.120
4.20E-02,0.160
4.22E-02,0.160
4.24E-02,0.080
4.26E-02,0.080
4.28E-02,0.120
4.30E-02,0.160
4.32E-02,0.120
4.34E-02,0.080
4.36E-02,0.160
4.38E-02,0.080
4.40E-02,0.120
4.42E-02,0.120
4.44E-02,0.120
4.46E-02,0.080
4.48E-02,0.120
4.50E-02,0.160
4.52E-02,0.080
4.54E-02,0.080
4.56E-02,0.080
4.58E-02,0.120
4.60E-02,0.120
4.62E-02,0.120
4.64E-02,0.120
4.66E-02,0.120
4.68E-02,0.120
4.70E-02,0.080
4.72E-02,0.160
4.74E-02,0.120
4.76E-02,0.080
4.78E-02,0.080
4.80E-02,0.160
4.82E-02,0.080
4.84E-02,0.080
4.86E-02,0.120
4.88E-02,0.080
4.90E-02,0.120
4.92E-02,0.120
4.94E-02,0.080
4.96E-02,0.160
4.98E-02,0.080
5.00E-02,0.080
5.02E-02,0.120
5.04E-02,0.120
5.06E-02,0.080
5.08E-02,0.080
5.10E-02,0.080
5.12E-02,0.080
5.14E-02,0.080
5.16E-02,0.120
5.18E-02,0.080
5.20E-02,0.120
5.22E-02,0.120
5.24E-02,0.160
5.26E-02,0.120
5.28E-02,0.160
5.30E-02,0.080
5.32E-02,0.080
5.34E-02,0.120
5.36E-02,0.160
5.38E-02,0.160
5.40E-02,0.120
5.42E-02,0.120
5.44E-02,0.080
5.46E-02,0.160
5.48E-02,0.080
5.50E-02,0.080
5.52E-02,0.080
5.54E-02,0.080
5.56E-02,0.120
5.58E-02,0.160
5.60E-02,0.120
5.62E-02,0.080
5.64E-02,0.120
5.66E-02,0.080
5.68E-02,0.120
5.70E-02,0.080
5.72E-02,0.080
5.74E-02,0.120
5.76E-02,0.160
5.78E-02,0.120
5.80E-02,0.120
5.82E-02,0.160
5.84E-02,0.080
5.86E-02,0.120
5.88E-02,0.160
5.90E-02,0.080
5.92E-02,0.120
5.94E-02,0.160
5.96E-02,0.120
5.98E-02,0.080
6.00E-02,0.080
6.02E-02,0.120
6.04E-02,0.160
6.06E-02,0.120
6.08E-02,0.080
6.10E-02,0.160
6.12E-02,0.120
6.14E-02,0.120
6.16E-02,0.080
6.18E-02,0.080
6.20E-02,0.120
6.22E-02,0.160
6.24E-02,0.120
6.26E-02,0.160
6.28E-02,0.080
6.30E-02,0.080
6.32E-02,0.080
6.34E-02,0.120
6.36E-02,0.120
6.38E-02,0.160
6.40E-02,0.080
6.42E-02,0.080
6.44E-02,0.120
6.46E-02,0.160
6.48E-02,0.120
6.50E-02,0.120
6.52E-02,0.160
6.54E-02,0.080
6.56E-02,0.080
6.58E-02,0.120
6.60E-02,0.160
6.62E-02,0.120
6.64E-02,0.160
6.66E-02,0.120
6.68E-02,0.160
6.70E-02,0.120
6.72E-02,0.080
6.74E-02,0.080
6.76E-02,0.120
6.78E-02,0.080
6.80E-02,0.120
6.82E-02,0.080
6.84E-02,0.120
6.86E-02,0.120
6.88E-02,0.080
6.90E-02,0.160
6.92E-02,0.080
6.94E-02,0.120
6.96E-02,0.160
6.98E-02,0.120
7.00E-02,0.120
7.02E-02,0.120
7.04E-02,0.080
7.06E-02,0.160
7.08E-02,0.160
7.10E-02,0.120
7.12E-02,0.080
7.14E-02,0.120
7.16E-02,0.080
7.18E-02,0.080
7.20E-02,0.080
7.22E-02,0.080
7.24E-02,0.120
7.26E-02,0.160
7.28E-02,0.080
7.30E-02,0.120
7.32E-02,0.120
7.34E-02,0.160
7.36E-02,0.160
7.38E-02,0.080
7.40E-02,0.160
7.42E-02,0.080
7.44E-02,0.120
7.46E-02,0.120
7.48E-02,0.120
7.50E-02,0.120
7.52E-02,0.160
7.54E-02,0.040
7.56E-02,0.080
7.58E-02,0.160
7.60E-02,0.160
7.62E-02,0.080
7.64E-02,0.080
7.66E-02,0.120
7.68E-02,0.080
7.70E-02,0.080
7.72E-02,0.120
7.74E-02,0.120
7.76E-02,0.120
7.78E-02,0.160
7.80E-02,0.080
7.82E-02,0.080
7.84E-02,0.120
7.86E-02,0.120
7.88E-02,0.080
7.90E-02,0.120
7.92E-02,0.120
7.94E-02,0.160
7.96E-02,0.120
7.98E-02,0.120
8.00E-02,0.080
8.02E-02,0.120
8.04E-02,0.120
8.06E-02,0.080
8.08E-02,0.160
8.10E-02,0.080
8.12E-02,0.080
8.14E-02,0.120
8.16E-02,0.160
8.18E-02,0.120
8.20E-02,0.120
8.22E-02,0.120
8.24E-02,0.120
8.26E-02,0.080
8.28E-02,0.120
8.30E-02,0.120
8.32E-02,0.120
8.34E-02,0.120
8.36E-02,0.080
8.38E-02,0.080
8.40E-02,0.080
8.42E-02,0.080
8.44E-02,0.080
8.46E-02,0.080
8.48E-02,0.080
8.50E-02,0.120
8.52E-02,0.120
8.54E-02,0.080
8.56E-02,0.160
8.58E-02,0.160
8.60E-02,0.120
8.62E-02,0.080
8.64E-02,0.080
8.66E-02,0.160
8.68E-02,0.160
8.70E-02,0.080
8.72E-02,0.080
8.74E-02,0.160
8.76E-02,0.080
8.78E-02,0.120
8.80E-02,0.160
8.82E-02,0.160
8.84E-02,0.120
8.86E-02,0.120
8.88E-02,0.120
8.90E-02,0.080
8.92E-02,0.120
8.94E-02,0.120
8.96E-02,0.120
8.98E-02,0.080
9.00E-02,0.080
9.02E-02,0.120
9.04E-02,0.120
9.06E-02,0.120
9.08E-02,0.160
9.10E-02,0.160
9.12E-02,0.120
9.14E-02,0.120
9.16E-02,0.120
9.18E-02,0.080
9.20E-02,0.120
9.22E-02,0.080
9.24E-02,0.120
9.26E-02,0.120
9.28E-02,0.080
9.30E-02,0.160
9.32E-02,0.120
9.34E-02,0.160
9.36E-02,0.080
9.38E-02,0.080
9.40E-02,0.160
9.42E-02,0.080
9.44E-02,0.080
9.46E-02,0.160
9.48E-02,0.160
9.50E-02,0.080
9.52E-02,0.080
9.54E-02,0.080
9.56E-02,0.160
9.58E-02,0.120
9.60E-02,0.080
9.62E-02,0.160
9.64E-02,0.160
9.66E-02,0.120
9.68E-02,0.080
9.70E-02,0.120
9.72E-02,0.080
9.74E-02,0.080
9.76E-02,0.080
9.78E-02,0.080
9.80E-02,0.080
9.82E-02,0.080
9.84E-02,0.080
9.86E-02,0.080
9.88E-02,0.080
9.90E-02,0.080
9.92E-02,0.160
9.94E-02,0.160
9.96E-02,0.120
9.98E-02,0.080
1.00E-01,0.080
1.00E-01,0.160
1.00E-01,0.120
1.01E-01,0.160
1.01E-01,0.120
1.01E-01,0.120
1.01E-01,0.160
1.01E-01,0.080
1.02E-01,0.080
1.02E-01,0.120
1.02E-01,0.080
1.02E-01,0.120
1.02E-01,0.120
1.03E-01,0.080
1.03E-01,0.160
1.03E-01,0.120
1.03E-01,0.080
1.03E-01,0.160
1.04E-01,0.080
1.04E-01,0.080
1.04E-01,0.080
1.04E-01,0.120
1.04E-01,0.080
1.05E-01,0.120
1.05E-01,0.160
1.05E-01,0.120
1.05E-01,0.120
1.05E-01,0.040
1.06E-01,0.080
1.06E-01,4.840
1.06E-01,4.880
1.06E-01,4.840
1.06E-01,4.840
1.07E-01,4.880
1.07E-01,4.880
1.07E-01,4.880
1.07E-01,4.880
1.07E-01,4.800
1.08E-01,4.800
1.08E-01,4.760
1.08E-01,4.760
1.08E-01,4.800
1.08E-01,4.800
1.09E-01,4.720
1.09E-01,4.840
1.09E-01,4.720
1.09E-01,4.720
1.09E-01,4.720
1.10E-01,4.720
1.10E-01,4.720
1.10E-01,4.720
1.10E-01,4.760
1.10E-01,4.760
1.11E-01,4.760
1.11E-01,4.760
1.11E-01,4.760
1.11E-01,4.760
1.11E-01,4.720
1.12E-01,4.760
1.12E-01,4.720
1.12E-01,4.680
1.12E-01,4.720
1.12E-01,4.760
1.13E-01,4.720
1.13E-01,4.720
1.13E-01,4.720
1.13E-01,4.720
1.13E-01,4.720
1.14E-01,4.720
1.14E-01,4.680
1.14E-01,4.680
1.14E-01,4.680
1.14E-01,4.680
1.15E-01,4.720
1.15E-01,4.720
1.15E-01,4.720
1.15E-01,4.720
1.15E-01,4.680
1.16E-01,4.680
1.16E-01,4.720
1.16E-01,4.720
1.16E-01,4.680
1.16E-01,4.680
1.17E-01,4.680
1.17E-01,4.680
1.17E-01,4.680
1.17E-01,4.680
1.17E-01,4.680
1.18E-01,4.680
1.18E-01,4.720
1.18E-01,4.640
1.18E-01,4.720
1.18E-01,4.720
1.19E-01,4.680
1.19E-01,4.720
1.19E-01,4.680
1.19E-01,4.720
1.19E-01,4.680
1.20E-01,4.720
1.20E-01,4.720
1.20E-01,4.720
1.20E-01,4.680
1.20E-01,4.720
1.21E-01,4.760
1.21E-01,4.680
1.21E-01,4.720
1.21E-01,4.680
1.21E-01,4.720
1.22E-01,4.680
1.22E-01,4.680
1.22E-01,4.680
1.22E-01,4.680
1.22E-01,4.680
1.23E-01,4.680
1.23E-01,4.680
1.23E-01,4.680
1.23E-01,4.680
1.23E-01,4.720
1.24E-01,4.680
1.24E-01,4.720
1.24E-01,4.680
1.24E-01,4.720
1.24E-01,4.680
1.25E-01,4.680
1.25E-01,4.680
1.25E-01,4.680
1.25E-01,4.720
1.25E-01,4.680
1.26E-01,4.720
1.26E-01,4.720
1.26E-01,4.720
1.26E-01,4.720
1.26E-01,4.720
1.27E-01,4.720
1.27E-01,4.720
1.27E-01,4.680
1.27E-01,4.680
1.27E-01,4.720
1.28E-01,4.720
1.28E-01,4.680
1.28E-01,4.720
1.28E-01,4.680
1.28E-01,4.720
1.29E-01,4.720
1.29E-01,4.680
1.29E-01,4.680
1.29E-01,4.720
1.29E-01,4.720
1.30E-01,4.720
1.30E-01,4.680
1.30E-01,4.680
1.30E-01,4.720
1.30E-01,4.720
1.31E-01,4.720
1.31E-01,4.720
1.31E-01,4.720
1.31E-01,4.720
1.31E-01,4.680
1.32E-01,4.680
1.32E-01,4.720
1.32E-01,4.720
1.32E-01,4.720
1.32E-01,4.720
1.33E-01,4.680
1.33E-01,4.720
1.33E-01,4.760
1.33E-01,4.720
1.33E-01,4.680
1.34E-01,4.720
1.34E-01,4.720
1.34E-01,4.720
1.34E-01,4.720
1.34E-01,4.760
1.35E-01,4.680
1.35E-01,4.680
1.35E-01,4.720
1.35E-01,4.680
1.35E-01,4.720
1.36E-01,4.680
1.36E-01,4.680
1.36E-01,4.680
1.36E-01,4.680
1.36E-01,4.680
1.37E-01,4.680
1.37E-01,4.720
1.37E-01,4.680
1.37E-01,4.720
1.37E-01,4.680
1.38E-01,4.680
1.38E-01,4.680
1.38E-01,4.720
1.38E-01,4.720
1.38E-01,4.720
1.39E-01,4.680
1.39E-01,4.720
1.39E-01,4.720
1.39E-01,4.720
1.39E-01,4.720
1.40E-01,4.680
1.40E-01,4.720
1.40E-01,4.680
1.40E-01,4.720
1.40E-01,4.720
1.41E-01,4.680
1.41E-01,4.680
1.41E-01,4.680
1.41E-01,4.680
1.41E-01,4.680
1.42E-01,4.680
1.42E-01,4.680
1.42E-01,4.720
1.42E-01,4.720
1.42E-01,4.720
1.43E-01,4.720
1.43E-01,4.680
1.43E-01,4.720
1.43E-01,4.720
1.43E-01,4.680
1.44E-01,4.720
1.44E-01,4.680
1.44E-01,4.720
1.44E-01,4.720
1.44E-01,4.640
1.45E-01,4.680
1.45E-01,4.680
1.45E-01,4.680
1.45E-01,4.720
1.45E-01,4.680
1.46E-01,4.680
1.46E-01,4.720
1.46E-01,4.680
1.46E-01,4.720
1.46E-01,4.720
1.47E-01,4.680
1.47E-01,4.720
1.47E-01,4.720
1.47E-01,4.720
1.47E-01,4.720
1.48E-01,4.720
1.48E-01,4.720
1.48E-01,4.720
1.48E-01,4.720
1.48E-01,4.680
1.49E-01,4.680
1.49E-01,4.720
1.49E-01,4.760
1.49E-01,4.720
1.49E-01,4.680
1.50E-01,4.680
1.50E-01,4.720
1.50E-01,4.680
1.50E-01,4.680
1.50E-01,4.720
1.51E-01,4.720
1.51E-01,4.680
1.51E-01,4.720
1.51E-01,4.680
1.51E-01,4.680
1.52E-01,4.680
1.52E-01,4.680
1.52E-01,4.720
1.52E-01,4.720
1.52E-01,4.720
1.53E-01,4.720
1.53E-01,4.720
1.53E-01,4.680
1.53E-01,4.680
1.53E-01,4.680
1.54E-01,4.680
1.54E-01,4.680
1.54E-01,4.680
1.54E-01,4.680
1.54E-01,4.680
1.55E-01,4.720
1.55E-01,4.720
1.55E-01,4.720
1.55E-01,4.720
1.55E-01,4.720
1.56E-01,4.680
1.56E-01,4.720
1.56E-01,4.720
1.56E-01,4.680
1.56E-01,4.680
1.57E-01,4.680
1.57E-01,4.720
1.57E-01,4.720
1.57E-01,4.680
1.57E-01,4.720
1.58E-01,4.720
1.58E-01,4.720
1.58E-01,4.720
1.58E-01,4.680
1.58E-01,4.680
1.59E-01,4.720
1.59E-01,4.720
1.59E-01,4.720
1.59E-01,4.680
1.59E-01,4.720
1.60E-01,4.720
1.60E-01,4.720
1.60E-01,4.680
1.60E-01,4.680
1.60E-01,4.720
1.61E-01,4.680
1.61E-01,4.720
1.61E-01,4.720
1.61E-01,4.720
1.61E-01,4.720
1.62E-01,4.680
1.62E-01,4.680
1.62E-01,4.680
1.62E-01,4.720
1.62E-01,4.720
1.63E-01,4.680
1.63E-01,4.680
1.63E-01,4.680
1.63E-01,4.680
1.63E-01,4.680
1.64E-01,4.680
1.64E-01,4.680
1.64E-01,4.720
1.64E-01,4.680
1.64E-01,4.760
1.65E-01,4.680
1.65E-01,4.680
1.65E-01,4.680
1.65E-01,4.720
1.65E-01,4.680
1.66E-01,4.720
1.66E-01,4.720
1.66E-01,4.720
1.66E-01,4.720
1.66E-01,4.720
1.67E-01,4.720
1.67E-01,4.680
1.67E-01,4.680
1.67E-01,4.720
1.67E-01,4.680
1.68E-01,4.680
1.68E-01,4.680
1.68E-01,4.720
1.68E-01,4.680
1.68E-01,4.720
1.69E-01,4.720
1.69E-01,4.720
1.69E-01,4.720
1.69E-01,4.680
1.69E-01,4.720
1.70E-01,4.680
1.70E-01,4.720
1.70E-01,4.680
1.70E-01,4.680
1.70E-01,4.680
1.71E-01,4.720
1.71E-01,4.680
1.71E-01,4.720
1.71E-01,4.680
1.71E-01,4.680
1.72E-01,4.720
1.72E-01,4.680
1.72E-01,4.680
1.72E-01,4.720
1.72E-01,4.680
1.73E-01,4.720
1.73E-01,4.640
1.73E-01,4.680
1.73E-01,4.720
1.73E-01,4.680
1.74E-01,4.680
1.74E-01,4.760
1.74E-01,4.680
1.74E-01,4.680
1.74E-01,4.720
1.75E-01,4.720
1.75E-01,4.680
1.75E-01,4.680
1.75E-01,4.720
1.75E-01,4.720
1.76E-01,4.720
1.76E-01,4.720
1.76E-01,4.720
1.76E-01,4.720
1.76E-01,4.720
1.77E-01,4.720
1.77E-01,4.680
1.77E-01,4.720
1.77E-01,4.680
1.77E-01,4.720
1.78E-01,4.680
1.78E-01,4.720
1.78E-01,4.680
1.78E-01,4.720
1.78E-01,4.680
1.79E-01,4.680
1.79E-01,4.720
1.79E-01,4.720
1.79E-01,4.680
1.79E-01,4.680
1.80E-01,4.720
1.80E-01,4.680
1.80E-01,4.720
1.80E-01,4.720
1.80E-01,4.680
1.81E-01,4.680
1.81E-01,4.680
1.81E-01,4.680
1.81E-01,4.680
1.81E-01,4.720
1.82E-01,4.720
1.82E-01,4.680
1.82E-01,4.680
1.82E-01,4.680
1.82E-01,4.680
1.83E-01,4.680
1.83E-01,4.720
1.83E-01,4.720
1.83E-01,4.680
1.83E-01,4.680
1.84E-01,4.720
1.84E-01,4.680
1.84E-01,4.680
1.84E-01,4.680
1.84E-01,4.720
1.85E-01,4.720
1.85E-01,4.720
1.85E-01,4.720
1.85E-01,4.720
1.85E-01,4.680
1.86E-01,4.720
1.86E-01,4.680
1.86E-01,4.680
1.86E-01,4.760
1.86E-01,4.720
1.87E-01,4.680
1.87E-01,4.680
1.87E-01,4.680
1.87E-01,4.720
1.87E-01,4.680
1.88E-01,4.720
1.88E-01,4.720
1.88E-01,4.720
1.88E-01,4.720
1.88E-01,4.680
1.89E-01,4.680
1.89E-01,4.720
1.89E-01,4.720
1.89E-01,4.720
1.89E-01,4.720
1.90E-01,4.680
1.90E-01,4.720
1.90E-01,4.680
1.90E-01,4.720
1.90E-01,4.680
1.91E-01,4.680
1.91E-01,4.680
1.91E-01,4.720
1.91E-01,4.680
1.91E-01,4.680
1.92E-01,4.720
1.92E-01,4.680
1.92E-01,4.760
1.92E-01,4.680
1.92E-01,4.680
1.93E-01,4.720
1.93E-01,4.680
1.93E-01,4.720
1.93E-01,4.680
1.93E-01,4.680
1.94E-01,4.720
1.94E-01,4.720
1.94E-01,4.720
1.94E-01,4.680
1.94E-01,4.680
1.95E-01,4.680
1.95E-01,4.680
1.95E-01,4.720
1.95E-01,4.680
1.95E-01,4.680
1.96E-01,4.760
1.96E-01,4.720
1.96E-01,4.680
1.96E-01,4.720
1.96E-01,4.680
1.97E-01,4.720
1.97E-01,4.680
1.97E-01,4.720
1.97E-01,4.720
1.97E-01,4.720
1.98E-01,4.680
1.98E-01,4.680
1.98E-01,4.680
1.98E-01,4.680
1.98E-01,4.720
1.99E-01,4.720
1.99E-01,4.720
1.99E-01,4.720
1.99E-01,4.680
1.99E-01,4.680
2.00E-01,4.720
2.00E-01,4.720
2.00E-01,4.720
2.00E-01,4.680
2.00E-01,4.720
2.01E-01,4.680
2.01E-01,4.680
2.01E-01,4.720
2.01E-01,4.720
2.01E-01,4.680
2.02E-01,4.720
2.02E-01,4.720
2.02E-01,4.720
2.02E-01,4.720
2.02E-01,4.720
2.03E-01,4.680
2.03E-01,4.720
2.03E-01,4.720
2.03E-01,4.680
2.03E-01,4.640
2.04E-01,4.720
2.04E-01,4.720
2.04E-01,4.680
2.04E-01,4.720
2.04E-01,4.720
2.05E-01,4.680
2.05E-01,4.680
2.05E-01,4.720
2.05E-01,4.680
2.05E-01,4.680
2.06E-01,4.720
2.06E-01,-0.080
2.06E-01,-0.040
2.06E-01,-0.040
2.06E-01,-0.040
2.07E-01,-0.040
2.07E-01,-0.040
2.07E-01,0.000
2.07E-01,-0.040
2.07E-01,-0.040
2.08E-01,0.040
2.08E-01,0.040
2.08E-01,0.000
2.08E-01,0.000
2.08E-01,0.040
2.09E-01,0.080
2.09E-01,0.000
2.09E-01,0.080
2.09E-01,0.080
2.09E-01,0.080
2.10E-01,0.000
2.10E-01,0.080
2.10E-01,0.120
2.10E-01,0.080
2.10E-01,0.080
2.11E-01,0.080
2.11E-01,0.120
2.11E-01,0.080
2.11E-01,0.120
2.11E-01,0.080
2.12E-01,0.080
2.12E-01,0.120
2.12E-01,0.120
2.12E-01,0.120
2.12E-01,0.040
2.13E-01,0.120
2.13E-01,0.080
2.13E-01,0.080
2.13E-01,0.080
2.13E-01,0.120
2.14E-01,0.160
2.14E-01,0.120
2.14E-01,0.120
2.14E-01,0.120
2.14E-01,0.120
2.15E-01,0.120
2.15E-01,0.120
2.15E-01,0.160
2.15E-01,0.160
2.15E-01,0.160
2.16E-01,0.120
2.16E-01,0.120
2.16E-01,0.120
2.16E-01,0.120
2.16E-01,0.080
2.17E-01,0.160
2.17E-01,0.080
2.17E-01,0.120
2.17E-01,0.120
2.17E-01,0.160
2.18E-01,0.080
2.18E-01,0.120
2.18E-01,0.160
2.18E-01,0.080
2.18E-01,0.120
2.19E-01,0.120
2.19E-01,0.160
2.19E-01,0.120
2.19E-01,0.120
2.19E-01,0.160
2.20E-01,0.080
2.20E-01,0.120
2.20E-01,0.120
2.20E-01,0.120
2.20E-01,0.120
2.21E-01,0.080
2.21E-01,0.160
2.21E-01,0.080
2.21E-01,0.080
2.21E-01,0.160
2.22E-01,0.120
2.22E-01,0.080
2.22E-01,0.080
2.22E-01,0.080
2.22E-01,0.160
2.23E-01,0.120
2.23E-01,0.080
2.23E-01,0.080
2.23E-01,0.120
2.23E-01,0.080
2.24E-01,0.080
2.24E-01,0.120
2.24E-01,0.080
2.24E-01,0.120
2.24E-01,0.120
2.25E-01,0.120
2.25E-01,0.120
2.25E-01,0.080
2.25E-01,0.160
2.25E-01,0.160
2.26E-01,0.080
2.26E-01,0.080
2.26E-01,0.160
2.26E-01,0.080
2.26E-01,0.120
2.27E-01,0.120
2.27E-01,0.160
2.27E-01,0.120
2.27E-01,0.120
2.27E-01,0.080
2.28E-01,0.120
2.28E-01,0.080
2.28E-01,0.080
2.28E-01,0.120
2.28E-01,0.120
2.29E-01,0.080
2.29E-01,0.080
2.29E-01,0.120
2.29E-01,0.120
2.29E-01,0.120
2.30E-01,0.080
2.30E-01,0.160
2.30E-01,0.080
2.30E-01,0.120
2.30E-01,0.120
2.31E-01,0.160
2.31E-01,0.120
2.31E-01,0.080
2.31E-01,0.120
2.31E-01,0.080
2.32E-01,0.120
2.32E-01,0.080
2.32E-01,0.160
2.32E-01,0.080
2.32E-01,0.080
2.33E-01,0.160
2.33E-01,0.080
2.33E-01,0.080
2.33E-01,0.120
2.33E-01,0.160
2.34E-01,0.080
2.34E-01,0.120
2.34E-01,0.080
2.34E-01,0.120
2.34E-01,0.120
2.35E-01,0.080
2.35E-01,0.120
2.35E-01,0.080
2.35E-01,0.120
2.35E-01,0.080
2.36E-01,0.080
2.36E-01,0.080
2.36E-01,0.160
2.36E-01,0.080
2.36E-01,0.120
2.37E-01,0.120
2.37E-01,0.120
2.37E-01,0.160
2.37E-01,0.080
2.37E-01,0.080
2.38E-01,0.160
2.38E-01,0.120
2.38E-01,0.120
2.38E-01,0.080
2.38E-01,0.120
2.39E-01,0.160
2.39E-01,0.080
2.39E-01,0.080
2.39E-01,0.120
2.39E-01,0.080
2.40E-01,0.160
2.40E-01,0.120
2.40E-01,0.080
2.40E-01,0.120
2.40E-01,0.080
2.41E-01,0.160
2.41E-01,0.080
2.41E-01,0.080
2.41E-01,0.080
2.41E-01,0.120
2.42E-01,0.080
2.42E-01,0.160
2.42E-01,0.160
2.42E-01,0.120
2.42E-01,0.120
2.43E-01,0.120
2.43E-01,0.160
2.43E-01,0.120
2.43E-01,0.160
2.43E-01,0.120
2.44E-01,0.080
2.44E-01,0.120
2.44E-01,0.160
2.44E-01,0.120
2.44E-01,0.160
2.45E-01,0.080
2.45E-01,0.080
2.45E-01,0.160
2.45E-01,0.080
2.45E-01,0.120
2.46E-01,0.120
2.46E-01,0.160
2.46E-01,0.080
2.46E-01,0.080
2.46E-01,0.120
2.47E-01,0.120
2.47E-01,0.120
2.47E-01,0.080
2.47E-01,0.120
2.47E-01,0.080
2.48E-01,0.120
2.48E-01,0.080
2.48E-01,0.160
2.48E-01,0.120
2.48E-01,0.120
2.49E-01,0.080
2.49E-01,0.120
2.49E-01,0.120
2.49E-01,0.080
2.49E-01,0.160
2.50E-01,0.120
2.50E-01,0.080
2.50E-01,0.120
2.50E-01,0.160
2.50E-01,0.160
2.51E-01,0.120
2.51E-01,0.120
2.51E-01,0.080
2.51E-01,0.160
2.51E-01,0.160
2.52E-01,0.080
2.52E-01,0.120
2.52E-01,0.120
2.52E-01,0.120
2.52E-01,0.080
2.53E-01,0.120
2.53E-01,0.080
2.53E-01,0.120
2.53E-01,0.120
2.53E-01,0.080
2.54E-01,0.120
2.54E-01,0.120
2.54E-01,0.080
2.54E-01,0.120
2.54E-01,0.080
2.55E-01,0.160
2.55E-01,0.120
2.55E-01,0.160
2.55E-01,0.080
2.55E-01,0.120
2.56E-01,0.080
2.56E-01,0.120
2.56E-01,0.120
2.56E-01,0.120
2.56E-01,0.120
2.57E-01,0.080
2.57E-01,0.160
2.57E-01,0.120
2.57E-01,0.080
2.57E-01,0.080
2.58E-01,0.120
2.58E-01,0.080
2.58E-01,0.080
2.58E-01,0.120
2.58E-01,0.080
2.59E-01,0.120
2.59E-01,0.080
2.59E-01,0.080
2.59E-01,0.120
2.59E-01,0.080
2.60E-01,0.120
2.60E-01,0.080
2.60E-01,0.120
2.60E-01,0.080
2.60E-01,0.160
2.61E-01,0.120
2.61E-01,0.120
2.61E-01,0.160
2.61E-01,0.080
2.61E-01,0.120
2.62E-01,0.120
2.62E-01,0.120
2.62E-01,0.120
2.62E-01,0.120
2.62E-01,0.120
2.63E-01,0.080
2.63E-01,0.120
2.63E-01,0.080
2.63E-01,0.120
2.63E-01,0.120
2.64E-01,0.080
2.64E-01,0.120
2.64E-01,0.080
2.64E-01,0.080
2.64E-01,0.080
2.65E-01,0.080
