test_data/WaveData417_flipflop_2ms_1v_4ms.csv

#flipflop between high and low with a delay of 2ms between changes
#timebase=4000000000(ps)
,#voltbase=1000000(mv/100)
#size=4064
2.00E-05,4.760
4.00E-05,4.760
6.00E-05,4.760
8.00E-05,4.760
1.00E-04,4.720
1.20E-04,4.720
1.40E-04,4.720
1.60E-04,4.720
1.80E-04,4.720
2.00E-04,4.760
2.20E-04,4.720
2.40E-04,4.800
2.60E-04,4.760
2.80E-04,4.800
3.00E-04,4.760
3.20E-04,4.760
3.40E-04,4.760
3.60E-04,-0.040
3.80E-04,0.000
4.00E-04,0.000
4.20E-04,0.000
4.40E-04,0.040
4.60E-04,0.000
4.80E-04,0.000
5.00E-04,0.000
5.20E-04,0.000
5.40E-04,0.040
5.60E-04,0.040
5.80E-04,0.000
6.00E-04,0.000
6.20E-04,0.000
6.40E-04,0.000
6.60E-04,0.000
6.80E-04,0.000
7.00E-04,0.040
7.20E-04,0.040
7.40E-04,0.000
7.60E-04,0.040
7.80E-04,0.080
8.00E-04,0.000
8.20E-04,0.000
8.40E-04,0.000
8.60E-04,0.000
8.80E-04,0.000
9.00E-04,0.000
9.20E-04,0.000
9.40E-04,0.000
9.60E-04,0.000
9.80E-04,0.000
1.00E-03,0.000
1.02E-03,0.000
1.04E-03,0.000
1.06E-03,0.040
1.08E-03,0.000
1.10E-03,0.000
1.12E-03,0.040
1.14E-03,0.040
1.16E-03,0.000
1.18E-03,0.000
1.20E-03,0.040
1.22E-03,0.040
1.24E-03,0.040
1.26E-03,0.000
1.28E-03,0.000
1.30E-03,0.000
1.32E-03,0.040
1.34E-03,0.000
1.36E-03,0.040
1.38E-03,0.000
1.40E-03,0.000
1.42E-03,0.040
1.44E-03,0.040
1.46E-03,0.000
1.48E-03,0.000
1.50E-03,0.000
1.52E-03,0.040
1.54E-03,0.000
1.56E-03,0.040
1.58E-03,0.000
1.60E-03,0.040
1.62E-03,0.000
1.64E-03,0.040
1.66E-03,0.040
1.68E-03,0.080
1.70E-03,0.000
1.72E-03,0.000
1.74E-03,0.040
1.76E-03,0.040
1.78E-03,0.040
1.80E-03,0.000
1.82E-03,0.000
1.84E-03,0.000
1.86E-03,0.040
1.88E-03,0.040
1.90E-03,0.000
1.92E-03,0.000
1.94E-03,0.040
1.96E-03,0.000
1.98E-03,0.000
2.00E-03,0.040
2.02E-03,0.080
2.04E-03,0.040
2.06E-03,0.000
2.08E-03,0.080
2.10E-03,0.040
2.12E-03,0.000
2.14E-03,0.040
2.16E-03,0.040
2.18E-03,0.000
2.20E-03,0.040
2.22E-03,0.000
2.24E-03,0.000
2.26E-03,0.000
2.28E-03,0.040
2.30E-03,0.040
2.32E-03,0.000
2.34E-03,0.080
2.36E-03,0.040
2.38E-03,4.760
2.40E-03,4.720
2.42E-03,4.760
2.44E-03,4.760
2.46E-03,4.800
2.48E-03,4.800
2.50E-03,4.800
2.52E-03,4.800
2.54E-03,4.760
2.56E-03,4.800
2.58E-03,4.800
2.60E-03,4.800
2.62E-03,4.800
2.64E-03,4.840
2.66E-03,4.760
2.68E-03,4.800
2.70E-03,4.800
2.72E-03,4.880
2.74E-03,4.800
2.76E-03,4.800
2.78E-03,4.800
2.80E-03,4.800
2.82E-03,4.800
2.84E-03,4.800
2.86E-03,4.800
2.88E-03,4.800
2.90E-03,4.800
2.92E-03,4.800
2.94E-03,4.800
2.96E-03,4.760
2.98E-03,4.800
3.00E-03,4.800
3.02E-03,4.800
3.04E-03,4.800
3.06E-03,4.760
3.08E-03,4.760
3.10E-03,4.760
3.12E-03,4.800
3.14E-03,4.760
3.16E-03,4.760
3.18E-03,4.760
3.20E-03,4.760
3.22E-03,4.800
3.24E-03,4.800
3.26E-03,4.800
3.28E-03,4.800
3.30E-03,4.840
3.32E-03,4.720
3.34E-03,4.800
3.36E-03,4.800
3.38E-03,4.800
3.40E-03,4.800
3.42E-03,4.800
3.44E-03,4.800
3.46E-03,4.800
3.48E-03,4.800
3.50E-03,4.800
3.52E-03,4.760
3.54E-03,4.800
3.56E-03,4.800
3.58E-03,4.760
3.60E-03,4.760
3.62E-03,4.760
3.64E-03,4.800
3.66E-03,4.720
3.68E-03,4.720
3.70E-03,4.720
3.72E-03,4.800
3.74E-03,4.760
3.76E-03,4.720
3.78E-03,4.760
3.80E-03,4.760
3.82E-03,4.760
3.84E-03,4.760
3.86E-03,4.720
3.88E-03,4.720
3.90E-03,4.720
3.92E-03,4.760
3.94E-03,4.800
3.96E-03,4.840
3.98E-03,4.720
4.00E-03,4.840
4.02E-03,4.840
4.04E-03,4.720
4.06E-03,4.720
4.08E-03,4.800
4.10E-03,4.760
4.12E-03,4.720
4.14E-03,4.720
4.16E-03,4.800
4.18E-03,4.760
4.20E-03,4.720
4.22E-03,4.760
4.24E-03,4.800
4.26E-03,4.800
4.28E-03,4.720
4.30E-03,4.760
4.32E-03,4.800
4.34E-03,4.720
4.36E-03,4.760
4.38E-03,0.000
4.40E-03,0.000
4.42E-03,0.000
4.44E-03,0.040
4.46E-03,0.040
4.48E-03,-0.040
4.50E-03,0.000
4.52E-03,0.000
4.54E-03,0.000
4.56E-03,0.000
4.58E-03,0.000
4.60E-03,0.040
4.62E-03,0.040
4.64E-03,0.040
4.66E-03,0.040
4.68E-03,0.000
4.70E-03,0.040
4.72E-03,0.000
4.74E-03,0.000
4.76E-03,0.040
4.78E-03,-0.080
4.80E-03,0.040
4.82E-03,-0.040
4.84E-03,0.040
4.86E-03,0.000
4.88E-03,0.000
4.90E-03,0.040
4.92E-03,0.040
4.94E-03,0.000
4.96E-03,0.040
4.98E-03,0.040
5.00E-03,0.000
5.02E-03,-0.040
5.04E-03,0.000
5.06E-03,0.000
5.08E-03,0.000
5.10E-03,0.040
5.12E-03,0.040
5.14E-03,0.080
5.16E-03,0.040
5.18E-03,0.040
5.20E-03,0.000
5.22E-03,0.000
5.24E-03,0.000
5.26E-03,0.040
5.28E-03,0.000
5.30E-03,0.000
5.32E-03,0.040
5.34E-03,0.000
5.36E-03,0.000
5.38E-03,0.000
5.40E-03,0.000
5.42E-03,0.000
5.44E-03,0.000
5.46E-03,0.000
5.48E-03,0.000
5.50E-03,0.040
5.52E-03,0.040
5.54E-03,0.000
5.56E-03,0.000
5.58E-03,0.000
5.60E-03,0.000
5.62E-03,0.000
5.64E-03,0.000
5.66E-03,0.040
5.68E-03,0.000
5.70E-03,0.000
5.72E-03,0.000
5.74E-03,0.000
5.76E-03,0.000
5.78E-03,0.040
5.80E-03,0.000
5.82E-03,0.000
5.84E-03,0.000
5.86E-03,0.040
5.88E-03,0.040
5.90E-03,0.000
5.92E-03,0.040
5.94E-03,0.040
5.96E-03,0.040
5.98E-03,0.080
6.00E-03,0.000
6.02E-03,0.040
6.04E-03,0.080
6.06E-03,0.040
6.08E-03,0.040
6.10E-03,0.000
6.12E-03,0.000
6.14E-03,0.040
6.16E-03,0.080
6.18E-03,0.040
6.20E-03,0.000
6.22E-03,0.040
6.24E-03,0.040
6.26E-03,0.040
6.28E-03,0.000
6.30E-03,0.000
6.32E-03,0.040
6.34E-03,0.040
6.36E-03,0.000
6.38E-03,0.000
6.40E-03,4.800
6.42E-03,4.800
6.44E-03,4.760
6.46E-03,4.800
6.48E-03,4.800
6.50E-03,4.840
6.52E-03,4.880
6.54E-03,4.800
6.56E-03,4.800
6.58E-03,4.800
6.60E-03,4.800
6.62E-03,4.800
6.64E-03,4.800
6.66E-03,4.800
6.68E-03,4.800
6.70E-03,4.800
6.72E-03,4.760
6.74E-03,4.800
6.76E-03,4.800
6.78E-03,4.760
6.80E-03,4.760
6.82E-03,4.800
6.84E-03,4.800
6.86E-03,4.800
6.88E-03,4.800
6.90E-03,4.800
6.92E-03,4.800
6.94E-03,4.800
6.96E-03,4.800
6.98E-03,4.800
7.00E-03,4.800
7.02E-03,4.800
7.04E-03,4.800
7.06E-03,4.800
7.08E-03,4.800
7.10E-03,4.800
7.12E-03,4.800
7.14E-03,4.800
7.16E-03,4.800
7.18E-03,4.760
7.20E-03,4.800
7.22E-03,4.800
7.24E-03,4.800
7.26E-03,4.800
7.28E-03,4.800
7.30E-03,4.800
7.32E-03,4.760
7.34E-03,4.800
7.36E-03,4.800
7.38E-03,4.800
7.40E-03,4.800
7.42E-03,4.800
7.44E-03,4.800
7.46E-03,4.760
7.48E-03,4.760
7.50E-03,4.760
7.52E-03,4.720
7.54E-03,4.720
7.56E-03,4.720
7.58E-03,4.720
7.60E-03,4.720
7.62E-03,4.760
7.64E-03,4.800
7.66E-03,4.800
7.68E-03,4.760
7.70E-03,4.720
7.72E-03,4.800
7.74E-03,4.760
7.76E-03,4.800
7.78E-03,4.760
7.80E-03,4.800
7.82E-03,4.760
7.84E-03,4.760
7.86E-03,4.800
7.88E-03,4.720
7.90E-03,4.800
7.92E-03,4.800
7.94E-03,4.800
7.96E-03,4.760
7.98E-03,4.760
8.00E-03,4.720
8.02E-03,4.800
8.04E-03,4.720
8.06E-03,4.720
8.08E-03,4.760
8.10E-03,4.760
8.12E-03,4.720
8.14E-03,4.760
8.16E-03,4.760
8.18E-03,4.800
8.20E-03,4.760
8.22E-03,4.720
8.24E-03,4.720
8.26E-03,4.720
8.28E-03,4.720
8.30E-03,4.720
8.32E-03,4.760
8.34E-03,4.800
8.36E-03,4.840
8.38E-03,4.720
8.40E-03,0.040
8.42E-03,0.040
8.44E-03,0.040
8.46E-03,-0.040
8.48E-03,0.000
8.50E-03,-0.040
8.52E-03,-0.040
8.54E-03,0.000
8.56E-03,0.000
8.58E-03,0.000
8.60E-03,-0.040
8.62E-03,0.000
8.64E-03,0.000
8.66E-03,0.000
8.68E-03,0.000
8.70E-03,0.040
8.72E-03,0.040
8.74E-03,0.040
8.76E-03,0.040
8.78E-03,0.040
8.80E-03,0.000
8.82E-03,0.000
8.84E-03,0.040
8.86E-03,0.000
8.88E-03,0.000
8.90E-03,0.080
8.92E-03,0.040
8.94E-03,0.000
8.96E-03,0.000
8.98E-03,0.000
9.00E-03,0.000
9.02E-03,0.000
9.04E-03,0.000
9.06E-03,0.000
9.08E-03,0.000
9.10E-03,0.040
9.12E-03,0.000
9.14E-03,0.040
9.16E-03,0.040
9.18E-03,0.000
9.20E-03,0.000
9.22E-03,0.040
9.24E-03,0.040
9.26E-03,0.040
9.28E-03,0.000
9.30E-03,0.000
9.32E-03,0.000
9.34E-03,0.000
9.36E-03,0.000
9.38E-03,0.000
9.40E-03,0.000
9.42E-03,0.040
9.44E-03,0.000
9.46E-03,0.000
9.48E-03,0.000
9.50E-03,0.000
9.52E-03,0.000
9.54E-03,0.040
9.56E-03,0.040
9.58E-03,0.040
9.60E-03,0.040
9.62E-03,0.000
9.64E-03,0.000
9.66E-03,0.040
9.68E-03,0.000
9.70E-03,0.000
9.72E-03,0.000
9.74E-03,0.000
9.76E-03,0.040
9.78E-03,0.040
9.80E-03,0.040
9.82E-03,0.040
9.84E-03,0.040
9.86E-03,0.000
9.88E-03,0.000
9.90E-03,0.000
9.92E-03,0.000
9.94E-03,0.000
9.96E-03,0.040
9.98E-03,0.040
1.00E-02,0.000
1.00E-02,0.000
1.00E-02,0.000
1.01E-02,0.000
1.01E-02,0.000
1.01E-02,0.000
1.01E-02,0.040
1.01E-02,0.000
1.02E-02,0.000
1.02E-02,0.080
1.02E-02,0.080
1.02E-02,0.000
1.02E-02,0.040
1.03E-02,0.000
1.03E-02,0.040
1.03E-02,0.040
1.03E-02,0.040
1.03E-02,0.080
1.04E-02,0.080
1.04E-02,0.000
1.04E-02,4.800
1.04E-02,4.760
1.04E-02,4.760
1.05E-02,4.800
1.05E-02,4.800
1.05E-02,4.800
1.05E-02,4.800
1.05E-02,4.840
1.06E-02,4.840
1.06E-02,4.800
1.06E-02,4.800
1.06E-02,4.760
1.06E-02,4.760
1.07E-02,4.760
1.07E-02,4.760
1.07E-02,4.760
1.07E-02,4.760
1.07E-02,4.760
1.08E-02,4.760
1.08E-02,4.760
1.08E-02,4.760
1.08E-02,4.800
1.08E-02,4.800
1.09E-02,4.800
1.09E-02,4.800
1.09E-02,4.800
1.09E-02,4.800
1.09E-02,4.760
1.10E-02,4.760
1.10E-02,4.760
1.10E-02,4.760
1.10E-02,4.760
1.10E-02,4.800
1.11E-02,4.800
1.11E-02,4.800
1.11E-02,4.760
1.11E-02,4.760
1.11E-02,4.760
1.12E-02,4.840
1.12E-02,4.720
1.12E-02,4.840
1.12E-02,4.800
1.12E-02,4.800
1.13E-02,4.800
1.13E-02,4.800
1.13E-02,4.800
1.13E-02,4.800
1.13E-02,4.840
1.14E-02,4.800
1.14E-02,4.800
1.14E-02,4.800
1.14E-02,4.800
1.14E-02,4.840
1.15E-02,4.840
1.15E-02,4.840
1.15E-02,4.840
1.15E-02,4.720
1.15E-02,4.720
1.16E-02,4.800
1.16E-02,4.800
1.16E-02,4.800
1.16E-02,4.760
1.16E-02,4.800
1.17E-02,4.760
1.17E-02,4.760
1.17E-02,4.720
1.17E-02,4.720
1.17E-02,4.760
1.18E-02,4.760
1.18E-02,4.760
1.18E-02,4.720
1.18E-02,4.720
1.18E-02,4.840
1.19E-02,4.720
1.19E-02,4.720
1.19E-02,4.760
1.19E-02,4.760
1.19E-02,4.760
1.20E-02,4.760
1.20E-02,4.760
1.20E-02,4.760
1.20E-02,4.800
1.20E-02,4.760
1.21E-02,4.720
1.21E-02,4.800
1.21E-02,4.760
1.21E-02,4.760
1.21E-02,4.800
1.22E-02,4.760
1.22E-02,4.800
1.22E-02,4.800
1.22E-02,4.720
1.22E-02,4.760
1.23E-02,4.800
1.23E-02,4.800
1.23E-02,4.800
1.23E-02,4.760
1.23E-02,4.800
1.24E-02,4.800
1.24E-02,4.760
1.24E-02,4.800
1.24E-02,0.000
1.24E-02,0.000
1.25E-02,0.000
1.25E-02,-0.040
1.25E-02,0.040
1.25E-02,0.000
1.25E-02,0.040
1.26E-02,0.000
1.26E-02,0.000
1.26E-02,0.040
1.26E-02,0.000
1.26E-02,0.000
1.27E-02,0.000
1.27E-02,0.040
1.27E-02,0.040
1.27E-02,0.000
1.27E-02,0.000
1.28E-02,0.000
1.28E-02,0.000
1.28E-02,0.040
1.28E-02,0.040
1.28E-02,0.040
1.29E-02,0.040
1.29E-02,-0.040
1.29E-02,0.000
1.29E-02,0.040
1.29E-02,0.040
1.30E-02,0.000
1.30E-02,0.040
1.30E-02,0.040
1.30E-02,0.040
1.30E-02,0.040
1.31E-02,0.000
1.31E-02,0.000
1.31E-02,0.000
1.31E-02,0.000
1.31E-02,0.040
1.32E-02,0.000
1.32E-02,0.000
1.32E-02,-0.040
1.32E-02,0.000
1.32E-02,0.040
1.33E-02,0.040
1.33E-02,0.000
1.33E-02,0.000
1.33E-02,0.000
1.33E-02,0.040
1.34E-02,0.000
1.34E-02,0.000
1.34E-02,0.000
1.34E-02,0.040
1.34E-02,0.040
1.35E-02,0.000
1.35E-02,0.040
1.35E-02,0.040
1.35E-02,0.000
1.35E-02,0.000
1.36E-02,0.000
1.36E-02,0.040
1.36E-02,0.040
1.36E-02,0.040
1.36E-02,0.040
1.37E-02,0.040
1.37E-02,0.040
1.37E-02,0.000
1.37E-02,0.040
1.37E-02,0.040
1.38E-02,0.000
1.38E-02,0.000
1.38E-02,0.000
1.38E-02,0.000
1.38E-02,0.040
1.39E-02,0.040
1.39E-02,0.000
1.39E-02,0.000
1.39E-02,0.000
1.39E-02,0.040
1.40E-02,0.000
1.40E-02,0.000
1.40E-02,0.040
1.40E-02,0.040
1.40E-02,0.040
1.41E-02,0.080
1.41E-02,0.000
1.41E-02,0.040
1.41E-02,0.080
1.41E-02,0.040
1.42E-02,0.000
1.42E-02,0.040
1.42E-02,0.040
1.42E-02,0.040
1.42E-02,0.040
1.43E-02,0.080
1.43E-02,0.040
1.43E-02,0.040
1.43E-02,0.040
1.43E-02,0.000
1.44E-02,0.000
1.44E-02,0.000
1.44E-02,0.040
1.44E-02,0.040
1.44E-02,4.800
1.45E-02,4.840
1.45E-02,4.840
1.45E-02,4.840
1.45E-02,4.800
1.45E-02,4.800
1.46E-02,4.800
1.46E-02,4.800
1.46E-02,4.760
1.46E-02,4.800
1.46E-02,4.800
1.47E-02,4.800
1.47E-02,4.800
1.47E-02,4.800
1.47E-02,4.840
1.47E-02,4.800
1.48E-02,4.800
1.48E-02,4.720
1.48E-02,4.720
1.48E-02,4.800
1.48E-02,4.800
1.49E-02,4.800
1.49E-02,4.800
1.49E-02,4.800
1.49E-02,4.800
1.49E-02,4.800
1.50E-02,4.800
1.50E-02,4.720
1.50E-02,4.800
1.50E-02,4.800
1.50E-02,4.800
1.51E-02,4.800
1.51E-02,4.800
1.51E-02,4.840
1.51E-02,4.800
1.51E-02,4.800
1.52E-02,4.760
1.52E-02,4.760
1.52E-02,4.760
1.52E-02,4.800
1.52E-02,4.800
1.53E-02,4.800
1.53E-02,4.800
1.53E-02,4.800
1.53E-02,4.800
1.53E-02,4.800
1.54E-02,4.760
1.54E-02,4.760
1.54E-02,4.760
1.54E-02,4.760
1.54E-02,4.840
1.55E-02,4.720
1.55E-02,4.760
1.55E-02,4.760
1.55E-02,4.760
1.55E-02,4.760
1.56E-02,4.800
1.56E-02,4.760
1.56E-02,4.800
1.56E-02,4.760
1.56E-02,4.760
1.57E-02,4.800
1.57E-02,4.720
1.57E-02,4.800
1.57E-02,4.720
1.57E-02,4.760
1.58E-02,4.720
1.58E-02,4.800
1.58E-02,4.800
1.58E-02,4.840
1.58E-02,4.720
1.59E-02,4.800
1.59E-02,4.760
1.59E-02,4.800
1.59E-02,4.800
1.59E-02,4.800
1.60E-02,4.800
1.60E-02,4.840
1.60E-02,4.840
1.60E-02,4.720
1.60E-02,4.720
1.61E-02,4.760
1.61E-02,4.760
1.61E-02,4.760
1.61E-02,4.720
1.61E-02,4.760
1.62E-02,4.800
1.62E-02,4.800
1.62E-02,4.760
1.62E-02,4.760
1.62E-02,4.720
1.63E-02,4.720
1.63E-02,4.720
1.63E-02,4.720
1.63E-02,4.720
1.63E-02,4.760
1.64E-02,4.760
1.64E-02,4.760
1.64E-02,4.800
1.64E-02,4.760
1.64E-02,0.000
1.65E-02,0.040
1.65E-02,0.040
1.65E-02,-0.080
1.65E-02,-0.040
1.65E-02,0.000
1.66E-02,-0.040
1.66E-02,0.040
1.66E-02,-0.040
1.66E-02,0.000
1.66E-02,-0.040
1.67E-02,0.000
1.67E-02,0.000
1.67E-02,0.000
1.67E-02,0.000
1.67E-02,0.000
1.68E-02,0.040
1.68E-02,0.000
1.68E-02,0.000
1.68E-02,0.040
1.68E-02,0.040
1.69E-02,0.000
1.69E-02,0.000
1.69E-02,0.040
1.69E-02,0.040
1.69E-02,0.040
1.70E-02,0.000
1.70E-02,0.000
1.70E-02,0.040
1.70E-02,0.000
1.70E-02,0.040
1.71E-02,0.000
1.71E-02,0.040
1.71E-02,0.040
1.71E-02,0.040
1.71E-02,0.040
1.72E-02,0.000
1.72E-02,0.040
1.72E-02,0.000
1.72E-02,0.000
1.72E-02,0.000
1.73E-02,0.000
1.73E-02,0.000
1.73E-02,0.000
1.73E-02,0.000
1.73E-02,0.040
1.74E-02,0.040
1.74E-02,0.040
1.74E-02,0.040
1.74E-02,0.000
1.74E-02,0.000
1.75E-02,0.000
1.75E-02,0.000
1.75E-02,0.040
1.75E-02,0.040
1.75E-02,0.040
1.76E-02,0.040
1.76E-02,0.040
1.76E-02,0.080
1.76E-02,0.040
1.76E-02,0.040
1.77E-02,0.040
1.77E-02,0.040
1.77E-02,0.040
1.77E-02,0.040
1.77E-02,0.040
1.78E-02,0.080
1.78E-02,0.040
1.78E-02,0.000
1.78E-02,0.000
1.78E-02,0.040
1.79E-02,0.040
1.79E-02,0.040
1.79E-02,0.040
1.79E-02,0.080
1.79E-02,0.000
1.80E-02,0.000
1.80E-02,0.040
1.80E-02,0.000
1.80E-02,0.000
1.80E-02,0.000
1.81E-02,0.040
1.81E-02,0.040
1.81E-02,0.000
1.81E-02,0.000
1.81E-02,0.000
1.82E-02,0.000
1.82E-02,0.000
1.82E-02,0.040
1.82E-02,0.040
1.82E-02,0.000
1.83E-02,0.040
1.83E-02,0.040
1.83E-02,0.000
1.83E-02,0.000
1.83E-02,0.000
1.84E-02,0.000
1.84E-02,0.040
1.84E-02,0.000
1.84E-02,0.080
1.84E-02,0.080
1.85E-02,4.800
1.85E-02,4.760
1.85E-02,4.760
1.85E-02,4.800
1.85E-02,4.800
1.86E-02,4.800
1.86E-02,4.840
1.86E-02,4.840
1.86E-02,4.840
1.86E-02,4.880
1.87E-02,4.800
1.87E-02,4.800
1.87E-02,4.760
1.87E-02,4.800
1.87E-02,4.800
1.88E-02,4.800
1.88E-02,4.840
1.88E-02,4.760
1.88E-02,4.760
1.88E-02,4.840
1.89E-02,4.800
1.89E-02,4.800
1.89E-02,4.840
1.89E-02,4.800
1.89E-02,4.800
1.90E-02,4.800
1.90E-02,4.760
1.90E-02,4.720
1.90E-02,4.800
1.90E-02,4.800
1.91E-02,4.800
1.91E-02,4.760
1.91E-02,4.800
1.91E-02,4.720
1.91E-02,4.800
1.92E-02,4.720
1.92E-02,4.800
1.92E-02,4.760
1.92E-02,4.760
1.92E-02,4.800
1.93E-02,4.760
1.93E-02,4.760
1.93E-02,4.800
1.93E-02,4.760
1.93E-02,4.720
1.94E-02,4.720
1.94E-02,4.720
1.94E-02,4.720
1.94E-02,4.800
1.94E-02,4.800
1.95E-02,4.800
1.95E-02,4.800
1.95E-02,4.800
1.95E-02,4.760
1.95E-02,4.800
1.96E-02,4.760
1.96E-02,4.800
1.96E-02,4.760
1.96E-02,4.800
1.96E-02,4.800
1.97E-02,4.800
1.97E-02,4.760
1.97E-02,4.800
1.97E-02,4.800
1.97E-02,4.760
1.98E-02,4.760
1.98E-02,4.760
1.98E-02,4.840
1.98E-02,4.800
1.98E-02,4.760
1.99E-02,4.760
1.99E-02,4.760
1.99E-02,4.720
1.99E-02,4.760
1.99E-02,4.760
2.00E-02,4.720
2.00E-02,4.800
2.00E-02,4.800
2.00E-02,4.760
2.00E-02,4.760
2.01E-02,4.760
2.01E-02,4.720
2.01E-02,4.760
2.01E-02,4.760
2.01E-02,4.760
2.02E-02,4.800
2.02E-02,4.800
2.02E-02,4.760
2.02E-02,4.800
2.02E-02,4.760
2.03E-02,4.800
2.03E-02,4.800
2.03E-02,4.720
2.03E-02,4.840
2.03E-02,4.720
2.04E-02,4.800
2.04E-02,4.800
2.04E-02,4.760
2.04E-02,4.720
2.04E-02,4.720
2.05E-02,0.040
2.05E-02,0.040
2.05E-02,-0.040
2.05E-02,0.040
2.05E-02,0.040
2.06E-02,0.000
2.06E-02,0.000
2.06E-02,-0.040
2.06E-02,0.000
2.06E-02,0.000
2.07E-02,0.040
2.07E-02,0.000
2.07E-02,0.000
2.07E-02,0.040
2.07E-02,0.040
2.08E-02,0.000
2.08E-02,0.000
2.08E-02,0.000
2.08E-02,0.000
2.08E-02,0.040
2.09E-02,0.040
2.09E-02,0.000
2.09E-02,0.040
2.09E-02,0.040
2.09E-02,0.000
2.10E-02,-0.040
2.10E-02,0.040
2.10E-02,-0.040
2.10E-02,0.000
2.10E-02,0.000
2.11E-02,0.040
2.11E-02,0.000
2.11E-02,0.000
2.11E-02,0.000
2.11E-02,0.000
2.12E-02,0.000
2.12E-02,0.000
2.12E-02,0.000
2.12E-02,0.000
2.12E-02,0.000
2.13E-02,0.000
2.13E-02,0.040
2.13E-02,0.000
2.13E-02,0.040
2.13E-02,0.000
2.14E-02,0.000
2.14E-02,0.040
2.14E-02,0.000
2.14E-02,0.000
2.14E-02,0.040
2.15E-02,0.040
2.15E-02,0.040
2.15E-02,0.040
2.15E-02,0.000
2.15E-02,0.040
2.16E-02,0.000
2.16E-02,0.040
2.16E-02,0.040
2.16E-02,0.040
2.16E-02,0.000
2.17E-02,0.000
2.17E-02,0.000
2.17E-02,0.000
2.17E-02,0.000
2.17E-02,0.040
2.18E-02,0.040
2.18E-02,0.000
2.18E-02,0.040
2.18E-02,0.040
2.18E-02,0.040
2.19E-02,0.000
2.19E-02,0.040
2.19E-02,0.000
2.19E-02,0.000
2.19E-02,0.000
2.20E-02,0.040
2.20E-02,0.040
2.20E-02,0.000
2.20E-02,0.080
2.20E-02,0.000
2.21E-02,0.000
2.21E-02,0.080
2.21E-02,0.080
2.21E-02,0.000
2.21E-02,0.040
2.22E-02,0.080
2.22E-02,0.040
2.22E-02,0.080
2.22E-02,0.000
2.22E-02,0.080
2.23E-02,0.040
2.23E-02,0.040
2.23E-02,0.080
2.23E-02,0.040
2.23E-02,0.000
2.24E-02,0.000
2.24E-02,0.000
2.24E-02,0.000
2.24E-02,0.040
2.24E-02,0.040
2.25E-02,0.040
2.25E-02,4.840
2.25E-02,4.880
2.25E-02,4.800
2.25E-02,4.800
2.26E-02,4.840
2.26E-02,4.800
2.26E-02,4.800
2.26E-02,4.840
2.26E-02,4.760
2.27E-02,4.760
2.27E-02,4.760
2.27E-02,4.800
2.27E-02,4.800
2.27E-02,4.800
2.28E-02,4.800
2.28E-02,4.840
2.28E-02,4.880
2.28E-02,4.800
2.28E-02,4.800
2.29E-02,4.800
2.29E-02,4.760
2.29E-02,4.800
2.29E-02,4.800
2.29E-02,4.800
2.30E-02,4.800
2.30E-02,4.800
2.30E-02,4.800
2.30E-02,4.840
2.30E-02,4.800
2.31E-02,4.800
2.31E-02,4.760
2.31E-02,4.800
2.31E-02,4.800
2.31E-02,4.840
2.32E-02,4.800
2.32E-02,4.800
2.32E-02,4.760
2.32E-02,4.840
2.32E-02,4.800
2.33E-02,4.800
2.33E-02,4.800
2.33E-02,4.800
2.33E-02,4.720
2.33E-02,4.720
2.34E-02,4.720
2.34E-02,4.760
2.34E-02,4.760
2.34E-02,4.800
2.34E-02,4.720
2.35E-02,4.720
2.35E-02,4.720
2.35E-02,4.800
2.35E-02,4.800
2.35E-02,4.720
2.36E-02,4.760
2.36E-02,4.760
2.36E-02,4.760
2.36E-02,4.760
2.36E-02,4.760
2.37E-02,4.720
2.37E-02,4.760
2.37E-02,4.760
2.37E-02,4.840
2.37E-02,4.840
2.38E-02,4.800
2.38E-02,4.760
2.38E-02,4.800
2.38E-02,4.800
2.38E-02,4.760
2.39E-02,4.760
2.39E-02,4.800
2.39E-02,4.800
2.39E-02,4.800
2.39E-02,4.760
2.40E-02,4.800
2.40E-02,4.800
2.40E-02,4.760
2.40E-02,4.760
2.40E-02,4.760
2.41E-02,4.760
2.41E-02,4.760
2.41E-02,4.720
2.41E-02,4.720
2.41E-02,4.800
2.42E-02,4.760
2.42E-02,4.760
2.42E-02,4.720
2.42E-02,4.760
2.42E-02,4.760
2.43E-02,4.760
2.43E-02,4.760
2.43E-02,4.760
2.43E-02,4.720
2.43E-02,4.720
2.44E-02,4.760
2.44E-02,4.760
2.44E-02,4.800
2.44E-02,4.760
2.44E-02,4.720
2.45E-02,4.720
2.45E-02,4.800
2.45E-02,0.000
2.45E-02,0.000
2.45E-02,0.040
2.46E-02,0.000
2.46E-02,0.040
2.46E-02,0.000
2.46E-02,0.000
2.46E-02,0.040
2.47E-02,0.040
2.47E-02,0.040
2.47E-02,0.000
2.47E-02,0.040
2.47E-02,0.000
2.48E-02,-0.040
2.48E-02,0.000
2.48E-02,0.000
2.48E-02,0.040
2.48E-02,0.040
2.49E-02,0.040
2.49E-02,0.000
2.49E-02,0.040
2.49E-02,0.040
2.49E-02,0.040
2.50E-02,0.000
2.50E-02,0.000
2.50E-02,0.000
2.50E-02,0.040
2.50E-02,0.040
2.51E-02,0.080
2.51E-02,0.040
2.51E-02,0.000
2.51E-02,0.000
2.51E-02,0.000
2.52E-02,0.000
2.52E-02,0.040
2.52E-02,0.080
2.52E-02,0.000
2.52E-02,0.000
2.53E-02,0.040
2.53E-02,0.000
2.53E-02,0.000
2.53E-02,0.000
2.53E-02,0.000
2.54E-02,0.000
2.54E-02,0.040
2.54E-02,0.040
2.54E-02,0.000
2.54E-02,0.000
2.55E-02,0.040
2.55E-02,0.040
2.55E-02,0.000
2.55E-02,0.000
2.55E-02,0.000
2.56E-02,0.040
2.56E-02,0.000
2.56E-02,0.000
2.56E-02,0.000
2.56E-02,0.040
2.57E-02,0.000
2.57E-02,0.000
2.57E-02,0.000
2.57E-02,0.040
2.57E-02,0.040
2.58E-02,0.000
2.58E-02,0.040
2.58E-02,0.000
2.58E-02,0.040
2.58E-02,0.080
2.59E-02,0.040
2.59E-02,0.000
2.59E-02,0.000
2.59E-02,0.080
2.59E-02,0.040
2.60E-02,0.040
2.60E-02,0.040
2.60E-02,0.040
2.60E-02,0.040
2.60E-02,0.000
2.61E-02,0.000
2.61E-02,0.000
2.61E-02,0.040
2.61E-02,0.040
2.61E-02,0.000
2.62E-02,0.000
2.62E-02,0.040
2.62E-02,0.040
2.62E-02,0.000
2.62E-02,0.040
2.63E-02,0.040
2.63E-02,0.000
2.63E-02,0.040
2.63E-02,0.040
2.63E-02,0.040
2.64E-02,0.040
2.64E-02,0.040
2.64E-02,0.040
2.64E-02,0.040
2.64E-02,0.080
2.65E-02,0.000
